<?xml version="1.0" encoding="UTF-8"?>
<glyph name="braceright" format="1">
  <advance width="821"/>
  <unicode hex="007D"/>
  <outline>
    <contour>
      <point x="719" y="600" type="qcurve" smooth="yes"/>
      <point x="508" y="600"/>
      <point x="508" y="424" type="qcurve" smooth="yes"/>
      <point x="508" y="-18" type="line" smooth="yes"/>
      <point x="508" y="-153"/>
      <point x="410" y="-294"/>
      <point x="233" y="-319"/>
      <point x="80" y="-319" type="qcurve" smooth="yes"/>
      <point x="66" y="-319"/>
      <point x="66" y="-272"/>
      <point x="80" y="-272" type="qcurve" smooth="yes"/>
      <point x="245" y="-272"/>
      <point x="371" y="-156"/>
      <point x="371" y="16" type="qcurve" smooth="yes"/>
      <point x="371" y="293" type="line" smooth="yes"/>
      <point x="371" y="436"/>
      <point x="401" y="534"/>
      <point x="467" y="602"/>
      <point x="535" y="614" type="qcurve"/>
      <point x="535" y="621" type="line"/>
      <point x="458" y="639"/>
      <point x="394" y="715"/>
      <point x="371" y="796"/>
      <point x="371" y="965" type="qcurve" smooth="yes"/>
      <point x="371" y="1208" type="line" smooth="yes"/>
      <point x="371" y="1344"/>
      <point x="231" y="1446"/>
      <point x="80" y="1446" type="qcurve" smooth="yes"/>
      <point x="66" y="1446"/>
      <point x="66" y="1493"/>
      <point x="80" y="1493" type="qcurve" smooth="yes"/>
      <point x="250" y="1493"/>
      <point x="429" y="1460"/>
      <point x="508" y="1302"/>
      <point x="508" y="1145" type="qcurve" smooth="yes"/>
      <point x="508" y="807" type="line" smooth="yes"/>
      <point x="508" y="635"/>
      <point x="719" y="635" type="qcurve" smooth="yes"/>
      <point x="729" y="635"/>
      <point x="729" y="600"/>
    </contour>
  </outline>
</glyph>
