<?xml version="1.0" encoding="UTF-8"?>
<glyph name="gamma.alt1" format="1">
  <advance width="471"/>
  <outline>
    <contour>
      <point x="46.7402" y="64.6416" type="qcurve" smooth="yes"/>
      <point x="46.7402" y="125.993"/>
      <point x="193.107" y="209.158"/>
      <point x="195.417" y="319.985"/>
      <point x="241.471" y="1040.36"/>
      <point x="269.312" y="1384.93"/>
      <point x="321.563" y="1437.17"/>
      <point x="780.812" y="1453.03"/>
      <point x="800.312" y="1463.03"/>
      <point x="840.812" y="1590.03"/>
      <point x="877.312" y="1624.62"/>
      <point x="891.943" y="1624.62" type="qcurve" smooth="yes"/>
      <point x="921.812" y="1624.62"/>
      <point x="962.811" y="1571.03"/>
      <point x="962.811" y="1546.53" type="qcurve" smooth="yes"/>
      <point x="962.811" y="1506.52"/>
      <point x="903.812" y="1380"/>
      <point x="843.812" y="1312.5"/>
      <point x="725.062" y="1295.03"/>
      <point x="435.812" y="1290"/>
      <point x="372.812" y="1249.5"/>
      <point x="304.152" y="352.86"/>
      <point x="255.232" y="111.701"/>
      <point x="147.902" y="-4.97363"/>
      <point x="120.315" y="-4.97363" type="qcurve" smooth="yes"/>
      <point x="88.4492" y="-4.97363"/>
      <point x="46.7402" y="45.5283"/>
    </contour>
  </outline>
</glyph>
