<?xml version="1.0" encoding="UTF-8"?>
<glyph name="uni1FB1" format="1">
  <advance width="1185"/>
  <unicode hex="1FB1"/>
  <outline>
    <contour>
      <point x="80" y="218" type="qcurve" smooth="yes"/>
      <point x="80" y="341"/>
      <point x="166" y="610"/>
      <point x="373" y="866"/>
      <point x="465" y="866" type="qcurve" smooth="yes"/>
      <point x="550" y="866"/>
      <point x="650" y="755"/>
      <point x="685" y="611"/>
      <point x="687" y="586" type="qcurve"/>
      <point x="712" y="631"/>
      <point x="758" y="744"/>
      <point x="803" y="823"/>
      <point x="875" y="887"/>
      <point x="943" y="887"/>
      <point x="970" y="846"/>
      <point x="970" y="803" type="qcurve" smooth="yes"/>
      <point x="970" y="734"/>
      <point x="818" y="459"/>
      <point x="748" y="352"/>
      <point x="702" y="290" type="qcurve"/>
      <point x="706" y="199"/>
      <point x="762" y="104"/>
      <point x="902" y="104"/>
      <point x="1060" y="224"/>
      <point x="1126" y="317" type="qcurve" smooth="yes"/>
      <point x="1141" y="339"/>
      <point x="1167" y="339"/>
      <point x="1167" y="307" type="qcurve" smooth="yes"/>
      <point x="1167" y="298"/>
      <point x="1160" y="223"/>
      <point x="1077" y="67"/>
      <point x="923" y="-24"/>
      <point x="762" y="-24"/>
      <point x="644" y="115"/>
      <point x="644" y="216" type="qcurve"/>
      <point x="524" y="72"/>
      <point x="330" y="-23"/>
      <point x="273" y="-23" type="qcurve" smooth="yes"/>
      <point x="186" y="-23"/>
      <point x="80" y="77"/>
    </contour>
    <contour>
      <point x="155" y="190" type="qcurve" smooth="yes"/>
      <point x="155" y="155"/>
      <point x="191" y="118"/>
      <point x="217" y="118" type="qcurve" smooth="yes"/>
      <point x="333" y="118"/>
      <point x="514" y="291"/>
      <point x="605" y="431"/>
      <point x="634" y="484" type="qcurve"/>
      <point x="628" y="576"/>
      <point x="596" y="691"/>
      <point x="554" y="734"/>
      <point x="535" y="734" type="qcurve" smooth="yes"/>
      <point x="472" y="734"/>
      <point x="298" y="545"/>
      <point x="155" y="263"/>
    </contour>
    <contour>
      <point x="838" y="1198" type="line" smooth="yes"/>
      <point x="866" y="1198"/>
      <point x="866" y="1104"/>
      <point x="834" y="1104" type="qcurve" smooth="yes"/>
      <point x="388" y="1104" type="line" smooth="yes"/>
      <point x="359" y="1104"/>
      <point x="359" y="1198"/>
      <point x="388" y="1198" type="qcurve" smooth="yes"/>
    </contour>
  </outline>
</glyph>
