<?xml version="1.0" encoding="UTF-8"?>
<glyph name="uni1FA1" format="1">
  <advance width="1194"/>
  <unicode hex="1FA1"/>
  <outline>
    <contour>
      <point x="80" y="226" type="qcurve" smooth="yes"/>
      <point x="80" y="369"/>
      <point x="216" y="672"/>
      <point x="387" y="870"/>
      <point x="457" y="870" type="qcurve" smooth="yes"/>
      <point x="512" y="870"/>
      <point x="568" y="829"/>
      <point x="568" y="765"/>
      <point x="417" y="654"/>
      <point x="264" y="486"/>
      <point x="149" y="280"/>
      <point x="149" y="205" type="qcurve" smooth="yes"/>
      <point x="149" y="164"/>
      <point x="200" y="108"/>
      <point x="260" y="108" type="qcurve" smooth="yes"/>
      <point x="350" y="108"/>
      <point x="486" y="272"/>
      <point x="577" y="501"/>
      <point x="589" y="536" type="qcurve"/>
      <point x="611" y="607"/>
      <point x="674" y="607" type="qcurve" smooth="yes"/>
      <point x="689" y="607"/>
      <point x="737" y="596"/>
      <point x="777" y="566"/>
      <point x="777" y="539" type="qcurve" smooth="yes"/>
      <point x="777" y="527"/>
      <point x="763" y="480"/>
      <point x="629" y="214"/>
      <point x="570" y="148" type="qcurve"/>
      <point x="594" y="108"/>
      <point x="735" y="108"/>
      <point x="890" y="264"/>
      <point x="982" y="460"/>
      <point x="982" y="675"/>
      <point x="952" y="800"/>
      <point x="952" y="815" type="qcurve" smooth="yes"/>
      <point x="952" y="860"/>
      <point x="992" y="860" type="qcurve" smooth="yes"/>
      <point x="1016" y="860"/>
      <point x="1130" y="664"/>
      <point x="1130" y="521" type="qcurve" smooth="yes"/>
      <point x="1130" y="378"/>
      <point x="1012" y="140"/>
      <point x="826" y="-23"/>
      <point x="715" y="-23" type="qcurve" smooth="yes"/>
      <point x="638" y="-23"/>
      <point x="530" y="32"/>
      <point x="510" y="76" type="qcurve"/>
      <point x="484" y="36"/>
      <point x="374" y="-25"/>
      <point x="310" y="-25" type="qcurve" smooth="yes"/>
      <point x="214" y="-25"/>
      <point x="80" y="75"/>
    </contour>
    <contour>
      <point x="271.5" y="-499" type="qcurve" smooth="yes"/>
      <point x="271.5" y="-468"/>
      <point x="283.5" y="-430" type="qcurve" smooth="yes"/>
      <point x="371.5" y="-156" type="line" smooth="yes"/>
      <point x="378.5" y="-135"/>
      <point x="444.5" y="-135"/>
      <point x="462.5" y="-153"/>
      <point x="462.5" y="-172" type="qcurve" smooth="yes"/>
      <point x="462.5" y="-177"/>
      <point x="379.5" y="-346"/>
      <point x="352.5" y="-423" type="qcurve"/>
      <point x="367.5" y="-418"/>
      <point x="391.5" y="-418" type="qcurve" smooth="yes"/>
      <point x="410.5" y="-418"/>
      <point x="432.5" y="-447"/>
      <point x="432.5" y="-464" type="qcurve" smooth="yes"/>
      <point x="432.5" y="-502"/>
      <point x="379.5" y="-569"/>
      <point x="337.5" y="-569" type="qcurve" smooth="yes"/>
      <point x="304.5" y="-569"/>
      <point x="271.5" y="-537"/>
    </contour>
    <contour>
      <point x="763" y="1438" type="qcurve" smooth="yes"/>
      <point x="794" y="1438"/>
      <point x="843" y="1402"/>
      <point x="843" y="1334"/>
      <point x="798" y="1289"/>
      <point x="738" y="1267"/>
      <point x="738" y="1191"/>
      <point x="806" y="1125" type="qcurve" smooth="yes"/>
      <point x="809.988" y="1121.6"/>
      <point x="809.988" y="1110.69"/>
      <point x="790" y="1091"/>
      <point x="781" y="1091"/>
      <point x="777" y="1094" type="qcurve" smooth="yes"/>
      <point x="639.008" y="1182.08"/>
      <point x="638" y="1300" type="qcurve" smooth="yes"/>
      <point x="638" y="1352"/>
      <point x="708" y="1438"/>
    </contour>
  </outline>
</glyph>
