<?xml version="1.0" encoding="UTF-8"?>
<glyph name="uni205C" format="1">
  <advance width="2048"/>
  <unicode hex="205C"/>
  <outline>
    <contour>
      <point x="131" y="123" type="qcurve" smooth="yes"/>
      <point x="131" y="174"/>
      <point x="203" y="236"/>
      <point x="313" y="236"/>
      <point x="373" y="162"/>
      <point x="373" y="112" type="qcurve" smooth="yes"/>
      <point x="372" y="62"/>
      <point x="338" y="30" type="qcurve" smooth="yes"/>
      <point x="304" y="0"/>
      <point x="198" y="0"/>
      <point x="130" y="72"/>
    </contour>
    <contour>
      <point x="131" y="775" type="qcurve" smooth="yes"/>
      <point x="131" y="826"/>
      <point x="203" y="888"/>
      <point x="313" y="888"/>
      <point x="373" y="814"/>
      <point x="373" y="764" type="qcurve" smooth="yes"/>
      <point x="372" y="714"/>
      <point x="338" y="682" type="qcurve" smooth="yes"/>
      <point x="304" y="652"/>
      <point x="198" y="652"/>
      <point x="130" y="724"/>
    </contour>
    <contour>
      <point x="756" y="174"/>
      <point x="828" y="236"/>
      <point x="938" y="236"/>
      <point x="998" y="162"/>
      <point x="998" y="62"/>
      <point x="964" y="30" type="qcurve" smooth="yes"/>
      <point x="930" y="0"/>
      <point x="824" y="0"/>
      <point x="756" y="72"/>
    </contour>
    <contour>
      <point x="756" y="826"/>
      <point x="828" y="888"/>
      <point x="938" y="888"/>
      <point x="998" y="814"/>
      <point x="998" y="714"/>
      <point x="964" y="682" type="qcurve" smooth="yes"/>
      <point x="930" y="652"/>
      <point x="824" y="652"/>
      <point x="756" y="724"/>
    </contour>
    <contour>
      <point x="998" y="408" type="line"/>
      <point x="630" y="408" type="line"/>
      <point x="630" y="0" type="line"/>
      <point x="498" y="0" type="line"/>
      <point x="498" y="408" type="line"/>
      <point x="131" y="408" type="line"/>
      <point x="131" y="518" type="line"/>
      <point x="498" y="518" type="line"/>
      <point x="498" y="888" type="line"/>
      <point x="630" y="888" type="line"/>
      <point x="630" y="518" type="line"/>
      <point x="998" y="518" type="line"/>
    </contour>
  </outline>
</glyph>
