<?xml version="1.0" encoding="UTF-8"?>
<glyph name="uni2079" format="1">
  <advance width="630"/>
  <unicode hex="2079"/>
  <outline>
    <contour>
      <point x="536" y="1034" type="qcurve" smooth="yes"/>
      <point x="536" y="850"/>
      <point x="394" y="692" type="qcurve" smooth="yes"/>
      <point x="288" y="573"/>
      <point x="129" y="497" type="qcurve" smooth="yes"/>
      <point x="118" y="492"/>
      <point x="106" y="517" type="qcurve" smooth="yes"/>
      <point x="99" y="532"/>
      <point x="99" y="539" type="qcurve" smooth="yes"/>
      <point x="99" y="545"/>
      <point x="103" y="548" type="qcurve" smooth="yes"/>
      <point x="224" y="616"/>
      <point x="287" y="703" type="qcurve" smooth="yes"/>
      <point x="338" y="774"/>
      <point x="375" y="898" type="qcurve"/>
      <point x="346" y="869"/>
      <point x="297" y="852" type="qcurve" smooth="yes"/>
      <point x="271" y="843"/>
      <point x="250" y="843" type="qcurve" smooth="yes"/>
      <point x="150" y="843"/>
      <point x="92" y="909" type="qcurve" smooth="yes"/>
      <point x="33" y="977"/>
      <point x="33" y="1058" type="qcurve" smooth="yes"/>
      <point x="33" y="1171"/>
      <point x="99" y="1243" type="qcurve" smooth="yes"/>
      <point x="171" y="1322"/>
      <point x="290" y="1322" type="qcurve" smooth="yes"/>
      <point x="414" y="1322"/>
      <point x="481" y="1222" type="qcurve" smooth="yes"/>
      <point x="536" y="1141"/>
    </contour>
    <contour>
      <point x="392" y="1033" type="qcurve" smooth="yes"/>
      <point x="392" y="1258"/>
      <point x="272" y="1258" type="qcurve" smooth="yes"/>
      <point x="208" y="1258"/>
      <point x="182" y="1178" type="qcurve" smooth="yes"/>
      <point x="171" y="1141"/>
      <point x="171" y="1097" type="qcurve" smooth="yes"/>
      <point x="171" y="1035"/>
      <point x="203" y="982" type="qcurve" smooth="yes"/>
      <point x="238" y="926"/>
      <point x="289" y="926" type="qcurve" smooth="yes"/>
      <point x="350" y="926"/>
      <point x="385" y="962" type="qcurve"/>
      <point x="392" y="989"/>
    </contour>
  </outline>
</glyph>
