<?xml version="1.0" encoding="UTF-8"?>
<glyph name="uni2051" format="1">
  <advance width="807"/>
  <unicode hex="2051"/>
  <outline>
    <contour>
      <point x="367" y="-151" type="line"/>
      <point x="367" y="136" type="line"/>
      <point x="123" y="-2" type="line"/>
      <point x="86" y="59" type="line"/>
      <point x="332" y="199" type="line"/>
      <point x="86" y="341" type="line"/>
      <point x="123" y="402" type="line"/>
      <point x="367" y="263" type="line"/>
      <point x="367" y="539" type="line"/>
      <point x="438" y="539" type="line"/>
      <point x="438" y="261" type="line"/>
      <point x="682" y="402" type="line"/>
      <point x="719" y="341" type="line"/>
      <point x="475" y="199" type="line"/>
      <point x="719" y="59" type="line"/>
      <point x="682" y="-2" type="line"/>
      <point x="438" y="136" type="line"/>
      <point x="438" y="-151" type="line"/>
    </contour>
    <contour>
      <point x="367" y="694" type="line"/>
      <point x="367" y="981" type="line"/>
      <point x="123" y="843" type="line"/>
      <point x="86" y="904" type="line"/>
      <point x="332" y="1044" type="line"/>
      <point x="86" y="1186" type="line"/>
      <point x="123" y="1247" type="line"/>
      <point x="367" y="1108" type="line"/>
      <point x="367" y="1384" type="line"/>
      <point x="438" y="1384" type="line"/>
      <point x="438" y="1106" type="line"/>
      <point x="682" y="1247" type="line"/>
      <point x="719" y="1186" type="line"/>
      <point x="475" y="1044" type="line"/>
      <point x="719" y="904" type="line"/>
      <point x="682" y="843" type="line"/>
      <point x="438" y="981" type="line"/>
      <point x="438" y="694" type="line"/>
    </contour>
  </outline>
</glyph>
