<?xml version="1.0" encoding="UTF-8"?>
<glyph name="uni2080" format="1">
  <advance width="630"/>
  <unicode hex="2080"/>
  <outline>
    <contour>
      <point x="567" y="108" type="qcurve" smooth="yes"/>
      <point x="567" y="-14"/>
      <point x="525" y="-116" type="qcurve" smooth="yes"/>
      <point x="455" y="-288"/>
      <point x="299" y="-288" type="qcurve" smooth="yes"/>
      <point x="138" y="-288"/>
      <point x="71" y="-113" type="qcurve" smooth="yes"/>
      <point x="33" y="-12"/>
      <point x="33" y="123" type="qcurve" smooth="yes"/>
      <point x="33" y="262"/>
      <point x="79" y="365" type="qcurve" smooth="yes"/>
      <point x="149" y="522"/>
      <point x="300" y="522" type="qcurve" smooth="yes"/>
      <point x="458" y="522"/>
      <point x="526" y="351" type="qcurve" smooth="yes"/>
      <point x="567" y="247"/>
    </contour>
    <contour>
      <point x="416" y="102" type="line" smooth="yes"/>
      <point x="416" y="266"/>
      <point x="393" y="363" type="qcurve" smooth="yes"/>
      <point x="368" y="467"/>
      <point x="302" y="468" type="qcurve" smooth="yes"/>
      <point x="207" y="468"/>
      <point x="186" y="255" type="qcurve" smooth="yes"/>
      <point x="181" y="202"/>
      <point x="182" y="130" type="qcurve" smooth="yes"/>
      <point x="182" y="-25"/>
      <point x="199" y="-100" type="qcurve" smooth="yes"/>
      <point x="230" y="-233"/>
      <point x="298" y="-232" type="qcurve" smooth="yes"/>
      <point x="416" y="-232"/>
      <point x="416" y="65" type="qcurve" smooth="yes"/>
    </contour>
  </outline>
</glyph>
