<?xml version="1.0" encoding="UTF-8"?>
<glyph name="onehalf" format="1">
  <advance width="1509"/>
  <unicode hex="00BD"/>
  <outline>
    <contour>
      <point x="1402" y="20" type="line" smooth="yes"/>
      <point x="1391" y="-4"/>
      <point x="1351" y="-4" type="qcurve" smooth="yes"/>
      <point x="1307" y="-4"/>
      <point x="1223" y="0"/>
      <point x="1191" y="0" type="qcurve" smooth="yes"/>
      <point x="1139" y="0" type="line"/>
      <point x="1087" y="-2"/>
      <point x="977" y="-4"/>
      <point x="917" y="-4" type="qcurve" smooth="yes"/>
      <point x="883" y="-4"/>
      <point x="883" y="26" type="qcurve" smooth="yes"/>
      <point x="883" y="40"/>
      <point x="896" y="52" type="qcurve" smooth="yes"/>
      <point x="1000" y="156"/>
      <point x="1100" y="292" type="qcurve" smooth="yes"/>
      <point x="1265" y="519"/>
      <point x="1265" y="635" type="qcurve" smooth="yes"/>
      <point x="1265" y="768"/>
      <point x="1154" y="768" type="qcurve" smooth="yes"/>
      <point x="1058" y="768"/>
      <point x="997" y="661" type="qcurve" smooth="yes"/>
      <point x="993" y="654"/>
      <point x="979" y="654"/>
      <point x="953" y="670"/>
      <point x="953" y="677" type="qcurve" smooth="yes"/>
      <point x="953" y="680"/>
      <point x="955" y="684" type="qcurve" smooth="yes"/>
      <point x="1008" y="787"/>
      <point x="1091" y="834" type="qcurve" smooth="yes"/>
      <point x="1145" y="864"/>
      <point x="1206" y="864" type="qcurve" smooth="yes"/>
      <point x="1312" y="864"/>
      <point x="1375" y="793" type="qcurve" smooth="yes"/>
      <point x="1431" y="730"/>
      <point x="1432" y="641" type="qcurve"/>
      <point x="1432" y="521"/>
      <point x="1253" y="317" type="qcurve" smooth="yes"/>
      <point x="1215" y="274"/>
      <point x="1065" y="125" type="qcurve"/>
      <point x="1257" y="125" type="line" smooth="yes"/>
      <point x="1332" y="125"/>
      <point x="1359" y="137" type="qcurve" smooth="yes"/>
      <point x="1388" y="150"/>
      <point x="1410" y="189" type="qcurve" smooth="yes"/>
      <point x="1414" y="197"/>
      <point x="1424" y="197" type="qcurve" smooth="yes"/>
      <point x="1433" y="197"/>
      <point x="1445" y="191" type="qcurve" smooth="yes"/>
      <point x="1466" y="181"/>
      <point x="1466" y="174" type="qcurve" smooth="yes"/>
      <point x="1466" y="172"/>
      <point x="1465" y="170" type="qcurve" smooth="yes"/>
    </contour>
    <contour>
      <point x="132" y="524" type="line" smooth="yes"/>
      <point x="122" y="524"/>
      <point x="122" y="567"/>
      <point x="132" y="567" type="qcurve" smooth="yes"/>
      <point x="246" y="567"/>
      <point x="246" y="705" type="qcurve" smooth="yes"/>
      <point x="246" y="1229" type="line" smooth="yes"/>
      <point x="246" y="1266"/>
      <point x="237" y="1266" type="qcurve" smooth="yes"/>
      <point x="230" y="1266"/>
      <point x="171" y="1245"/>
      <point x="128" y="1225" type="qcurve" smooth="yes"/>
      <point x="125" y="1224"/>
      <point x="122" y="1224" type="qcurve" smooth="yes"/>
      <point x="112" y="1224"/>
      <point x="108" y="1239" type="qcurve" smooth="yes"/>
      <point x="106" y="1247"/>
      <point x="106" y="1252" type="qcurve" smooth="yes"/>
      <point x="106" y="1261"/>
      <point x="113" y="1264" type="qcurve" smooth="yes"/>
      <point x="207" y="1303"/>
      <point x="339" y="1402" type="qcurve" smooth="yes"/>
      <point x="356" y="1415"/>
      <point x="371" y="1415" type="qcurve" smooth="yes"/>
      <point x="399" y="1415"/>
      <point x="399" y="1364"/>
      <point x="394" y="1314"/>
      <point x="394" y="1277" type="qcurve" smooth="yes"/>
      <point x="394" y="706" type="line" smooth="yes"/>
      <point x="394" y="568"/>
      <point x="500" y="567" type="qcurve" smooth="yes"/>
      <point x="510" y="567"/>
      <point x="510" y="524"/>
      <point x="500" y="524" type="qcurve" smooth="yes"/>
    </contour>
    <contour>
      <point x="1255" y="1389" type="qcurve" smooth="yes"/>
      <point x="364" y="35" type="line" smooth="yes"/>
      <point x="361" y="31"/>
      <point x="356" y="31" type="qcurve" smooth="yes"/>
      <point x="346" y="31"/>
      <point x="328" y="44" type="qcurve" smooth="yes"/>
      <point x="306" y="61"/>
      <point x="306" y="71" type="qcurve" smooth="yes"/>
      <point x="306" y="73"/>
      <point x="307" y="74" type="qcurve" smooth="yes"/>
      <point x="1195" y="1425" type="line" smooth="yes"/>
      <point x="1199" y="1431"/>
      <point x="1205" y="1431" type="qcurve" smooth="yes"/>
      <point x="1215" y="1431"/>
      <point x="1233" y="1419" type="qcurve" smooth="yes"/>
      <point x="1256" y="1404"/>
      <point x="1256" y="1394" type="qcurve" smooth="yes"/>
      <point x="1256" y="1391"/>
    </contour>
  </outline>
</glyph>
