<?xml version="1.0" encoding="UTF-8"?>
<glyph name="Phi" format="1">
  <advance width="1529"/>
  <unicode hex="03A6"/>
  <outline>
    <contour>
      <point x="71" y="632" type="qcurve" smooth="yes"/>
      <point x="71" y="815"/>
      <point x="410" y="1089"/>
      <point x="706" y="1089" type="qcurve"/>
      <point x="706" y="1204"/>
      <point x="517" y="1204" type="qcurve" smooth="yes"/>
      <point x="504" y="1204"/>
      <point x="504" y="1275"/>
      <point x="517" y="1275" type="qcurve" smooth="yes"/>
      <point x="1046" y="1275" type="line" smooth="yes"/>
      <point x="1059" y="1275"/>
      <point x="1059" y="1204"/>
      <point x="1046" y="1204" type="qcurve" smooth="yes"/>
      <point x="938" y="1204"/>
      <point x="903" y="1181" type="qcurve"/>
      <point x="866" y="1155"/>
      <point x="866" y="1089" type="qcurve"/>
      <point x="1169" y="1071"/>
      <point x="1463" y="826"/>
      <point x="1463" y="629" type="qcurve" smooth="yes"/>
      <point x="1463" y="454"/>
      <point x="1195" y="183"/>
      <point x="866" y="169" type="qcurve"/>
      <point x="866" y="69"/>
      <point x="1046" y="69" type="qcurve" smooth="yes"/>
      <point x="1059" y="69"/>
      <point x="1059" y="0"/>
      <point x="1046" y="0" type="qcurve" smooth="yes"/>
      <point x="528" y="0" type="line" smooth="yes"/>
      <point x="514" y="0"/>
      <point x="514" y="68"/>
      <point x="528" y="69" type="qcurve"/>
      <point x="706" y="69"/>
      <point x="706" y="167" type="qcurve"/>
      <point x="485" y="177"/>
      <point x="228" y="285"/>
      <point x="71" y="477"/>
    </contour>
    <contour>
      <point x="866" y="243" type="line"/>
      <point x="1075" y="257"/>
      <point x="1272" y="512"/>
      <point x="1272" y="620" type="qcurve" smooth="yes"/>
      <point x="1272" y="746"/>
      <point x="1013" y="1005"/>
      <point x="866" y="1018" type="qcurve"/>
    </contour>
    <contour>
      <point x="282" y="667" type="qcurve" smooth="yes"/>
      <point x="282" y="521"/>
      <point x="521" y="243"/>
      <point x="706" y="243" type="qcurve"/>
      <point x="706" y="1021" type="line"/>
      <point x="527" y="1010"/>
      <point x="372" y="895"/>
      <point x="282" y="754"/>
    </contour>
  </outline>
</glyph>
