<?xml version="1.0" encoding="UTF-8"?>
<glyph name="twodotenleader" format="1">
  <advance width="1063"/>
  <unicode hex="2025"/>
  <outline>
    <contour>
      <point x="797" y="211" type="qcurve" smooth="yes"/>
      <point x="862" y="211"/>
      <point x="894" y="156" type="qcurve" smooth="yes"/>
      <point x="912" y="126"/>
      <point x="912" y="88" type="qcurve" smooth="yes"/>
      <point x="912" y="23"/>
      <point x="858" y="-9" type="qcurve" smooth="yes"/>
      <point x="831" y="-25"/>
      <point x="797" y="-25" type="qcurve" smooth="yes"/>
      <point x="723" y="-25"/>
      <point x="688" y="31" type="qcurve" smooth="yes"/>
      <point x="670" y="60"/>
      <point x="670" y="96" type="qcurve" smooth="yes"/>
      <point x="670" y="164"/>
      <point x="728" y="195" type="qcurve" smooth="yes"/>
      <point x="758" y="211"/>
    </contour>
    <contour>
      <point x="266" y="211" type="qcurve" smooth="yes"/>
      <point x="331" y="211"/>
      <point x="363" y="156" type="qcurve" smooth="yes"/>
      <point x="381" y="126"/>
      <point x="381" y="88" type="qcurve" smooth="yes"/>
      <point x="381" y="23"/>
      <point x="327" y="-9" type="qcurve" smooth="yes"/>
      <point x="300" y="-25"/>
      <point x="266" y="-25" type="qcurve" smooth="yes"/>
      <point x="192" y="-25"/>
      <point x="157" y="31" type="qcurve" smooth="yes"/>
      <point x="139" y="60"/>
      <point x="139" y="96" type="qcurve" smooth="yes"/>
      <point x="139" y="164"/>
      <point x="197" y="195" type="qcurve" smooth="yes"/>
      <point x="227" y="211"/>
    </contour>
  </outline>
</glyph>
