<?xml version="1.0" encoding="UTF-8"?>
<glyph name=".notdef" format="1">
  <advance width="1024"/>
  <outline>
    <contour>
      <point x="353.5" y="1194" type="qcurve" smooth="yes"/>
      <point x="645.5" y="1194"/>
      <point x="645.5" y="995" type="qcurve" smooth="yes"/>
      <point x="645.5" y="906"/>
      <point x="529.5" y="844" type="qcurve" smooth="yes"/>
      <point x="424.5" y="788" type="line" smooth="yes"/>
      <point x="310.5" y="726"/>
      <point x="310.5" y="637" type="qcurve" smooth="yes"/>
      <point x="310.5" y="562"/>
      <point x="385.5" y="426" type="qcurve" smooth="yes"/>
      <point x="393.5" y="418"/>
      <point x="408.5" y="419" type="qcurve" smooth="yes"/>
      <point x="430.5" y="423"/>
      <point x="430.5" y="438" type="qcurve" smooth="yes"/>
      <point x="410.5" y="507"/>
      <point x="410.5" y="563" type="qcurve" smooth="yes"/>
      <point x="410.5" y="612"/>
      <point x="484.5" y="653" type="qcurve" smooth="yes"/>
      <point x="649.5" y="741" type="line" smooth="yes"/>
      <point x="731.5" y="784"/>
      <point x="731.5" y="930" type="qcurve" smooth="yes"/>
      <point x="728.5" y="1090"/>
      <point x="613.5" y="1231" type="qcurve" smooth="yes"/>
      <point x="499.5" y="1362"/>
      <point x="369.5" y="1362" type="qcurve" smooth="yes"/>
      <point x="285.5" y="1362"/>
      <point x="285.5" y="1280" type="qcurve" smooth="yes"/>
      <point x="285.5" y="1194"/>
    </contour>
    <contour>
      <point x="533.5" y="86" type="qcurve" smooth="yes"/>
      <point x="533.5" y="125"/>
      <point x="513.5" y="157" type="qcurve" smooth="yes"/>
      <point x="478.5" y="213"/>
      <point x="414.5" y="213" type="qcurve" smooth="yes"/>
      <point x="376.5" y="213"/>
      <point x="346.5" y="192" type="qcurve" smooth="yes"/>
      <point x="295.5" y="155"/>
      <point x="295.5" y="86" type="qcurve" smooth="yes"/>
      <point x="295.5" y="49"/>
      <point x="317.5" y="18" type="qcurve" smooth="yes"/>
      <point x="353.5" y="-31"/>
      <point x="414.5" y="-31" type="qcurve" smooth="yes"/>
      <point x="449.5" y="-31"/>
      <point x="479.5" y="-14" type="qcurve" smooth="yes"/>
      <point x="533.5" y="19"/>
    </contour>
    <contour>
      <point x="68" y="-132" type="line"/>
      <point x="68" y="1507.5" type="line"/>
      <point x="931.5" y="1507.5" type="line"/>
      <point x="931.5" y="-132" type="line"/>
    </contour>
  </outline>
</glyph>
