<?xml version="1.0" encoding="UTF-8"?>
<glyph name="Delta" format="1">
  <advance width="1266"/>
  <unicode hex="2206"/>
  <outline>
    <contour>
      <point x="1227" y="0" type="line"/>
      <point x="39" y="0" type="line"/>
      <point x="633" y="1409" type="line"/>
    </contour>
    <contour>
      <point x="994" y="106" type="line"/>
      <point x="582" y="1085" type="line"/>
      <point x="169" y="106" type="line"/>
    </contour>
  </outline>
</glyph>
