<?xml version="1.0" encoding="UTF-8"?>
<glyph name="ibreve" format="1">
  <advance width="528"/>
  <unicode hex="012D"/>
  <outline>
    <contour>
      <point x="217" y="-75" type="move" name="below_center"/>
    </contour>
    <contour>
      <point x="443" y="1380" type="move" name="above_center"/>
    </contour>
    <component base="dotlessi"/>
    <component base="breve" xOffset="-189"/>
  </outline>
</glyph>
