<?xml version="1.0" encoding="UTF-8"?>
<glyph name="O" format="1">
  <advance width="1478"/>
  <unicode hex="004F"/>
  <outline>
    <contour>
      <point x="1070" y="1340" type="move" name="ogonek_above"/>
    </contour>
    <contour>
      <point x="673" y="-75" type="move" name="below_center"/>
    </contour>
    <contour>
      <point x="1094" y="1415" type="move" name="above_center"/>
    </contour>
    <contour>
      <point x="1534" y="886" type="qcurve" smooth="yes"/>
      <point x="1534" y="536"/>
      <point x="984" y="-27"/>
      <point x="672" y="-27" type="qcurve" smooth="yes"/>
      <point x="495" y="-27"/>
      <point x="217" y="197"/>
      <point x="217" y="441" type="qcurve" smooth="yes"/>
      <point x="217" y="802"/>
      <point x="770" y="1385"/>
      <point x="1079" y="1385" type="qcurve" smooth="yes"/>
      <point x="1298" y="1385"/>
      <point x="1534" y="1096"/>
    </contour>
    <contour>
      <point x="1371" y="906" type="qcurve" smooth="yes"/>
      <point x="1371" y="1078"/>
      <point x="1178" y="1313"/>
      <point x="1031" y="1314" type="qcurve" smooth="yes"/>
      <point x="874" y="1314"/>
      <point x="559" y="1048"/>
      <point x="469.5" y="852.5" type="qcurve" smooth="yes"/>
      <point x="380" y="656"/>
      <point x="380" y="456" type="qcurve" smooth="yes"/>
      <point x="380" y="276"/>
      <point x="581" y="46"/>
      <point x="707" y="46" type="qcurve" smooth="yes"/>
      <point x="918" y="46"/>
      <point x="1219" y="342"/>
      <point x="1371" y="734"/>
    </contour>
  </outline>
</glyph>
