<?xml version="1.0" encoding="UTF-8"?>
<glyph name="uni031C" format="1">
  <advance width="0"/>
  <unicode hex="031C"/>
  <outline>
    <contour>
      <point x="0" y="-75" type="move" name="_below_center_1"/>
    </contour>
    <contour>
      <point x="-128" y="-578" type="move" name="below_center_1"/>
    </contour>
    <contour>
      <point x="0" y="-75" type="move" name="_below_center"/>
    </contour>
    <contour>
      <point x="68.045" y="-135" type="qcurve"/>
      <point x="55.578" y="-189" type="line"/>
      <point x="-18.884" y="-191"/>
      <point x="-70.429" y="-254" type="qcurve" smooth="yes"/>
      <point x="-116.764" y="-311.444"/>
      <point x="-116.764" y="-375.708" type="qcurve" smooth="yes"/>
      <point x="-116.764" y="-464.508"/>
      <point x="-9.528" y="-471" type="qcurve"/>
      <point x="-21.995" y="-525" type="line"/>
      <point x="-180" y="-520.103"/>
      <point x="-180" y="-393.33" type="qcurve" smooth="yes"/>
      <point x="-180" y="-364.76"/>
      <point x="-171.975" y="-330" type="qcurve" smooth="yes"/>
      <point x="-128.341" y="-141"/>
    </contour>
  </outline>
</glyph>
