<?xml version="1.0" encoding="UTF-8"?>
<glyph name="uni2087" format="1">
  <advance width="621"/>
  <unicode hex="2087"/>
  <outline>
    <contour>
      <point x="113.05" y="-280" type="line" smooth="yes"/>
      <point x="105.9" y="-289.75"/>
      <point x="14.9004" y="-289.75"/>
      <point x="14.9004" y="-281.3" type="qcurve" smooth="yes"/>
      <point x="14.9004" y="-280.65"/>
      <point x="56.5" y="-229.3"/>
      <point x="130.6" y="-125.3" type="qcurve" smooth="yes"/>
      <point x="545.3" y="460.35" type="line" smooth="yes"/>
      <point x="556.35" y="477.25"/>
      <point x="556.35" y="488.3"/>
      <point x="536.85" y="488.3" type="qcurve" smooth="yes"/>
      <point x="397.75" y="488.3" type="line" smooth="yes"/>
      <point x="291.15" y="488.3"/>
      <point x="223.55" y="470.75"/>
      <point x="163.75" y="429.8"/>
      <point x="140.35" y="394.7" type="qcurve" smooth="yes"/>
      <point x="134.5" y="385.6"/>
      <point x="97.4502" y="385.6"/>
      <point x="102" y="394.7" type="qcurve" smooth="yes"/>
      <point x="179.35" y="555.9" type="line" smooth="yes"/>
      <point x="189.1" y="576.05"/>
      <point x="210.55" y="576.05" type="qcurve" smooth="yes"/>
      <point x="653.85" y="576.05" type="line" smooth="yes"/>
      <point x="675.3" y="576.05"/>
      <point x="675.3" y="558.5"/>
      <point x="664.25" y="541.6" type="qcurve" smooth="yes"/>
    </contour>
  </outline>
</glyph>
