<?xml version="1.0" encoding="UTF-8"?>
<glyph name="uniE7E5" format="1">
  <advance width="950"/>
  <unicode hex="E7E5"/>
  <outline>
    <component base="dotbelowcomb" xOffset="520.421" yOffset="0.272165"/>
    <component base="uniA77C"/>
  </outline>
</glyph>
