<?xml version="1.0" encoding="UTF-8"?>
<glyph name="uniEFA2" format="1">
  <advance width="1095"/>
  <unicode hex="EFA2"/>
  <outline>
    <contour>
      <point x="453" y="-75" type="move" name="below_center"/>
    </contour>
    <contour>
      <point x="663" y="900" type="move" name="above_center"/>
    </contour>
    <contour>
      <point x="210" y="140" type="qcurve" smooth="yes"/>
      <point x="210" y="74"/>
      <point x="288" y="74" type="qcurve" smooth="yes"/>
      <point x="341" y="74"/>
      <point x="396" y="110" type="qcurve" smooth="yes"/>
      <point x="410" y="119"/>
      <point x="421" y="127" type="qcurve"/>
      <point x="422" y="135"/>
      <point x="424" y="141" type="qcurve" smooth="yes"/>
      <point x="504" y="423" type="line"/>
      <point x="497" y="422"/>
      <point x="488" y="418" type="qcurve" smooth="yes"/>
      <point x="362" y="368"/>
      <point x="254" y="270"/>
      <point x="210" y="181"/>
    </contour>
    <contour>
      <point x="1103" y="705" type="qcurve" smooth="yes"/>
      <point x="1103" y="579"/>
      <point x="945" y="222"/>
      <point x="663" y="-27"/>
      <point x="530" y="-27" type="qcurve" smooth="yes"/>
      <point x="472" y="-27"/>
      <point x="445" y="12" type="qcurve" smooth="yes"/>
      <point x="425" y="42"/>
      <point x="419" y="69" type="qcurve"/>
      <point x="313" y="-10"/>
      <point x="226" y="-10" type="qcurve" smooth="yes"/>
      <point x="138" y="-10"/>
      <point x="63" y="54"/>
      <point x="63" y="103" type="qcurve" smooth="yes"/>
      <point x="63" y="163"/>
      <point x="120" y="273"/>
      <point x="243" y="380"/>
      <point x="393" y="438" type="qcurve" smooth="yes"/>
      <point x="481" y="472"/>
      <point x="525" y="499" type="qcurve"/>
      <point x="561" y="625" type="line" smooth="yes"/>
      <point x="567" y="646"/>
      <point x="567" y="662" type="qcurve" smooth="yes"/>
      <point x="567" y="711"/>
      <point x="535" y="711" type="qcurve" smooth="yes"/>
      <point x="504" y="711"/>
      <point x="428" y="625" type="qcurve" smooth="yes"/>
      <point x="420" y="617"/>
      <point x="400" y="635" type="qcurve" smooth="yes"/>
      <point x="385" y="649"/>
      <point x="385" y="657" type="qcurve" smooth="yes"/>
      <point x="385" y="660"/>
      <point x="387" y="662" type="qcurve" smooth="yes"/>
      <point x="542" y="852"/>
      <point x="657" y="852" type="qcurve" smooth="yes"/>
      <point x="685" y="852"/>
      <point x="712" y="808"/>
      <point x="712" y="768" type="qcurve" smooth="yes"/>
      <point x="712" y="726"/>
      <point x="701" y="689" type="qcurve" smooth="yes"/>
      <point x="565" y="207" type="line" smooth="yes"/>
      <point x="555" y="172"/>
      <point x="555" y="147" type="qcurve" smooth="yes"/>
      <point x="555" y="76"/>
      <point x="718" y="76"/>
      <point x="974" y="401"/>
      <point x="974" y="584" type="qcurve" smooth="yes"/>
      <point x="974" y="703"/>
      <point x="938" y="778" type="qcurve"/>
      <point x="938" y="852"/>
      <point x="1007" y="852" type="qcurve" smooth="yes"/>
      <point x="1057" y="852"/>
      <point x="1103" y="754"/>
    </contour>
  </outline>
</glyph>
