<?xml version="1.0" encoding="UTF-8"?>
<glyph name="uniEFF3" format="1">
  <advance width="1415"/>
  <unicode hex="EFF3"/>
  <outline>
    <component base="dotbelowcomb" xOffset="627.619" yOffset="0.402062"/>
    <component base="uniA733"/>
  </outline>
</glyph>
