<?xml version="1.0" encoding="UTF-8"?>
<glyph name="uniE42E" format="1">
  <advance width="918"/>
  <unicode hex="E42E"/>
  <outline>
    <component base="uni036E" xOffset="712.241" yOffset="-0.597938"/>
    <component base="a"/>
  </outline>
</glyph>
