<?xml version="1.0" encoding="UTF-8"?>
<glyph name="uniE433" format="1">
  <advance width="918"/>
  <unicode hex="E433"/>
  <outline>
    <contour>
      <point x="664" y="543" type="qcurve"/>
      <point x="709" y="694" type="line"/>
      <point x="666" y="778"/>
      <point x="578" y="778" type="qcurve"/>
      <point x="442" y="778"/>
      <point x="326.5" y="558" type="qcurve"/>
      <point x="211" y="338"/>
      <point x="211" y="176" type="qcurve"/>
      <point x="211" y="82"/>
      <point x="270" y="82" type="qcurve"/>
      <point x="325" y="82"/>
      <point x="425" y="182.5" type="qcurve"/>
      <point x="525" y="283"/>
      <point x="581.5" y="369" type="qcurve"/>
      <point x="638" y="455"/>
    </contour>
    <contour>
      <point x="690" y="203" type="line"/>
      <point x="680" y="168"/>
      <point x="680" y="144" type="qcurve"/>
      <point x="680" y="103"/>
      <point x="712" y="103" type="qcurve"/>
      <point x="745" y="103"/>
      <point x="842" y="197" type="qcurve"/>
      <point x="851" y="206"/>
      <point x="870" y="186" type="qcurve"/>
      <point x="883" y="172"/>
      <point x="884" y="164" type="qcurve"/>
      <point x="884" y="160"/>
      <point x="881" y="156" type="qcurve"/>
      <point x="815" y="75"/>
      <point x="735.5" y="24" type="qcurve"/>
      <point x="656" y="-27"/>
      <point x="596" y="-27" type="qcurve"/>
      <point x="535" y="-27"/>
      <point x="535" y="52" type="qcurve"/>
      <point x="535" y="108"/>
      <point x="559" y="172" type="qcurve"/>
      <point x="602" y="287" type="line"/>
      <point x="590" y="291" type="line"/>
      <point x="352" y="-27"/>
      <point x="186" y="-27" type="qcurve"/>
      <point x="126" y="-27"/>
      <point x="94.5" y="21" type="qcurve"/>
      <point x="63" y="69"/>
      <point x="63" y="141" type="qcurve"/>
      <point x="63" y="352"/>
      <point x="236" y="598" type="qcurve"/>
      <point x="382" y="805"/>
      <point x="542" y="838" type="qcurve"/>
      <point x="764" y="1015"/>
      <point x="764" y="1142" type="qcurve"/>
      <point x="764" y="1217"/>
      <point x="674" y="1217" type="qcurve"/>
      <point x="620" y="1217"/>
      <point x="573" y="1187" type="qcurve"/>
      <point x="555" y="1193"/>
      <point x="561" y="1219" type="qcurve"/>
      <point x="658" y="1318"/>
      <point x="764" y="1318" type="qcurve"/>
      <point x="870" y="1318"/>
      <point x="900" y="1248" type="qcurve"/>
      <point x="909" y="1226"/>
      <point x="909" y="1200" type="qcurve"/>
      <point x="909" y="1039"/>
      <point x="629" y="842" type="qcurve"/>
      <point x="687" y="834"/>
      <point x="737" y="788" type="qcurve"/>
      <point x="761" y="858" type="line"/>
      <point x="769" y="882"/>
      <point x="824.5" y="882" type="qcurve"/>
      <point x="880" y="882"/>
      <point x="880" y="863" type="qcurve"/>
      <point x="880" y="861"/>
      <point x="879" y="858" type="qcurve"/>
    </contour>
  </outline>
</glyph>
