<?xml version="1.0" encoding="UTF-8"?>
<glyph name="uniEBE7" format="1">
  <advance width="1377"/>
  <unicode hex="EBE7"/>
  <outline>
    <component base="uni0308" xOffset="878.699" yOffset="187.157"/>
    <component base="uniEED6"/>
  </outline>
</glyph>
