<?xml version="1.0" encoding="UTF-8"?>
<glyph name="uniE196" format="1">
  <advance width="1504"/>
  <unicode hex="E196"/>
  <outline>
    <component base="s.sc" xOffset="752"/>
    <component base="s.sc"/>
  </outline>
</glyph>
