<?xml version="1.0" encoding="UTF-8"?>
<glyph name="uniEBFA" format="1">
  <advance width="1478"/>
  <unicode hex="EBFA"/>
  <outline>
    <component base="CapAcute" xOffset="600"/>
    <component base="uni0307" xOffset="972.843" yOffset="524.214"/>
    <component base="uni01EA"/>
  </outline>
</glyph>
