<?xml version="1.0" encoding="UTF-8"?>
<glyph name="uniF4FF" format="1">
  <advance width="1433"/>
  <unicode hex="F4FF"/>
  <outline>
    <contour>
      <point x="1105" y="225" type="line"/>
      <point x="1093" y="183"/>
      <point x="1093" y="154" type="qcurve"/>
      <point x="1093" y="102"/>
      <point x="1128" y="102" type="qcurve"/>
      <point x="1218" y="102"/>
      <point x="1351" y="301" type="qcurve"/>
      <point x="1353" y="304"/>
      <point x="1357" y="304" type="qcurve"/>
      <point x="1373" y="304"/>
      <point x="1385" y="282" type="qcurve"/>
      <point x="1392" y="269"/>
      <point x="1386" y="260" type="qcurve"/>
      <point x="1270" y="98"/>
      <point x="1193.5" y="35.5" type="qcurve"/>
      <point x="1117" y="-27"/>
      <point x="1037" y="-27" type="qcurve"/>
      <point x="997" y="-27"/>
      <point x="974" y="3.5" type="qcurve"/>
      <point x="951" y="34"/>
      <point x="951" y="76" type="qcurve"/>
      <point x="951" y="120"/>
      <point x="959" y="148" type="qcurve"/>
      <point x="1127" y="730" type="line"/>
      <point x="971" y="730" type="line"/>
      <point x="959" y="730"/>
      <point x="959" y="749" type="qcurve"/>
      <point x="959" y="785"/>
      <point x="981" y="789" type="qcurve"/>
      <point x="1154" y="819" type="line"/>
      <point x="1262" y="1197" type="line"/>
      <point x="1271" y="1230"/>
      <point x="1271" y="1274" type="qcurve"/>
      <point x="1271" y="1334"/>
      <point x="1238.5" y="1364.5" type="qcurve"/>
      <point x="1206" y="1395"/>
      <point x="1153" y="1395" type="qcurve"/>
      <point x="1056" y="1395"/>
      <point x="989" y="1293.5" type="qcurve"/>
      <point x="922" y="1192"/>
      <point x="871" y="929" type="qcurve"/>
      <point x="674" y="-82" type="line"/>
      <point x="651" y="-201"/>
      <point x="607.5" y="-310.5" type="qcurve"/>
      <point x="564" y="-420"/>
      <point x="486" y="-471" type="qcurve"/>
      <point x="408" y="-522"/>
      <point x="320" y="-522" type="qcurve"/>
      <point x="252" y="-522"/>
      <point x="210" y="-485" type="qcurve"/>
      <point x="168" y="-448"/>
      <point x="168" y="-418" type="qcurve"/>
      <point x="168" y="-381"/>
      <point x="187.5" y="-359.5" type="qcurve"/>
      <point x="207" y="-338"/>
      <point x="232" y="-338" type="qcurve"/>
      <point x="291" y="-338"/>
      <point x="316.5" y="-388" type="qcurve"/>
      <point x="342" y="-438"/>
      <point x="391" y="-438" type="qcurve"/>
      <point x="426" y="-438"/>
      <point x="466.5" y="-383" type="qcurve"/>
      <point x="507" y="-328"/>
      <point x="518" y="-268" type="qcurve"/>
      <point x="727" y="807" type="line"/>
      <point x="789" y="1124"/>
      <point x="850" y="1251" type="qcurve"/>
      <point x="811" y="1375"/>
      <point x="684" y="1376" type="qcurve"/>
      <point x="591" y="1376"/>
      <point x="520.5" y="1276" type="qcurve"/>
      <point x="450" y="1176"/>
      <point x="402" y="927" type="qcurve"/>
      <point x="201" y="-111" type="line"/>
      <point x="178" y="-229"/>
      <point x="134.5" y="-339" type="qcurve"/>
      <point x="91" y="-449"/>
      <point x="13" y="-500" type="qcurve"/>
      <point x="-65" y="-551"/>
      <point x="-153" y="-551" type="qcurve"/>
      <point x="-221" y="-551"/>
      <point x="-263" y="-514" type="qcurve"/>
      <point x="-305" y="-477"/>
      <point x="-305" y="-446" type="qcurve"/>
      <point x="-305" y="-409"/>
      <point x="-285.5" y="-388" type="qcurve"/>
      <point x="-266" y="-367"/>
      <point x="-242" y="-367" type="qcurve"/>
      <point x="-183" y="-367"/>
      <point x="-157" y="-417" type="qcurve"/>
      <point x="-131" y="-467"/>
      <point x="-82" y="-467" type="qcurve"/>
      <point x="-47" y="-467"/>
      <point x="-6.5" y="-411.5" type="qcurve"/>
      <point x="34" y="-356"/>
      <point x="45" y="-297" type="qcurve"/>
      <point x="258" y="807" type="line"/>
      <point x="292" y="981"/>
      <point x="335.5" y="1123" type="qcurve"/>
      <point x="379" y="1265"/>
      <point x="478" y="1353.5" type="qcurve"/>
      <point x="577" y="1442"/>
      <point x="742" y="1442" type="qcurve"/>
      <point x="805" y="1442"/>
      <point x="851.5" y="1415.5" type="qcurve"/>
      <point x="898" y="1389"/>
      <point x="922" y="1346" type="qcurve"/>
      <point x="1034" y="1464"/>
      <point x="1210" y="1464" type="qcurve"/>
      <point x="1284" y="1464"/>
      <point x="1335" y="1416" type="qcurve"/>
      <point x="1386" y="1368"/>
      <point x="1386" y="1281" type="qcurve"/>
      <point x="1386" y="1191"/>
      <point x="1326" y="990" type="qcurve"/>
      <point x="1271" y="808" type="line"/>
      <point x="1495" y="808" type="line"/>
      <point x="1503" y="808"/>
      <point x="1503" y="787.5" type="qcurve"/>
      <point x="1503" y="767"/>
      <point x="1492" y="748.5" type="qcurve"/>
      <point x="1481" y="730"/>
      <point x="1474" y="730" type="qcurve"/>
      <point x="1250" y="730" type="line"/>
    </contour>
  </outline>
</glyph>
