<?xml version="1.0" encoding="UTF-8"?>
<glyph name="uniF160" format="1">
  <advance width="827"/>
  <unicode hex="F160"/>
  <outline>
    <contour>
      <point x="1275" y="1102" type="qcurve" smooth="yes"/>
      <point x="1275" y="1100"/>
      <point x="1274" y="1098" type="qcurve" smooth="yes"/>
      <point x="1216" y="1001"/>
      <point x="976" y="778"/>
      <point x="871" y="778" type="qcurve" smooth="yes"/>
      <point x="766" y="778"/>
      <point x="732.5" y="842" type="qcurve" smooth="yes"/>
      <point x="700" y="906"/>
      <point x="646" y="906" type="qcurve" smooth="yes"/>
      <point x="586" y="906"/>
      <point x="479" y="817"/>
      <point x="479" y="756" type="qcurve" smooth="yes"/>
      <point x="479" y="715"/>
      <point x="563" y="622"/>
      <point x="563" y="571" type="qcurve" smooth="yes"/>
      <point x="561" y="534"/>
      <point x="490" y="440"/>
      <point x="434" y="440" type="qcurve" smooth="yes"/>
      <point x="293" y="440"/>
      <point x="293" y="596" type="qcurve" smooth="yes"/>
      <point x="293" y="676"/>
      <point x="400" y="862"/>
      <point x="604" y="996"/>
      <point x="702" y="996" type="qcurve" smooth="yes"/>
      <point x="812" y="996"/>
      <point x="908" y="924"/>
      <point x="942" y="924" type="qcurve" smooth="yes"/>
      <point x="1006" y="924"/>
      <point x="1177" y="1043"/>
      <point x="1237" y="1116" type="qcurve" smooth="yes"/>
      <point x="1242" y="1122"/>
      <point x="1247" y="1122" type="qcurve" smooth="yes"/>
      <point x="1253" y="1122"/>
      <point x="1275" y="1111"/>
    </contour>
    <contour>
      <point x="408" y="39"/>
      <point x="338" y="-25"/>
      <point x="244" y="-25"/>
      <point x="164" y="31"/>
      <point x="164" y="135"/>
      <point x="224" y="211"/>
      <point x="338" y="211"/>
      <point x="408" y="144"/>
    </contour>
  </outline>
</glyph>
