<?xml version="1.0" encoding="UTF-8"?>
<glyph name="a" format="1">
  <advance width="964"/>
  <unicode hex="0061"/>
  <outline>
    <contour>
      <point x="299" y="-76" type="move" name="Anchor1"/>
    </contour>
    <contour>
      <point x="647" y="899" type="move" name="Anchor0"/>
    </contour>
    <contour>
      <point x="299" y="-76" type="move" name="Anchor-1"/>
    </contour>
    <contour>
      <point x="647" y="899" type="move" name="Anchor-0"/>
    </contour>
    <contour>
      <point x="752" y="180" type="line" smooth="yes"/>
      <point x="750" y="170"/>
      <point x="750" y="162" type="qcurve" smooth="yes"/>
      <point x="750" y="142"/>
      <point x="772" y="141" type="qcurve" smooth="yes"/>
      <point x="809" y="141"/>
      <point x="874" y="207" type="qcurve" smooth="yes"/>
      <point x="886" y="219"/>
      <point x="913" y="195" type="qcurve" smooth="yes"/>
      <point x="933" y="179"/>
      <point x="934" y="168" type="qcurve" smooth="yes"/>
      <point x="934" y="164"/>
      <point x="930" y="158" type="qcurve" smooth="yes"/>
      <point x="838" y="68"/>
      <point x="686" y="-27"/>
      <point x="631" y="-27" type="qcurve" smooth="yes"/>
      <point x="551" y="-27"/>
      <point x="553" y="63" type="qcurve" smooth="yes"/>
      <point x="553" y="112"/>
      <point x="569" y="156" type="qcurve" smooth="yes"/>
      <point x="596" y="215" type="line"/>
      <point x="584" y="221" type="line"/>
      <point x="361" y="-27"/>
      <point x="223" y="-27" type="qcurve" smooth="yes"/>
      <point x="149" y="-27"/>
      <point x="63" y="82"/>
      <point x="63" y="166" type="qcurve" smooth="yes"/>
      <point x="63" y="375"/>
      <point x="434" y="844"/>
      <point x="641" y="844" type="qcurve" smooth="yes"/>
      <point x="702" y="844"/>
      <point x="748" y="813" type="qcurve"/>
      <point x="768" y="862" type="line" smooth="yes"/>
      <point x="776" y="885"/>
      <point x="952" y="885"/>
      <point x="952" y="850" type="qcurve" smooth="yes"/>
      <point x="952" y="844"/>
      <point x="948" y="831" type="qcurve" smooth="yes"/>
    </contour>
    <contour>
      <point x="666" y="553" type="qcurve" smooth="yes"/>
      <point x="715" y="713" type="line"/>
      <point x="682" y="760"/>
      <point x="614" y="760" type="qcurve" smooth="yes"/>
      <point x="505" y="760"/>
      <point x="285" y="383"/>
      <point x="285" y="227" type="qcurve" smooth="yes"/>
      <point x="285" y="110"/>
      <point x="332" y="111" type="qcurve" smooth="yes"/>
      <point x="383" y="111"/>
      <point x="532" y="272"/>
      <point x="639" y="465"/>
    </contour>
  </outline>
</glyph>
