<?xml version="1.0" encoding="UTF-8"?>
<glyph name="uni0306" format="1">
  <advance width="0"/>
  <unicode hex="0306"/>
  <outline>
    <contour>
      <point x="-299" y="899" type="move" name="_Anchor0"/>
    </contour>
    <contour>
      <point x="-299" y="899" type="move" name="_Anchor-0"/>
    </contour>
    <component base="breve" xOffset="-805"/>
  </outline>
</glyph>
