<?xml version="1.0" encoding="UTF-8"?>
<glyph name="uni16A5" format="1">
  <advance width="1228"/>
  <unicode hex="16A5"/>
  <outline>
    <contour>
      <point x="455" y="1493" type="line"/>
      <point x="1014" y="80" type="line"/>
      <point x="809" y="-20" type="line"/>
      <point x="377" y="1018" type="line"/>
      <point x="326" y="727" type="line"/>
      <point x="582" y="80" type="line"/>
      <point x="377" y="-20" type="line"/>
      <point x="248" y="289" type="line"/>
      <point x="197" y="0" type="line"/>
      <point x="-33" y="0" type="line"/>
      <point x="227" y="1470" type="line"/>
    </contour>
  </outline>
</glyph>
