<?xml version="1.0" encoding="UTF-8"?>
<glyph name="yacute" format="1">
  <advance width="780"/>
  <unicode hex="00FD"/>
  <outline>
    <component base="acute" xOffset="106"/>
    <component base="y"/>
  </outline>
</glyph>
