<?xml version="1.0" encoding="UTF-8"?>
<glyph name="acutecomb.sc" format="1">
  <advance width="0"/>
  <outline>
    <contour>
      <point x="0" y="1050" type="move" name="_above_center_1"/>
    </contour>
    <contour>
      <point x="67" y="1420" type="move" name="above_center_1"/>
    </contour>
    <contour>
      <point x="0" y="1050" type="move" name="_above_center"/>
    </contour>
    <contour>
      <point x="28" y="1036" type="line" smooth="yes"/>
      <point x="7" y="1022"/>
      <point x="-21" y="1022"/>
      <point x="-21" y="1052"/>
      <point x="-2" y="1071" type="qcurve" smooth="yes"/>
      <point x="237" y="1310" type="line"/>
      <point x="252.556" y="1324"/>
      <point x="293" y="1324"/>
      <point x="316" y="1289"/>
      <point x="316" y="1242.43"/>
      <point x="300" y="1231" type="qcurve" smooth="yes"/>
    </contour>
  </outline>
</glyph>
