<?xml version="1.0" encoding="UTF-8"?>
<glyph name="ae.sc" format="1">
  <advance width="1310"/>
  <outline>
    <contour>
      <point x="502" y="-75" type="move" name="below_center"/>
    </contour>
    <contour>
      <point x="951" y="1050" type="move" name="above_center"/>
    </contour>
    <contour>
      <point x="-11" y="145" type="qcurve"/>
      <point x="572" y="809" type="line"/>
      <point x="595" y="837"/>
      <point x="595" y="868"/>
      <point x="544" y="868" type="qcurve"/>
      <point x="536" y="868"/>
      <point x="536" y="888"/>
      <point x="548" y="932"/>
      <point x="562" y="932" type="qcurve"/>
      <point x="692" y="928"/>
      <point x="972" y="928"/>
      <point x="1185" y="932"/>
      <point x="1240" y="932" type="qcurve"/>
      <point x="1267" y="932"/>
      <point x="1305" y="928"/>
      <point x="1305" y="906"/>
      <point x="1300" y="889" type="qcurve"/>
      <point x="1244" y="694" type="line"/>
      <point x="1241" y="682"/>
      <point x="1174" y="682"/>
      <point x="1174" y="694" type="qcurve"/>
      <point x="1183" y="724"/>
      <point x="1183" y="792"/>
      <point x="1121" y="866"/>
      <point x="1066" y="868" type="qcurve"/>
      <point x="875" y="872" type="line"/>
      <point x="854" y="872"/>
      <point x="846" y="844" type="qcurve"/>
      <point x="744" y="489" type="line"/>
      <point x="743" y="484"/>
      <point x="743" y="481" type="qcurve"/>
      <point x="743" y="469"/>
      <point x="760" y="469" type="qcurve"/>
      <point x="944" y="469" type="line"/>
      <point x="997" y="469"/>
      <point x="1031" y="590" type="qcurve"/>
      <point x="1036" y="606"/>
      <point x="1097" y="606"/>
      <point x="1097" y="590" type="qcurve"/>
      <point x="1080" y="553"/>
      <point x="1019" y="338"/>
      <point x="1015" y="301" type="qcurve"/>
      <point x="1011" y="287"/>
      <point x="949" y="287"/>
      <point x="949" y="301" type="qcurve"/>
      <point x="961" y="342"/>
      <point x="961" y="368" type="qcurve"/>
      <point x="961" y="412"/>
      <point x="927" y="412" type="qcurve"/>
      <point x="743" y="412" type="line"/>
      <point x="722" y="412"/>
      <point x="716" y="389" type="qcurve"/>
      <point x="658" y="188" type="line"/>
      <point x="650" y="161"/>
      <point x="650" y="137" type="qcurve"/>
      <point x="650" y="53"/>
      <point x="728" y="53" type="qcurve"/>
      <point x="898" y="59" type="line"/>
      <point x="957" y="63"/>
      <point x="1074" y="154"/>
      <point x="1096" y="231" type="qcurve"/>
      <point x="1100" y="244"/>
      <point x="1166" y="244"/>
      <point x="1166" y="231" type="qcurve"/>
      <point x="1110" y="35" type="line"/>
      <point x="1103" y="10"/>
      <point x="1063" y="-6"/>
      <point x="1029" y="-6" type="qcurve"/>
      <point x="1009" y="-6"/>
      <point x="694" y="0"/>
      <point x="411" y="0"/>
      <point x="351" y="-6" type="qcurve"/>
      <point x="342" y="-6"/>
      <point x="342" y="14"/>
      <point x="356" y="59"/>
      <point x="369" y="59" type="qcurve"/>
      <point x="425" y="60"/>
      <point x="483" y="88"/>
      <point x="495" y="133" type="qcurve"/>
      <point x="569" y="391" type="line"/>
      <point x="570" y="396"/>
      <point x="570" y="400" type="qcurve"/>
      <point x="570" y="412"/>
      <point x="556" y="412" type="qcurve"/>
      <point x="319" y="412" type="line"/>
      <point x="298" y="412"/>
      <point x="291" y="399" type="qcurve"/>
      <point x="64" y="129" type="line"/>
      <point x="43" y="103"/>
      <point x="43" y="88" type="qcurve"/>
      <point x="43" y="59"/>
      <point x="138" y="59" type="qcurve"/>
      <point x="148" y="59"/>
      <point x="148" y="38"/>
      <point x="135" y="-6"/>
      <point x="120" y="-6" type="qcurve"/>
      <point x="61" y="0"/>
      <point x="-128" y="0"/>
      <point x="-191" y="-6" type="qcurve"/>
      <point x="-202" y="-6"/>
      <point x="-202" y="15"/>
      <point x="-188" y="59"/>
      <point x="-173" y="59" type="qcurve"/>
      <point x="-122" y="60"/>
      <point x="-56" y="96"/>
    </contour>
    <contour>
      <point x="372" y="489" type="line"/>
      <point x="367" y="483"/>
      <point x="367" y="478" type="qcurve"/>
      <point x="367" y="469"/>
      <point x="377" y="469" type="qcurve"/>
      <point x="571" y="469" type="line"/>
      <point x="592" y="469"/>
      <point x="597" y="489" type="qcurve"/>
      <point x="694" y="824" type="line"/>
      <point x="697" y="834"/>
      <point x="697" y="838" type="qcurve"/>
      <point x="697" y="846"/>
      <point x="690" y="846" type="qcurve"/>
      <point x="680" y="846"/>
      <point x="667" y="831" type="qcurve"/>
    </contour>
  </outline>
</glyph>
