<?xml version="1.0" encoding="UTF-8"?>
<glyph name="N.swash" format="1">
  <advance width="2289"/>
  <outline>
    <contour>
      <point x="2129" y="1363" type="qcurve" smooth="yes"/>
      <point x="2181" y="1357"/>
      <point x="2221" y="1357" type="qcurve" smooth="yes"/>
      <point x="2262" y="1357" type="line"/>
      <point x="2515" y="1363" type="line" smooth="yes"/>
      <point x="2522" y="1363"/>
      <point x="2522" y="1321"/>
      <point x="2500" y="1287"/>
      <point x="2494" y="1287" type="qcurve" smooth="yes"/>
      <point x="2416" y="1287"/>
      <point x="2337" y="1248"/>
      <point x="2316" y="1172" type="qcurve" smooth="yes"/>
      <point x="2026" y="135" type="line"/>
      <point x="2062" y="49"/>
      <point x="2231" y="-208"/>
      <point x="2277" y="-250" type="qcurve" smooth="yes"/>
      <point x="2481" y="-433"/>
      <point x="2683" y="-433" type="qcurve" smooth="yes"/>
      <point x="2692" y="-433"/>
      <point x="2692" y="-443" type="qcurve" smooth="yes"/>
      <point x="2692" y="-466"/>
      <point x="2671" y="-469" type="qcurve" smooth="yes"/>
      <point x="2602.77" y="-479.034"/>
      <point x="2503.66" y="-479.034"/>
      <point x="2438" y="-452" type="qcurve" smooth="yes"/>
      <point x="2181.22" y="-351.045"/>
      <point x="1976" y="-60" type="qcurve" smooth="yes"/>
      <point x="1921" y="18"/>
      <point x="1808" y="238" type="qcurve" smooth="yes"/>
      <point x="1531.23" y="788.484"/>
      <point x="1388" y="1114" type="qcurve" smooth="yes"/>
      <point x="1384" y="1123"/>
      <point x="1371" y="1108"/>
      <point x="1347" y="1041" type="qcurve" smooth="yes"/>
      <point x="1057" y="228" type="line"/>
      <point x="987" y="71"/>
      <point x="857" y="-11" type="qcurve" smooth="yes"/>
      <point x="695" y="-114"/>
      <point x="506" y="-114" type="qcurve" smooth="yes"/>
      <point x="252" y="-114"/>
      <point x="78" y="60" type="qcurve" smooth="yes"/>
      <point x="0" y="138"/>
      <point x="0" y="304"/>
      <point x="132" y="436"/>
      <point x="206" y="436" type="qcurve" smooth="yes"/>
      <point x="251" y="436"/>
      <point x="314" y="373"/>
      <point x="290" y="356" type="qcurve" smooth="yes"/>
      <point x="231" y="317"/>
      <point x="223" y="311" type="qcurve" smooth="yes"/>
      <point x="160" y="260"/>
      <point x="160" y="154" type="qcurve" smooth="yes"/>
      <point x="160" y="112"/>
      <point x="198" y="75" type="qcurve" smooth="yes"/>
      <point x="288" y="-15"/>
      <point x="701" y="-15"/>
      <point x="827" y="82" type="qcurve" smooth="yes"/>
      <point x="927" y="158"/>
      <point x="978" y="245" type="qcurve"/>
      <point x="1039" y="384" type="line"/>
      <point x="1300" y="1110" type="line" smooth="yes"/>
      <point x="1317" y="1157"/>
      <point x="1317" y="1193" type="qcurve" smooth="yes"/>
      <point x="1317" y="1289"/>
      <point x="1093" y="1289" type="qcurve" smooth="yes"/>
      <point x="994" y="1289"/>
      <point x="861" y="1234"/>
      <point x="861" y="1196" type="qcurve" smooth="yes"/>
      <point x="861" y="1174"/>
      <point x="911" y="1104"/>
      <point x="911" y="1030"/>
      <point x="861" y="982"/>
      <point x="789" y="982"/>
      <point x="759" y="1040"/>
      <point x="759" y="1103"/>
      <point x="801" y="1214"/>
      <point x="916" y="1332"/>
      <point x="1051" y="1361"/>
      <point x="1143" y="1361" type="qcurve"/>
      <point x="1352" y="1357" type="line" smooth="yes"/>
      <point x="1380" y="1356"/>
      <point x="1430" y="1349"/>
      <point x="1448" y="1312" type="qcurve" smooth="yes"/>
      <point x="1893" y="383" type="line"/>
      <point x="1894" y="384" type="line"/>
      <point x="1897" y="374"/>
      <point x="1897" y="373" type="qcurve" smooth="yes"/>
      <point x="1938" y="288" type="line" smooth="yes"/>
      <point x="1963" y="235"/>
      <point x="1974" y="244" type="qcurve" smooth="yes"/>
      <point x="1979" y="248"/>
      <point x="1991" y="290" type="qcurve" smooth="yes"/>
      <point x="2248" y="1172" type="line" smooth="yes"/>
      <point x="2255" y="1196"/>
      <point x="2255" y="1216" type="qcurve" smooth="yes"/>
      <point x="2255" y="1287"/>
      <point x="2106" y="1287" type="qcurve" smooth="yes"/>
      <point x="2099" y="1287"/>
      <point x="2099" y="1327"/>
      <point x="2123" y="1363"/>
    </contour>
  </outline>
</glyph>
