<?xml version="1.0" encoding="UTF-8"?>
<glyph name="omacron" format="1">
  <advance width="838"/>
  <unicode hex="014D"/>
  <outline>
    <contour>
      <point x="335" y="-75" type="move" name="below_center"/>
    </contour>
    <contour>
      <point x="657" y="1210" type="move" name="above_center"/>
    </contour>
    <component base="o"/>
    <component base="macron" xOffset="110"/>
  </outline>
</glyph>
