<?xml version="1.0" encoding="UTF-8"?>
<glyph name="question" format="1">
  <advance width="678"/>
  <unicode hex="003F"/>
  <outline>
    <contour>
      <point x="318" y="37"/>
      <point x="251" y="-25"/>
      <point x="137" y="-25"/>
      <point x="75" y="49"/>
      <point x="75" y="135"/>
      <point x="139" y="211"/>
      <point x="259" y="211"/>
      <point x="318" y="134"/>
    </contour>
    <contour>
      <point x="772" y="1059" type="qcurve" smooth="yes"/>
      <point x="772" y="944"/>
      <point x="667" y="762"/>
      <point x="621" y="741" type="qcurve" smooth="yes"/>
      <point x="430" y="653" type="line" smooth="yes"/>
      <point x="342" y="613"/>
      <point x="330" y="563" type="qcurve" smooth="yes"/>
      <point x="314" y="518"/>
      <point x="313" y="438" type="qcurve" smooth="yes"/>
      <point x="313" y="425"/>
      <point x="268" y="416"/>
      <point x="266" y="426" type="qcurve" smooth="yes"/>
      <point x="242" y="514"/>
      <point x="242" y="575" type="qcurve" smooth="yes"/>
      <point x="242" y="712"/>
      <point x="408" y="788" type="qcurve" smooth="yes"/>
      <point x="528" y="844" type="line" smooth="yes"/>
      <point x="698" y="922"/>
      <point x="698" y="1055" type="qcurve" smooth="yes"/>
      <point x="698" y="1194"/>
      <point x="455" y="1194" type="qcurve" smooth="yes"/>
      <point x="439" y="1194"/>
      <point x="406" y="1233"/>
      <point x="406" y="1260" type="qcurve" smooth="yes"/>
      <point x="406" y="1304"/>
      <point x="478" y="1362"/>
      <point x="518" y="1362" type="qcurve" smooth="yes"/>
      <point x="621" y="1362"/>
      <point x="772" y="1174"/>
    </contour>
  </outline>
</glyph>
