<?xml version="1.0" encoding="UTF-8"?>
<glyph name="u10193" format="1">
  <advance width="1031"/>
  <unicode hex="10193"/>
  <outline>
    <contour>
      <point x="192.809" y="390" type="qcurve" smooth="yes"/>
      <point x="258.12" y="726"/>
      <point x="644.893" y="802" type="qcurve" smooth="yes"/>
      <point x="951.556" y="862"/>
      <point x="996.847" y="1095" type="qcurve" smooth="yes"/>
      <point x="1001.44" y="1118.65"/>
      <point x="1001.44" y="1140.68" type="qcurve" smooth="yes"/>
      <point x="1001.44" y="1202.48"/>
      <point x="965.267" y="1251.5" type="qcurve" smooth="yes"/>
      <point x="916.193" y="1318"/>
      <point x="683.193" y="1318"/>
      <point x="512.729" y="1187"/>
      <point x="470.348" y="1077" type="qcurve" smooth="yes"/>
      <point x="463.626" y="1063"/>
      <point x="447.626" y="1063" type="qcurve" smooth="yes"/>
      <point x="398.627" y="1063"/>
      <point x="403.291" y="1087" type="qcurve" smooth="yes"/>
      <point x="443.81" y="1244"/>
      <point x="491.441" y="1345" type="qcurve"/>
      <point x="494.247" y="1344"/>
      <point x="520.247" y="1344"/>
      <point x="701.217" y="1385"/>
      <point x="805.217" y="1385" type="qcurve" smooth="yes"/>
      <point x="972.217" y="1385"/>
      <point x="1064.15" y="1289.5" type="qcurve" smooth="yes"/>
      <point x="1134.63" y="1216.29"/>
      <point x="1134.63" y="1114.58" type="qcurve" smooth="yes"/>
      <point x="1134.63" y="1083.61"/>
      <point x="1128.1" y="1050" type="qcurve" smooth="yes"/>
      <point x="1057.9" y="694"/>
      <point x="635.628" y="600" type="qcurve" smooth="yes"/>
      <point x="359.966" y="540"/>
      <point x="314.092" y="304" type="qcurve" smooth="yes"/>
      <point x="307.624" y="270.724"/>
      <point x="307.624" y="170.608"/>
      <point x="343.825" y="120" type="qcurve" smooth="yes"/>
      <point x="395.33" y="48"/>
      <point x="487.33" y="48" type="qcurve" smooth="yes"/>
      <point x="659.33" y="48"/>
      <point x="902.623" y="245"/>
      <point x="936.698" y="374" type="qcurve" smooth="yes"/>
      <point x="939.447" y="383"/>
      <point x="999.447" y="383"/>
      <point x="1002.39" y="357"/>
      <point x="1000.26" y="346" type="qcurve" smooth="yes"/>
      <point x="977.318" y="228"/>
      <point x="898.189" y="73" type="qcurve"/>
      <point x="772.916" y="15"/>
      <point x="621.752" y="-27"/>
      <point x="501.752" y="-27" type="qcurve" smooth="yes"/>
      <point x="330.752" y="-27"/>
      <point x="243.313" y="86.5" type="qcurve" smooth="yes"/>
      <point x="181.841" y="166.295"/>
      <point x="181.841" y="283.902" type="qcurve" smooth="yes"/>
      <point x="181.841" y="333.578"/>
    </contour>
  </outline>
</glyph>
