<?xml version="1.0" encoding="UTF-8"?>
<glyph name="uni0195" format="1">
  <advance width="1339"/>
  <unicode hex="0195"/>
  <outline>
    <contour>
      <point x="552" y="-75" type="move" name="below_center"/>
    </contour>
    <contour>
      <point x="766" y="1545" type="move" name="above_center"/>
    </contour>
    <contour>
      <point x="1330" y="705" type="qcurve" smooth="yes"/>
      <point x="1330" y="582"/>
      <point x="1163" y="208"/>
      <point x="886" y="-27"/>
      <point x="757" y="-27" type="qcurve" smooth="yes"/>
      <point x="702" y="-27"/>
      <point x="645" y="44"/>
      <point x="645" y="90" type="qcurve" smooth="yes"/>
      <point x="645" y="132"/>
      <point x="706" y="334"/>
      <point x="733" y="500"/>
      <point x="733" y="569" type="qcurve" smooth="yes"/>
      <point x="733" y="743"/>
      <point x="657" y="743" type="qcurve" smooth="yes"/>
      <point x="542" y="743"/>
      <point x="344" y="461" type="qcurve" smooth="yes"/>
      <point x="294" y="389"/>
      <point x="252" y="221" type="qcurve" smooth="yes"/>
      <point x="197" y="0" type="line" smooth="yes"/>
      <point x="190" y="-27"/>
      <point x="76" y="-27"/>
      <point x="75" y="-4" type="qcurve" smooth="yes"/>
      <point x="75" y="-2"/>
      <point x="76" y="0" type="qcurve" smooth="yes"/>
      <point x="355" y="1201" type="line" smooth="yes"/>
      <point x="371" y="1268"/>
      <point x="371" y="1304" type="qcurve" smooth="yes"/>
      <point x="371" y="1377"/>
      <point x="294" y="1377" type="qcurve" smooth="yes"/>
      <point x="279" y="1377"/>
      <point x="279" y="1429"/>
      <point x="294" y="1429" type="qcurve" smooth="yes"/>
      <point x="364" y="1429"/>
      <point x="521" y="1484"/>
      <point x="525" y="1484" type="qcurve" smooth="yes"/>
      <point x="541" y="1484"/>
      <point x="538" y="1471" type="qcurve" smooth="yes"/>
      <point x="326" y="545" type="line"/>
      <point x="336" y="535" type="line"/>
      <point x="524" y="852"/>
      <point x="707" y="852" type="qcurve" smooth="yes"/>
      <point x="870" y="852"/>
      <point x="870" y="618" type="qcurve" smooth="yes"/>
      <point x="870" y="548"/>
      <point x="838" y="366"/>
      <point x="782" y="178"/>
      <point x="782" y="147" type="qcurve" smooth="yes"/>
      <point x="782" y="76"/>
      <point x="864" y="76" type="qcurve" smooth="yes"/>
      <point x="946" y="76"/>
      <point x="1201" y="401"/>
      <point x="1201" y="584" type="qcurve" smooth="yes"/>
      <point x="1201" y="703"/>
      <point x="1165" y="778" type="qcurve"/>
      <point x="1165" y="852"/>
      <point x="1234" y="852" type="qcurve" smooth="yes"/>
      <point x="1285" y="852"/>
      <point x="1330" y="755"/>
    </contour>
  </outline>
</glyph>
