<?xml version="1.0" encoding="UTF-8"?>
<glyph name="uni0187" format="1">
  <advance width="1476"/>
  <unicode hex="0187"/>
  <outline>
    <contour>
      <point x="736" y="-75" type="move" name="below_center"/>
    </contour>
    <contour>
      <point x="1160" y="1415" type="move" name="above_center"/>
    </contour>
    <contour>
      <point x="1350" y="308" type="qcurve" smooth="yes"/>
      <point x="1350" y="288"/>
      <point x="1208" y="64"/>
      <point x="1183" y="36" type="qcurve"/>
      <point x="1149" y="31"/>
      <point x="1101" y="19" type="qcurve" smooth="yes"/>
      <point x="927" y="-27"/>
      <point x="712" y="-27" type="qcurve" smooth="yes"/>
      <point x="497" y="-27"/>
      <point x="215" y="233"/>
      <point x="215" y="458" type="qcurve" smooth="yes"/>
      <point x="215" y="813"/>
      <point x="796" y="1385"/>
      <point x="1130" y="1385" type="qcurve" smooth="yes"/>
      <point x="1303" y="1385"/>
      <point x="1428" y="1356" type="qcurve" smooth="yes"/>
      <point x="1471" y="1346" type="line"/>
      <point x="1521" y="1435"/>
      <point x="1591" y="1500"/>
      <point x="1715" y="1576"/>
      <point x="1796" y="1576" type="qcurve" smooth="yes"/>
      <point x="1843" y="1576"/>
      <point x="1897" y="1528"/>
      <point x="1897" y="1500" type="qcurve" smooth="yes"/>
      <point x="1897" y="1468"/>
      <point x="1845" y="1421"/>
      <point x="1810" y="1421" type="qcurve" smooth="yes"/>
      <point x="1767" y="1421"/>
      <point x="1704" y="1494"/>
      <point x="1681" y="1494" type="qcurve" smooth="yes"/>
      <point x="1633" y="1494"/>
      <point x="1579" y="1415"/>
      <point x="1539" y="1261"/>
      <point x="1516" y="1049"/>
      <point x="1512" y="1019" type="qcurve"/>
      <point x="1506" y="1001"/>
      <point x="1444" y="1001"/>
      <point x="1444" y="1014" type="qcurve"/>
      <point x="1449" y="1054"/>
      <point x="1449" y="1076" type="qcurve" smooth="yes"/>
      <point x="1449" y="1314"/>
      <point x="1103" y="1314" type="qcurve" smooth="yes"/>
      <point x="830" y="1314"/>
      <point x="378" y="786"/>
      <point x="378" y="459" type="qcurve" smooth="yes"/>
      <point x="378" y="283"/>
      <point x="582" y="48"/>
      <point x="755" y="48" type="qcurve" smooth="yes"/>
      <point x="930" y="48"/>
      <point x="1166" y="158"/>
      <point x="1214" y="219" type="qcurve" smooth="yes"/>
      <point x="1230" y="239"/>
      <point x="1285" y="317" type="qcurve" smooth="yes"/>
      <point x="1292" y="327"/>
      <point x="1350" y="328"/>
    </contour>
  </outline>
</glyph>
