<?xml version="1.0" encoding="UTF-8"?>
<glyph name="uni16CB" format="1">
  <advance width="994"/>
  <unicode hex="16CB"/>
  <outline>
    <contour>
      <point x="708" y="0" type="line"/>
      <point x="608" y="0" type="line"/>
      <point x="771" y="838" type="line"/>
      <point x="202" y="454" type="line"/>
      <point x="102" y="454" type="line"/>
      <point x="286" y="1400" type="line"/>
      <point x="386" y="1400" type="line"/>
      <point x="227" y="580" type="line"/>
      <point x="795" y="964" type="line"/>
      <point x="895" y="964" type="line"/>
    </contour>
  </outline>
</glyph>
