<?xml version="1.0" encoding="UTF-8"?>
<glyph name="uni1E95" format="1">
  <advance width="891"/>
  <unicode hex="1E95"/>
  <outline>
    <contour>
      <point x="341" y="-500" type="move" name="below_center"/>
    </contour>
    <contour>
      <point x="568" y="900" type="move" name="above_center"/>
    </contour>
    <component base="uni0331" xOffset="392.612" yOffset="0.859794"/>
    <component base="z"/>
  </outline>
</glyph>
