<?xml version="1.0" encoding="UTF-8"?>
<glyph name="uniEEFD" format="1">
  <advance width="647"/>
  <unicode hex="EEFD"/>
  <outline>
    <contour>
      <point x="263" y="-89" type="move" name="below_center"/>
    </contour>
    <contour>
      <point x="468" y="1071" type="move" name="above_center"/>
    </contour>
    <contour>
      <point x="359" y="249" type="line" smooth="yes"/>
      <point x="346" y="201"/>
      <point x="346" y="174" type="qcurve" smooth="yes"/>
      <point x="346" y="125"/>
      <point x="416" y="125"/>
      <point x="542" y="239" type="qcurve" smooth="yes"/>
      <point x="553" y="249"/>
      <point x="575" y="228" type="qcurve" smooth="yes"/>
      <point x="592" y="212"/>
      <point x="592" y="201" type="qcurve" smooth="yes"/>
      <point x="592" y="197"/>
      <point x="590" y="194" type="qcurve" smooth="yes"/>
      <point x="565" y="151"/>
      <point x="326" y="-33"/>
      <point x="239" y="-33" type="qcurve" smooth="yes"/>
      <point x="173" y="-33"/>
      <point x="173" y="74" type="qcurve" smooth="yes"/>
      <point x="173" y="121"/>
      <point x="186" y="168" type="qcurve" smooth="yes"/>
      <point x="354" y="766" type="line" smooth="yes"/>
      <point x="360" y="788"/>
      <point x="361" y="811" type="qcurve" smooth="yes"/>
      <point x="361" y="872"/>
      <point x="300" y="872"/>
      <point x="186" y="764" type="qcurve" smooth="yes"/>
      <point x="175" y="753"/>
      <point x="152" y="777" type="qcurve" smooth="yes"/>
      <point x="136" y="794"/>
      <point x="136" y="806" type="qcurve" smooth="yes"/>
      <point x="136" y="810"/>
      <point x="139" y="813" type="qcurve" smooth="yes"/>
      <point x="184" y="885"/>
      <point x="401" y="1045"/>
      <point x="472" y="1045" type="qcurve" smooth="yes"/>
      <point x="541" y="1045"/>
      <point x="541" y="939" type="qcurve" smooth="yes"/>
      <point x="541" y="894"/>
      <point x="527" y="846" type="qcurve" smooth="yes"/>
    </contour>
  </outline>
</glyph>
