<?xml version="1.0" encoding="UTF-8"?>
<glyph name="uniE3E6" format="1">
  <advance width="1088"/>
  <unicode hex="E3E6"/>
  <outline>
    <component base="dotbelowcomb" xOffset="617.047" yOffset="0.348454"/>
    <component base="uniA768"/>
  </outline>
</glyph>
