<?xml version="1.0" encoding="UTF-8"?>
<glyph name="uniE41A" format="1">
  <advance width="918"/>
  <unicode hex="E41A"/>
  <outline>
    <component base="circumflex" xOffset="172" yOffset="339"/>
    <component base="adieresis"/>
  </outline>
</glyph>
