<?xml version="1.0" encoding="UTF-8"?>
<glyph name="uniE8DE" format="1">
  <advance width="1389"/>
  <unicode hex="E8DE"/>
  <outline>
    <contour>
      <point x="707" y="588" type="qcurve" smooth="yes"/>
      <point x="707" y="768"/>
      <point x="578" y="768" type="qcurve" smooth="yes"/>
      <point x="461" y="768"/>
      <point x="213" y="387"/>
      <point x="213" y="231" type="qcurve" smooth="yes"/>
      <point x="213" y="68"/>
      <point x="346" y="68" type="qcurve" smooth="yes"/>
      <point x="455" y="68"/>
      <point x="707" y="441"/>
    </contour>
    <contour>
      <point x="819" y="537" type="qcurve" smooth="yes"/>
      <point x="819" y="324"/>
      <point x="545" y="-27"/>
      <point x="338" y="-27" type="qcurve" smooth="yes"/>
      <point x="215" y="-27"/>
      <point x="96" y="156"/>
      <point x="96" y="305" type="qcurve" smooth="yes"/>
      <point x="96" y="500"/>
      <point x="398" y="852"/>
      <point x="578" y="852" type="qcurve" smooth="yes"/>
      <point x="672.673" y="852"/>
      <point x="777.876" y="754.91"/>
      <point x="802" y="675" type="qcurve"/>
      <point x="828" y="705"/>
      <point x="857" y="731" type="qcurve" smooth="yes"/>
      <point x="908" y="776"/>
      <point x="1054" y="852"/>
      <point x="1141" y="852" type="qcurve" smooth="yes"/>
      <point x="1204" y="852"/>
      <point x="1307" y="814"/>
      <point x="1363" y="724"/>
      <point x="1363" y="684" type="qcurve" smooth="yes"/>
      <point x="1363" y="519"/>
      <point x="1200" y="319" type="qcurve"/>
      <point x="1083" y="178" type="line" smooth="yes"/>
      <point x="1037" y="121"/>
      <point x="1073" y="121" type="qcurve" smooth="yes"/>
      <point x="1443" y="121" type="line" smooth="yes"/>
      <point x="1446" y="121"/>
      <point x="1446" y="118" type="qcurve" smooth="yes"/>
      <point x="1446" y="99"/>
      <point x="1380" y="0"/>
      <point x="1367" y="0" type="qcurve" smooth="yes"/>
      <point x="867" y="0" type="line" smooth="yes"/>
      <point x="818.726" y="0"/>
      <point x="818.726" y="16" type="qcurve" smooth="yes"/>
      <point x="818.726" y="26.094"/>
      <point x="855" y="64" type="qcurve" smooth="yes"/>
      <point x="1002" y="219" type="line" smooth="yes"/>
      <point x="1074" y="296"/>
      <point x="1114" y="376" type="qcurve" smooth="yes"/>
      <point x="1153" y="454"/>
      <point x="1180" y="567"/>
      <point x="1180" y="597" type="qcurve" smooth="yes"/>
      <point x="1180" y="662"/>
      <point x="1104" y="732"/>
      <point x="1036" y="732" type="qcurve" smooth="yes"/>
      <point x="966" y="732"/>
      <point x="815" y="611" type="qcurve"/>
      <point x="819" y="576"/>
    </contour>
  </outline>
</glyph>
