<?xml version="1.0" encoding="UTF-8"?>
<glyph name="uniE8E7" format="1">
  <advance width="420"/>
  <unicode hex="E8E7"/>
  <outline>
    <component base="uni0364" xOffset="419.167" yOffset="-0.630928"/>
    <component base="uni0237"/>
  </outline>
</glyph>
