<?xml version="1.0" encoding="UTF-8"?>
<glyph name="uniEBDC" format="1">
  <advance width="913"/>
  <unicode hex="EBDC"/>
  <outline>
    <component base="l.sc"/>
    <component base="dotaccent" xOffset="-176.474" yOffset="39.3218"/>
  </outline>
</glyph>
