<?xml version="1.0" encoding="UTF-8"?>
<glyph name="uniF708" format="1">
  <advance width="1143"/>
  <unicode hex="F708"/>
  <outline>
    <contour>
      <point x="1034" y="-4" type="line"/>
      <point x="92" y="-4" type="line"/>
      <point x="92" y="109" type="line"/>
      <point x="1034" y="109" type="line"/>
    </contour>
    <contour>
      <point x="764" y="1336" type="qcurve" smooth="yes"/>
      <point x="585" y="1051" type="line" smooth="yes"/>
      <point x="567" y="1022"/>
      <point x="511" y="1022"/>
      <point x="511" y="1059" type="qcurve" smooth="yes"/>
      <point x="511" y="1071"/>
      <point x="516" y="1081" type="qcurve" smooth="yes"/>
      <point x="651" y="1388" type="line" smooth="yes"/>
      <point x="657" y="1401"/>
      <point x="676" y="1401" type="qcurve" smooth="yes"/>
      <point x="710" y="1401"/>
      <point x="766" y="1356"/>
      <point x="766" y="1343" type="qcurve" smooth="yes"/>
      <point x="766" y="1340"/>
    </contour>
    <contour>
      <point x="1032" y="778" type="line"/>
      <point x="1032" y="581"/>
      <point x="758" y="307"/>
      <point x="561" y="307" type="qcurve" smooth="yes"/>
      <point x="362" y="307"/>
      <point x="88" y="581"/>
      <point x="88" y="778" type="qcurve"/>
      <point x="178" y="778" type="line"/>
      <point x="178" y="621"/>
      <point x="291" y="508" type="qcurve" smooth="yes"/>
      <point x="404" y="397"/>
      <point x="561" y="397" type="qcurve" smooth="yes"/>
      <point x="717" y="397"/>
      <point x="831" y="508" type="qcurve" smooth="yes"/>
      <point x="944" y="621"/>
      <point x="944" y="778" type="qcurve"/>
    </contour>
  </outline>
</glyph>
