<?xml version="1.0" encoding="UTF-8"?>
<glyph name="Emacron" format="1">
  <advance width="1249"/>
  <unicode hex="0112"/>
  <outline>
    <component base="CapMacron" xOffset="270"/>
    <component base="E"/>
  </outline>
</glyph>
