<?xml version="1.0" encoding="UTF-8"?>
<glyph name="iacute.sc" format="1">
  <advance width="624"/>
  <outline>
    <component base="acutecomb.sc" xOffset="647"/>
    <component base="i.sc"/>
  </outline>
</glyph>
