<?xml version="1.0" encoding="UTF-8"?>
<glyph name="ncaron" format="1">
  <advance width="1085"/>
  <unicode hex="0148"/>
  <outline>
    <component base="caron" xOffset="221"/>
    <component base="n"/>
  </outline>
</glyph>
