<?xml version="1.0" encoding="UTF-8"?>
<glyph name="quotedblleft" format="1">
  <advance width="882"/>
  <unicode hex="201C"/>
  <outline>
    <contour>
      <point x="379" y="1040" type="qcurve" smooth="yes"/>
      <point x="379" y="989"/>
      <point x="293" y="930"/>
      <point x="236" y="930" type="qcurve" smooth="yes"/>
      <point x="170" y="930"/>
      <point x="68" y="1049"/>
      <point x="68" y="1133" type="qcurve" smooth="yes"/>
      <point x="68" y="1244"/>
      <point x="231" y="1434"/>
      <point x="342" y="1483" type="qcurve" smooth="yes"/>
      <point x="344" y="1483"/>
      <point x="352" y="1485" type="qcurve" smooth="yes"/>
      <point x="362" y="1485"/>
      <point x="377" y="1462"/>
      <point x="377" y="1454" type="qcurve" smooth="yes"/>
      <point x="377" y="1452"/>
      <point x="375" y="1450" type="qcurve" smooth="yes"/>
      <point x="309" y="1391"/>
      <point x="258" y="1260"/>
      <point x="258" y="1210" type="qcurve" smooth="yes"/>
      <point x="258" y="1183"/>
      <point x="270" y="1180" type="qcurve" smooth="yes"/>
      <point x="315" y="1164"/>
      <point x="379" y="1095"/>
    </contour>
    <contour>
      <point x="788" y="1040" type="qcurve" smooth="yes"/>
      <point x="788" y="989"/>
      <point x="700" y="930"/>
      <point x="645" y="930" type="qcurve" smooth="yes"/>
      <point x="579" y="930"/>
      <point x="477" y="1049"/>
      <point x="477" y="1133" type="qcurve" smooth="yes"/>
      <point x="477" y="1244"/>
      <point x="639" y="1434"/>
      <point x="752" y="1483" type="qcurve" smooth="yes"/>
      <point x="754" y="1483"/>
      <point x="762" y="1485" type="qcurve" smooth="yes"/>
      <point x="772" y="1485"/>
      <point x="786" y="1462"/>
      <point x="786" y="1454" type="qcurve" smooth="yes"/>
      <point x="786" y="1452"/>
      <point x="784" y="1450" type="qcurve" smooth="yes"/>
      <point x="718" y="1391"/>
      <point x="668" y="1260"/>
      <point x="668" y="1210" type="qcurve" smooth="yes"/>
      <point x="668" y="1183"/>
      <point x="680" y="1180" type="qcurve" smooth="yes"/>
      <point x="725" y="1164"/>
      <point x="788" y="1095"/>
    </contour>
  </outline>
</glyph>
