<?xml version="1.0" encoding="UTF-8"?>
<glyph name="quoteright" format="1">
  <advance width="428"/>
  <unicode hex="2019"/>
  <outline>
    <contour>
      <point x="387" y="1270" type="qcurve" smooth="yes"/>
      <point x="387" y="1159"/>
      <point x="223" y="971"/>
      <point x="113" y="920" type="qcurve"/>
      <point x="102" y="920" type="line" smooth="yes"/>
      <point x="92" y="920"/>
      <point x="78" y="940"/>
      <point x="78" y="948" type="qcurve" smooth="yes"/>
      <point x="78" y="950"/>
      <point x="80" y="954" type="qcurve" smooth="yes"/>
      <point x="146" y="1013"/>
      <point x="197" y="1143"/>
      <point x="197" y="1192" type="qcurve" smooth="yes"/>
      <point x="197" y="1219"/>
      <point x="184" y="1223" type="qcurve" smooth="yes"/>
      <point x="139" y="1239"/>
      <point x="76" y="1307"/>
      <point x="76" y="1362" type="qcurve" smooth="yes"/>
      <point x="76" y="1413"/>
      <point x="164" y="1473"/>
      <point x="219" y="1473" type="qcurve" smooth="yes"/>
      <point x="285" y="1473"/>
      <point x="387" y="1356"/>
    </contour>
  </outline>
</glyph>
