<?xml version="1.0" encoding="UTF-8"?>
<glyph name="U" format="1">
  <advance width="1511"/>
  <unicode hex="0055"/>
  <outline>
    <contour>
      <point x="817" y="1425" type="move" name="Anchor1"/>
    </contour>
    <contour>
      <point x="817" y="1425" type="move" name="Anchor-1"/>
    </contour>
    <contour>
      <point x="1323" y="881" type="line" smooth="yes"/>
      <point x="1323" y="605"/>
      <point x="1311" y="465" type="qcurve" smooth="yes"/>
      <point x="1295" y="219"/>
      <point x="1155" y="90" type="qcurve" smooth="yes"/>
      <point x="1028" y="-29"/>
      <point x="772" y="-27" type="qcurve" smooth="yes"/>
      <point x="616" y="-27"/>
      <point x="506" y="14" type="qcurve" smooth="yes"/>
      <point x="348" y="75"/>
      <point x="287" y="201" type="qcurve" smooth="yes"/>
      <point x="236" y="307"/>
      <point x="223" y="545" type="qcurve"/>
      <point x="223" y="1153" type="line" smooth="yes"/>
      <point x="223" y="1270"/>
      <point x="68" y="1270" type="qcurve" smooth="yes"/>
      <point x="54" y="1270"/>
      <point x="53" y="1364"/>
      <point x="68" y="1364" type="qcurve" smooth="yes"/>
      <point x="215" y="1360"/>
      <point x="348" y="1358" type="qcurve" smooth="yes"/>
      <point x="493" y="1358"/>
      <point x="641" y="1364" type="qcurve" smooth="yes"/>
      <point x="655" y="1364"/>
      <point x="655" y="1270"/>
      <point x="641" y="1270" type="qcurve" smooth="yes"/>
      <point x="467" y="1270"/>
      <point x="469" y="1153" type="qcurve" smooth="yes"/>
      <point x="469" y="686" type="line"/>
      <point x="479" y="406" type="line" smooth="yes"/>
      <point x="481" y="281"/>
      <point x="535" y="203" type="qcurve" smooth="yes"/>
      <point x="625" y="68"/>
      <point x="811" y="68" type="qcurve" smooth="yes"/>
      <point x="983" y="68"/>
      <point x="1087" y="172" type="qcurve" smooth="yes"/>
      <point x="1177" y="264"/>
      <point x="1178" y="496" type="qcurve" smooth="yes"/>
      <point x="1178" y="1153" type="line" smooth="yes"/>
      <point x="1178" y="1270"/>
      <point x="1020" y="1270" type="qcurve" smooth="yes"/>
      <point x="1006" y="1270"/>
      <point x="1006" y="1364"/>
      <point x="1020" y="1364" type="qcurve" smooth="yes"/>
      <point x="1157" y="1360"/>
      <point x="1249" y="1358" type="qcurve" smooth="yes"/>
      <point x="1341" y="1358"/>
      <point x="1477" y="1364" type="qcurve" smooth="yes"/>
      <point x="1491" y="1364"/>
      <point x="1491" y="1270"/>
      <point x="1477" y="1270" type="qcurve" smooth="yes"/>
      <point x="1323" y="1270"/>
      <point x="1323" y="1153" type="qcurve" smooth="yes"/>
    </contour>
  </outline>
</glyph>
