<?xml version="1.0" encoding="UTF-8"?>
<glyph name="uni16EA" format="1">
  <advance width="1466"/>
  <unicode hex="16EA"/>
  <outline>
    <contour>
      <point x="1362" y="201" type="line"/>
      <point x="1214" y="201" type="line"/>
      <point x="1214" y="0" type="line"/>
      <point x="985" y="0" type="line"/>
      <point x="985" y="201" type="line"/>
      <point x="817" y="201" type="line"/>
      <point x="817" y="428" type="line"/>
      <point x="985" y="428" type="line"/>
      <point x="985" y="772" type="line"/>
      <point x="492" y="387" type="line"/>
      <point x="262" y="387" type="line"/>
      <point x="262" y="1075" type="line"/>
      <point x="106" y="1075" type="line"/>
      <point x="106" y="1305" type="line"/>
      <point x="262" y="1305" type="line"/>
      <point x="262" y="1487" type="line"/>
      <point x="492" y="1487" type="line"/>
      <point x="492" y="1305" type="line"/>
      <point x="649" y="1305" type="line"/>
      <point x="649" y="1075" type="line"/>
      <point x="492" y="1075" type="line"/>
      <point x="492" y="645" type="line"/>
      <point x="985" y="1030" type="line"/>
      <point x="1214" y="1030" type="line"/>
      <point x="1214" y="428" type="line"/>
      <point x="1362" y="428" type="line"/>
    </contour>
  </outline>
</glyph>
