<?xml version="1.0" encoding="UTF-8"?>
<glyph name="atilde" format="1">
  <advance width="858"/>
  <unicode hex="00E3"/>
  <outline>
    <component base="tilde" xOffset="119"/>
    <component base="a"/>
  </outline>
</glyph>
