<?xml version="1.0" encoding="UTF-8"?>
<glyph name="dagger" format="1">
  <advance width="954"/>
  <unicode hex="2020"/>
  <outline>
    <contour>
      <point x="958" y="858" type="qcurve" smooth="yes"/>
      <point x="958" y="803"/>
      <point x="879" y="762" type="qcurve" smooth="yes"/>
      <point x="836" y="742"/>
      <point x="807" y="737" type="qcurve" smooth="yes"/>
      <point x="768" y="737"/>
      <point x="688" y="770" type="qcurve" smooth="yes"/>
      <point x="600" y="809"/>
      <point x="545" y="809" type="qcurve"/>
      <point x="545" y="686"/>
      <point x="596" y="559" type="qcurve" smooth="yes"/>
      <point x="618" y="508" type="line" smooth="yes"/>
      <point x="634" y="477"/>
      <point x="653" y="459" type="qcurve"/>
      <point x="561" y="322"/>
      <point x="549" y="100" type="qcurve" smooth="yes"/>
      <point x="547" y="51"/>
      <point x="545" y="-123" type="qcurve" smooth="yes"/>
      <point x="545" y="-387" type="line"/>
      <point x="412" y="-387" type="line"/>
      <point x="412" y="-123" type="line" smooth="yes"/>
      <point x="412" y="80"/>
      <point x="406" y="143" type="qcurve" smooth="yes"/>
      <point x="388" y="346"/>
      <point x="299" y="459" type="qcurve"/>
      <point x="362" y="518"/>
      <point x="395" y="668" type="qcurve" smooth="yes"/>
      <point x="411" y="744"/>
      <point x="412" y="809" type="qcurve"/>
      <point x="355" y="809"/>
      <point x="264" y="770" type="qcurve" smooth="yes"/>
      <point x="188" y="737"/>
      <point x="150" y="737" type="qcurve" smooth="yes"/>
      <point x="117" y="737"/>
      <point x="66" y="768" type="qcurve" smooth="yes"/>
      <point x="-2" y="809"/>
      <point x="-2" y="858" type="qcurve" smooth="yes"/>
      <point x="-2" y="917"/>
      <point x="68" y="958" type="qcurve" smooth="yes"/>
      <point x="109" y="983"/>
      <point x="141" y="983" type="qcurve" smooth="yes"/>
      <point x="188" y="983"/>
      <point x="268" y="948" type="qcurve" smooth="yes"/>
      <point x="352" y="911"/>
      <point x="401" y="909" type="qcurve" smooth="yes"/>
      <point x="412" y="909" type="line"/>
      <point x="412" y="958"/>
      <point x="377" y="1069" type="qcurve" smooth="yes"/>
      <point x="348" y="1155"/>
      <point x="348" y="1196" type="qcurve" smooth="yes"/>
      <point x="348" y="1245"/>
      <point x="385" y="1313" type="qcurve" smooth="yes"/>
      <point x="428" y="1393"/>
      <point x="477" y="1391" type="qcurve" smooth="yes"/>
      <point x="530" y="1391"/>
      <point x="575" y="1303" type="qcurve" smooth="yes"/>
      <point x="600" y="1256"/>
      <point x="604" y="1212" type="qcurve" smooth="yes"/>
      <point x="606" y="1196" type="line" smooth="yes"/>
      <point x="606" y="1153"/>
      <point x="573" y="1051" type="qcurve" smooth="yes"/>
      <point x="553" y="975" type="line"/>
      <point x="547" y="926" type="line" smooth="yes"/>
      <point x="547" y="918"/>
      <point x="545" y="909" type="qcurve"/>
      <point x="602" y="909"/>
      <point x="686" y="946" type="qcurve" smooth="yes"/>
      <point x="772" y="981"/>
      <point x="815" y="983" type="qcurve" smooth="yes"/>
      <point x="860" y="983"/>
      <point x="907" y="944" type="qcurve" smooth="yes"/>
      <point x="958" y="905"/>
    </contour>
  </outline>
</glyph>
