<?xml version="1.0" encoding="UTF-8"?>
<glyph name="Imacron" format="1">
  <advance width="733"/>
  <unicode hex="012A"/>
  <outline>
    <component base="CapMacron"/>
    <component base="I"/>
  </outline>
</glyph>
