<?xml version="1.0" encoding="UTF-8"?>
<glyph name="lcommaaccent" format="1">
  <advance width="522"/>
  <unicode hex="013C"/>
  <outline>
    <contour>
      <point x="397" y="-315" type="qcurve" smooth="yes"/>
      <point x="397" y="-401"/>
      <point x="309" y="-457" type="qcurve" smooth="yes"/>
      <point x="235" y="-504"/>
      <point x="137" y="-506" type="qcurve" smooth="yes"/>
      <point x="12" y="-506"/>
      <point x="-14" y="-444" type="qcurve" smooth="yes"/>
      <point x="-20" y="-432"/>
      <point x="-20" y="-416" type="qcurve" smooth="yes"/>
      <point x="-20" y="-373"/>
      <point x="16" y="-354" type="qcurve" smooth="yes"/>
      <point x="28" y="-348"/>
      <point x="45" y="-346" type="qcurve" smooth="yes"/>
      <point x="76" y="-346"/>
      <point x="121" y="-385" type="qcurve" smooth="yes"/>
      <point x="164" y="-422"/>
      <point x="184" y="-424" type="qcurve" smooth="yes"/>
      <point x="237" y="-424"/>
      <point x="238" y="-373" type="qcurve" smooth="yes"/>
      <point x="238" y="-295"/>
      <point x="96" y="-229" type="qcurve" smooth="yes"/>
      <point x="76" y="-221"/>
      <point x="76" y="-213" type="qcurve" smooth="yes"/>
      <point x="76" y="-209"/>
      <point x="82" y="-201" type="qcurve" smooth="yes"/>
      <point x="217" y="0" type="line"/>
      <point x="137" y="0"/>
      <point x="59" y="-8" type="qcurve" smooth="yes"/>
      <point x="45" y="-8"/>
      <point x="43" y="68"/>
      <point x="59" y="68" type="qcurve" smooth="yes"/>
      <point x="163" y="68"/>
      <point x="164" y="135" type="qcurve" smooth="yes"/>
      <point x="164" y="1161" type="line" smooth="yes"/>
      <point x="164" y="1286"/>
      <point x="72" y="1286" type="qcurve" smooth="yes"/>
      <point x="56" y="1286"/>
      <point x="55" y="1360"/>
      <point x="72" y="1360" type="qcurve" smooth="yes"/>
      <point x="121" y="1360"/>
      <point x="256" y="1427" type="qcurve" smooth="yes"/>
      <point x="322" y="1460"/>
      <point x="342" y="1477" type="qcurve" smooth="yes"/>
      <point x="354" y="1487"/>
      <point x="369" y="1487" type="qcurve" smooth="yes"/>
      <point x="400" y="1487"/>
      <point x="399" y="1454" type="qcurve" smooth="yes"/>
      <point x="393" y="1378"/>
      <point x="393" y="1286" type="qcurve" smooth="yes"/>
      <point x="393" y="143" type="line" smooth="yes"/>
      <point x="393" y="67"/>
      <point x="496" y="68" type="qcurve" smooth="yes"/>
      <point x="510" y="68"/>
      <point x="512" y="-8"/>
      <point x="496" y="-8" type="qcurve" smooth="yes"/>
      <point x="424" y="0"/>
      <point x="326" y="0" type="qcurve"/>
      <point x="254" y="-96" type="line" smooth="yes"/>
      <point x="246" y="-108"/>
      <point x="246" y="-115" type="qcurve" smooth="yes"/>
      <point x="246" y="-125"/>
      <point x="272" y="-141" type="qcurve" smooth="yes"/>
      <point x="397" y="-206"/>
    </contour>
  </outline>
</glyph>
