<?xml version="1.0" encoding="UTF-8"?>
<glyph name="longs" format="1">
  <advance width="561"/>
  <unicode hex="017F"/>
  <outline>
    <contour>
      <point x="300" y="-82" type="move" name="Anchor-0"/>
    </contour>
    <contour>
      <point x="492" y="1543" type="move" name="Anchor-1"/>
    </contour>
    <contour>
      <point x="164" y="143" type="qcurve" smooth="yes"/>
      <point x="164" y="670" type="line" smooth="yes"/>
      <point x="164" y="705"/>
      <point x="133" y="705" type="qcurve" smooth="yes"/>
      <point x="72" y="705" type="line" smooth="yes"/>
      <point x="56" y="705"/>
      <point x="55" y="778"/>
      <point x="72" y="778" type="qcurve" smooth="yes"/>
      <point x="119" y="778"/>
      <point x="164" y="850"/>
      <point x="164" y="891" type="qcurve" smooth="yes"/>
      <point x="164" y="1176"/>
      <point x="471" y="1487"/>
      <point x="674" y="1487" type="qcurve" smooth="yes"/>
      <point x="780" y="1487"/>
      <point x="897" y="1405"/>
      <point x="897" y="1339" type="qcurve" smooth="yes"/>
      <point x="897" y="1292"/>
      <point x="817" y="1223"/>
      <point x="784" y="1223" type="qcurve" smooth="yes"/>
      <point x="688" y="1223"/>
      <point x="608" y="1374"/>
      <point x="559" y="1374" type="qcurve" smooth="yes"/>
      <point x="487" y="1374"/>
      <point x="393" y="1196"/>
      <point x="393" y="1049" type="qcurve" smooth="yes"/>
      <point x="393" y="143" type="line" smooth="yes"/>
      <point x="393" y="67"/>
      <point x="526" y="68" type="qcurve" smooth="yes"/>
      <point x="542" y="68"/>
      <point x="543" y="-8"/>
      <point x="526" y="-8" type="qcurve" smooth="yes"/>
      <point x="446" y="0"/>
      <point x="293" y="0" type="qcurve" smooth="yes"/>
      <point x="139" y="0"/>
      <point x="55" y="-8" type="qcurve" smooth="yes"/>
      <point x="41" y="-8"/>
      <point x="41" y="68"/>
      <point x="55" y="68" type="qcurve" smooth="yes"/>
      <point x="164" y="67"/>
    </contour>
  </outline>
</glyph>
