<?xml version="1.0" encoding="UTF-8"?>
<glyph name="trademark" format="1">
  <advance width="1900"/>
  <unicode hex="2122"/>
  <outline>
    <contour>
      <point x="1862" y="676" type="qcurve" smooth="yes"/>
      <point x="1819" y="680"/>
      <point x="1706" y="680" type="qcurve" smooth="yes"/>
      <point x="1602" y="680"/>
      <point x="1561" y="676" type="qcurve" smooth="yes"/>
      <point x="1553" y="676"/>
      <point x="1550" y="700" type="qcurve" smooth="yes"/>
      <point x="1554" y="719" type="line" smooth="yes"/>
      <point x="1556" y="725"/>
      <point x="1561" y="725" type="qcurve" smooth="yes"/>
      <point x="1643" y="725"/>
      <point x="1642" y="791" type="qcurve" smooth="yes"/>
      <point x="1640" y="1149" type="line" smooth="yes"/>
      <point x="1640" y="1159"/>
      <point x="1636" y="1159" type="qcurve" smooth="yes"/>
      <point x="1632" y="1157" type="line"/>
      <point x="1628" y="1151" type="line"/>
      <point x="1384" y="680" type="line" smooth="yes"/>
      <point x="1376" y="668"/>
      <point x="1358" y="668" type="qcurve" smooth="yes"/>
      <point x="1338" y="668"/>
      <point x="1331" y="682" type="qcurve" smooth="yes"/>
      <point x="1087" y="1198" type="line" smooth="yes"/>
      <point x="1083" y="1208"/>
      <point x="1077" y="1208" type="qcurve" smooth="yes"/>
      <point x="1075" y="1206" type="line" smooth="yes"/>
      <point x="1073" y="1202"/>
      <point x="1073" y="1194" type="qcurve" smooth="yes"/>
      <point x="1044" y="791" type="line"/>
      <point x="1047" y="768" type="line"/>
      <point x="1061" y="725"/>
      <point x="1137" y="725" type="qcurve" smooth="yes"/>
      <point x="1145" y="725"/>
      <point x="1147" y="700" type="qcurve" smooth="yes"/>
      <point x="1143" y="682" type="line" smooth="yes"/>
      <point x="1141" y="676"/>
      <point x="1137" y="676" type="qcurve" smooth="yes"/>
      <point x="1094" y="680"/>
      <point x="1014" y="680" type="qcurve" smooth="yes"/>
      <point x="948" y="680"/>
      <point x="907" y="676" type="qcurve" smooth="yes"/>
      <point x="899" y="676"/>
      <point x="897" y="700" type="qcurve" smooth="yes"/>
      <point x="901" y="719" type="line" smooth="yes"/>
      <point x="903" y="725"/>
      <point x="907" y="725" type="qcurve" smooth="yes"/>
      <point x="979" y="725"/>
      <point x="987" y="778" type="qcurve" smooth="yes"/>
      <point x="989" y="784"/>
      <point x="989" y="793" type="qcurve" smooth="yes"/>
      <point x="1022" y="1278" type="line"/>
      <point x="1022" y="1309" type="line" smooth="yes"/>
      <point x="1016" y="1350"/>
      <point x="965" y="1356" type="qcurve" smooth="yes"/>
      <point x="930" y="1358" type="line" smooth="yes"/>
      <point x="922" y="1358"/>
      <point x="922" y="1382" type="qcurve" smooth="yes"/>
      <point x="924" y="1403" type="line" smooth="yes"/>
      <point x="926" y="1409"/>
      <point x="930" y="1409" type="qcurve" smooth="yes"/>
      <point x="971" y="1405"/>
      <point x="1022" y="1405" type="qcurve" smooth="yes"/>
      <point x="1088" y="1405"/>
      <point x="1096" y="1403" type="qcurve" smooth="yes"/>
      <point x="1137" y="1397"/>
      <point x="1155" y="1360" type="qcurve" smooth="yes"/>
      <point x="1395" y="879" type="line" smooth="yes"/>
      <point x="1399" y="869"/>
      <point x="1403" y="866" type="qcurve" smooth="yes"/>
      <point x="1407" y="870" type="line" smooth="yes"/>
      <point x="1409" y="872"/>
      <point x="1413" y="879" type="qcurve" smooth="yes"/>
      <point x="1661" y="1364" type="line" smooth="yes"/>
      <point x="1681" y="1403"/>
      <point x="1714" y="1405" type="qcurve" smooth="yes"/>
      <point x="1759" y="1405" type="line" smooth="yes"/>
      <point x="1812" y="1405"/>
      <point x="1853" y="1409" type="qcurve" smooth="yes"/>
      <point x="1861" y="1409"/>
      <point x="1864" y="1384" type="qcurve" smooth="yes"/>
      <point x="1860" y="1366" type="line" smooth="yes"/>
      <point x="1858" y="1362"/>
      <point x="1853" y="1360" type="qcurve" smooth="yes"/>
      <point x="1790" y="1360"/>
      <point x="1776" y="1325" type="qcurve" smooth="yes"/>
      <point x="1769" y="1298" type="line"/>
      <point x="1769" y="1282" type="line"/>
      <point x="1774" y="791" type="line" smooth="yes"/>
      <point x="1774" y="748"/>
      <point x="1804" y="733" type="qcurve" smooth="yes"/>
      <point x="1824" y="725"/>
      <point x="1862" y="725" type="qcurve" smooth="yes"/>
      <point x="1870" y="725"/>
      <point x="1872" y="700" type="qcurve" smooth="yes"/>
      <point x="1868" y="682" type="line" smooth="yes"/>
      <point x="1866" y="676"/>
    </contour>
    <contour>
      <point x="885" y="1221" type="line" smooth="yes"/>
      <point x="885" y="1213"/>
      <point x="858" y="1210" type="qcurve" smooth="yes"/>
      <point x="836" y="1214" type="line"/>
      <point x="829" y="1219" type="line"/>
      <point x="829" y="1221" type="line" smooth="yes"/>
      <point x="829" y="1299"/>
      <point x="754" y="1337" type="qcurve" smooth="yes"/>
      <point x="729" y="1349"/>
      <point x="705" y="1352" type="qcurve" smooth="yes"/>
      <point x="553" y="1358" type="line" smooth="yes"/>
      <point x="539" y="1358"/>
      <point x="535" y="1341" type="qcurve" smooth="yes"/>
      <point x="535" y="788" type="line" smooth="yes"/>
      <point x="535" y="725"/>
      <point x="627" y="725" type="qcurve" smooth="yes"/>
      <point x="635" y="725"/>
      <point x="637" y="700" type="qcurve" smooth="yes"/>
      <point x="633" y="682" type="line" smooth="yes"/>
      <point x="631" y="676"/>
      <point x="627" y="676" type="qcurve" smooth="yes"/>
      <point x="584" y="680"/>
      <point x="471" y="680" type="qcurve" smooth="yes"/>
      <point x="348" y="680"/>
      <point x="307" y="676" type="qcurve" smooth="yes"/>
      <point x="299" y="676"/>
      <point x="299" y="700" type="qcurve" smooth="yes"/>
      <point x="301" y="719" type="line" smooth="yes"/>
      <point x="303" y="725"/>
      <point x="307" y="725" type="qcurve" smooth="yes"/>
      <point x="403" y="725"/>
      <point x="403" y="788" type="qcurve" smooth="yes"/>
      <point x="403" y="1341" type="line" smooth="yes"/>
      <point x="403" y="1355"/>
      <point x="389" y="1358" type="qcurve" smooth="yes"/>
      <point x="229" y="1350" type="line" smooth="yes"/>
      <point x="192" y="1348"/>
      <point x="154" y="1315" type="qcurve" smooth="yes"/>
      <point x="111" y="1276"/>
      <point x="111" y="1221" type="qcurve" smooth="yes"/>
      <point x="111" y="1211"/>
      <point x="84" y="1210" type="qcurve" smooth="yes"/>
      <point x="66" y="1210"/>
      <point x="57" y="1217" type="qcurve" smooth="yes"/>
      <point x="55" y="1219"/>
      <point x="55" y="1221" type="qcurve" smooth="yes"/>
      <point x="55" y="1380" type="line" smooth="yes"/>
      <point x="55" y="1398"/>
      <point x="76" y="1407"/>
      <point x="115" y="1407" type="qcurve" smooth="yes"/>
      <point x="455" y="1403" type="line"/>
      <point x="469" y="1403" type="line"/>
      <point x="827" y="1407" type="line"/>
      <point x="829" y="1407" type="line" smooth="yes"/>
      <point x="876" y="1407"/>
      <point x="883" y="1397" type="qcurve" smooth="yes"/>
      <point x="885" y="1380" type="line"/>
    </contour>
  </outline>
</glyph>
