<?xml version="1.0" encoding="UTF-8"?>
<glyph name="uni0286" format="1">
  <advance width="532"/>
  <unicode hex="0286"/>
  <outline>
    <contour>
      <point x="481" y="-334" type="qcurve" smooth="yes"/>
      <point x="491" y="-346"/>
      <point x="444" y="-381"/>
      <point x="428" y="-373" type="qcurve" smooth="yes"/>
      <point x="387" y="-330"/>
      <point x="346" y="-301" type="qcurve"/>
      <point x="326" y="-362"/>
      <point x="297" y="-408" type="qcurve" smooth="yes"/>
      <point x="203" y="-560"/>
      <point x="0" y="-559" type="qcurve" smooth="yes"/>
      <point x="-102" y="-559"/>
      <point x="-199" y="-432"/>
      <point x="-199" y="-342" type="qcurve" smooth="yes"/>
      <point x="-199" y="-260"/>
      <point x="-68" y="-127"/>
      <point x="35" y="-127" type="qcurve" smooth="yes"/>
      <point x="101" y="-127"/>
      <point x="164" y="-139" type="qcurve"/>
      <point x="164" y="872" type="line" smooth="yes"/>
      <point x="164" y="1177"/>
      <point x="391" y="1487"/>
      <point x="559" y="1487" type="qcurve" smooth="yes"/>
      <point x="653" y="1487"/>
      <point x="723" y="1415"/>
      <point x="723" y="1384" type="qcurve" smooth="yes"/>
      <point x="723" y="1341"/>
      <point x="688" y="1290"/>
      <point x="645" y="1290" type="qcurve" smooth="yes"/>
      <point x="592" y="1290"/>
      <point x="524" y="1374"/>
      <point x="492" y="1374" type="qcurve" smooth="yes"/>
      <point x="394" y="1374"/>
      <point x="393" y="1161" type="qcurve" smooth="yes"/>
      <point x="393" y="55" type="line" smooth="yes"/>
      <point x="393" y="-107"/>
      <point x="367" y="-225" type="qcurve"/>
      <point x="436" y="-271"/>
    </contour>
    <contour>
      <point x="66" y="-446" type="qcurve" smooth="yes"/>
      <point x="164" y="-446"/>
      <point x="164" y="-233" type="qcurve" smooth="yes"/>
      <point x="164" y="-225" type="line"/>
      <point x="105" y="-215"/>
      <point x="35" y="-213" type="qcurve" smooth="yes"/>
      <point x="-10" y="-213"/>
      <point x="-72" y="-289"/>
      <point x="-74" y="-342" type="qcurve" smooth="yes"/>
      <point x="-71" y="-446"/>
    </contour>
  </outline>
</glyph>
