<?xml version="1.0" encoding="UTF-8"?>
<glyph name="uni02CE" format="1">
  <advance width="735"/>
  <unicode hex="02CE"/>
  <outline>
    <contour>
      <point x="598" y="-463" type="line" smooth="yes"/>
      <point x="616" y="-477"/>
      <point x="616" y="-494" type="qcurve" smooth="yes"/>
      <point x="616" y="-504"/>
      <point x="608" y="-514" type="qcurve" smooth="yes"/>
      <point x="596" y="-530"/>
      <point x="578" y="-530" type="qcurve" smooth="yes"/>
      <point x="566" y="-530"/>
      <point x="553" y="-524" type="qcurve" smooth="yes"/>
      <point x="115" y="-324" type="line" smooth="yes"/>
      <point x="105" y="-316"/>
      <point x="104" y="-299" type="qcurve" smooth="yes"/>
      <point x="104" y="-285"/>
      <point x="111" y="-264" type="qcurve" smooth="yes"/>
      <point x="123" y="-221"/>
      <point x="162" y="-184" type="qcurve" smooth="yes"/>
      <point x="187" y="-157"/>
      <point x="205" y="-158" type="qcurve" smooth="yes"/>
      <point x="213" y="-158"/>
      <point x="219" y="-164" type="qcurve" smooth="yes"/>
    </contour>
  </outline>
</glyph>
