<?xml version="1.0" encoding="UTF-8"?>
<glyph name="uniF198" format="1">
  <advance width="1503"/>
  <unicode hex="F198"/>
  <outline>
    <contour>
      <point x="1014" y="412" type="qcurve" smooth="yes"/>
      <point x="1014" y="291"/>
      <point x="1112" y="190"/>
      <point x="1184" y="190" type="qcurve" smooth="yes"/>
      <point x="1336" y="190"/>
      <point x="1432" y="283" type="qcurve" smooth="yes"/>
      <point x="1444" y="293"/>
      <point x="1464" y="274" type="qcurve" smooth="yes"/>
      <point x="1480" y="260"/>
      <point x="1481" y="254" type="qcurve" smooth="yes"/>
      <point x="1481" y="252"/>
      <point x="1479" y="250" type="qcurve" smooth="yes"/>
      <point x="1332" y="74"/>
      <point x="1141" y="74" type="qcurve" smooth="yes"/>
      <point x="1000" y="74"/>
      <point x="870" y="227"/>
      <point x="870" y="338" type="qcurve" smooth="yes"/>
      <point x="870" y="451"/>
      <point x="1001" y="664"/>
      <point x="1081" y="717" type="qcurve"/>
      <point x="803" y="717" type="line"/>
      <point x="797" y="680"/>
      <point x="774" y="655" type="qcurve" smooth="yes"/>
      <point x="739" y="620"/>
      <point x="709" y="621" type="qcurve" smooth="yes"/>
      <point x="672" y="621"/>
      <point x="653" y="649" type="qcurve" smooth="yes"/>
      <point x="614" y="715" type="line" smooth="yes"/>
      <point x="575" y="774"/>
      <point x="502" y="774" type="qcurve" smooth="yes"/>
      <point x="420" y="774"/>
      <point x="360" y="682" type="qcurve" smooth="yes"/>
      <point x="294" y="580"/>
      <point x="295" y="436" type="qcurve" smooth="yes"/>
      <point x="295" y="303"/>
      <point x="463" y="125"/>
      <point x="563" y="125" type="qcurve" smooth="yes"/>
      <point x="672" y="125"/>
      <point x="750" y="180" type="qcurve" smooth="yes"/>
      <point x="766" y="192"/>
      <point x="797" y="150" type="qcurve" smooth="yes"/>
      <point x="824" y="107"/>
      <point x="805" y="96" type="qcurve" smooth="yes"/>
      <point x="723" y="43" type="line"/>
      <point x="606" y="-23"/>
      <point x="457" y="-23" type="qcurve" smooth="yes"/>
      <point x="318" y="-23"/>
      <point x="66" y="199"/>
      <point x="66" y="387" type="qcurve" smooth="yes"/>
      <point x="66" y="557"/>
      <point x="172" y="694" type="qcurve" smooth="yes"/>
      <point x="307" y="870"/>
      <point x="522" y="870" type="qcurve" smooth="yes"/>
      <point x="661" y="870"/>
      <point x="750" y="823" type="qcurve"/>
      <point x="1223" y="823" type="line" smooth="yes"/>
      <point x="1280" y="823"/>
      <point x="1278" y="805" type="qcurve" smooth="yes"/>
      <point x="1278" y="785"/>
      <point x="1147" y="705"/>
      <point x="1014" y="514"/>
    </contour>
  </outline>
</glyph>
