<?xml version="1.0" encoding="UTF-8"?>
<glyph name="b" format="1">
  <advance width="1001"/>
  <unicode hex="0062"/>
  <outline>
    <contour>
      <point x="550" y="0" type="move" name="attached_below"/>
    </contour>
    <contour>
      <point x="516" y="-75" type="move" name="below_center"/>
    </contour>
    <contour>
      <point x="420" y="1545" type="move" name="above_center"/>
    </contour>
    <contour>
      <point x="930" y="430" type="qcurve" smooth="yes"/>
      <point x="930" y="212"/>
      <point x="707" y="-23"/>
      <point x="524" y="-23" type="qcurve" smooth="yes"/>
      <point x="465" y="-23"/>
      <point x="369" y="23" type="qcurve"/>
      <point x="345" y="33"/>
      <point x="277" y="33"/>
      <point x="215" y="-23" type="qcurve" smooth="yes"/>
      <point x="212" y="-25"/>
      <point x="200" y="-25"/>
      <point x="185" y="-19" type="qcurve" smooth="yes"/>
      <point x="154" y="-7"/>
      <point x="154" y="0" type="qcurve" smooth="yes"/>
      <point x="158" y="61"/>
      <point x="158" y="260" type="qcurve" smooth="yes"/>
      <point x="158" y="1178" type="line" smooth="yes"/>
      <point x="158" y="1311"/>
      <point x="66" y="1311" type="qcurve" smooth="yes"/>
      <point x="49" y="1311"/>
      <point x="49" y="1366"/>
      <point x="66" y="1366" type="qcurve" smooth="yes"/>
      <point x="91" y="1366"/>
      <point x="251" y="1448"/>
      <point x="292" y="1485"/>
      <point x="316" y="1485"/>
      <point x="317" y="1460" type="qcurve"/>
      <point x="311" y="1336" type="line"/>
      <point x="311" y="836" type="line" smooth="yes"/>
      <point x="311" y="809"/>
      <point x="324" y="809" type="qcurve" smooth="yes"/>
      <point x="333" y="809"/>
      <point x="344" y="815" type="qcurve" smooth="yes"/>
      <point x="438" y="870"/>
      <point x="520" y="870" type="qcurve" smooth="yes"/>
      <point x="696" y="870"/>
      <point x="930" y="607"/>
    </contour>
    <contour>
      <point x="756" y="414" type="qcurve" smooth="yes"/>
      <point x="756" y="570"/>
      <point x="603" y="791"/>
      <point x="481" y="791" type="qcurve" smooth="yes"/>
      <point x="395" y="791"/>
      <point x="334" y="741" type="qcurve" smooth="yes"/>
      <point x="311" y="723"/>
      <point x="311" y="647" type="qcurve" smooth="yes"/>
      <point x="311" y="301" type="line" smooth="yes"/>
      <point x="311" y="220"/>
      <point x="462" y="37"/>
      <point x="558" y="37" type="qcurve" smooth="yes"/>
      <point x="654" y="37"/>
      <point x="756" y="258"/>
    </contour>
  </outline>
</glyph>
