<?xml version="1.0" encoding="UTF-8"?>
<glyph name="nacute" format="1">
  <advance width="1069"/>
  <unicode hex="0144"/>
  <outline>
    <contour>
      <point x="557" y="-75" type="move" name="below_center"/>
    </contour>
    <contour>
      <point x="555" y="1405" type="move" name="above_center"/>
    </contour>
    <component base="acute" xOffset="377"/>
    <component base="n"/>
  </outline>
</glyph>
