<?xml version="1.0" encoding="UTF-8"?>
<glyph name="Oslash" format="1">
  <advance width="1461"/>
  <unicode hex="00D8"/>
  <outline>
    <contour>
      <point x="742" y="-75" type="move" name="below_center"/>
    </contour>
    <contour>
      <point x="740" y="1400" type="move" name="above_center"/>
    </contour>
    <contour>
      <point x="91" y="667" type="qcurve"/>
      <point x="91" y="930"/>
      <point x="267" y="1157.5" type="qcurve"/>
      <point x="443" y="1385"/>
      <point x="740" y="1385" type="qcurve"/>
      <point x="975" y="1385"/>
      <point x="1150" y="1222" type="qcurve"/>
      <point x="1236" y="1325" type="line"/>
      <point x="1240" y="1329"/>
      <point x="1246" y="1329" type="qcurve"/>
      <point x="1258" y="1329"/>
      <point x="1281.5" y="1310" type="qcurve"/>
      <point x="1305" y="1291"/>
      <point x="1305" y="1277" type="qcurve"/>
      <point x="1305" y="1273"/>
      <point x="1303" y="1269" type="qcurve"/>
      <point x="1210" y="1159" type="line"/>
      <point x="1383" y="956"/>
      <point x="1383" y="663" type="qcurve"/>
      <point x="1383" y="407"/>
      <point x="1209" y="190" type="qcurve"/>
      <point x="1035" y="-27"/>
      <point x="735" y="-27" type="qcurve"/>
      <point x="495" y="-27"/>
      <point x="332" y="113" type="qcurve"/>
      <point x="232" y="-6" type="line"/>
      <point x="229" y="-9"/>
      <point x="225" y="-9" type="qcurve"/>
      <point x="213" y="-9"/>
      <point x="189" y="14" type="qcurve"/>
      <point x="165" y="37"/>
      <point x="165" y="46" type="qcurve"/>
      <point x="165" y="49"/>
      <point x="169" y="54" type="qcurve"/>
      <point x="271" y="175" type="line"/>
      <point x="91" y="381"/>
    </contour>
    <contour>
      <point x="282" y="726" type="qcurve"/>
      <point x="282" y="474"/>
      <point x="381" y="306" type="qcurve"/>
      <point x="1055" y="1109" type="line"/>
      <point x="907" y="1314"/>
      <point x="727" y="1314" type="qcurve"/>
      <point x="517" y="1314"/>
      <point x="399.5" y="1133" type="qcurve"/>
      <point x="282" y="952"/>
    </contour>
    <contour>
      <point x="432" y="232" type="line"/>
      <point x="582" y="48"/>
      <point x="749" y="48" type="qcurve"/>
      <point x="961" y="48"/>
      <point x="1076.5" y="221" type="qcurve"/>
      <point x="1192" y="394"/>
      <point x="1192" y="647" type="qcurve"/>
      <point x="1192" y="865"/>
      <point x="1103" y="1031" type="qcurve"/>
    </contour>
  </outline>
</glyph>
