<?xml version="1.0" encoding="UTF-8"?>
<glyph name="parenleft" format="1">
  <advance width="676"/>
  <unicode hex="0028"/>
  <outline>
    <contour>
      <point x="160" y="588" type="qcurve" smooth="yes"/>
      <point x="160" y="850"/>
      <point x="388" y="1346"/>
      <point x="567" y="1516" type="qcurve" smooth="yes"/>
      <point x="583" y="1530"/>
      <point x="622" y="1530"/>
      <point x="647" y="1508"/>
      <point x="647" y="1488"/>
      <point x="629" y="1464" type="qcurve" smooth="yes"/>
      <point x="299" y="1118"/>
      <point x="299" y="588" type="qcurve" smooth="yes"/>
      <point x="299" y="63"/>
      <point x="633" y="-289" type="qcurve" smooth="yes"/>
      <point x="647" y="-303"/>
      <point x="647" y="-335"/>
      <point x="615" y="-354"/>
      <point x="587" y="-354"/>
      <point x="567" y="-338" type="qcurve" smooth="yes"/>
      <point x="374" y="-164"/>
      <point x="160" y="271"/>
    </contour>
  </outline>
</glyph>
