<?xml version="1.0" encoding="UTF-8"?>
<glyph name="u10342" format="1">
  <advance width="1013"/>
  <unicode hex="10342"/>
  <outline>
    <contour>
      <point x="108" y="-279" type="qcurve"/>
      <point x="108" y="-274"/>
      <point x="109" y="-268" type="qcurve"/>
      <point x="124" y="-194"/>
      <point x="124" y="-78" type="qcurve"/>
      <point x="124" y="795" type="line"/>
      <point x="124" y="900"/>
      <point x="95.5" y="922.5" type="qcurve"/>
      <point x="67" y="945"/>
      <point x="31" y="945" type="qcurve"/>
      <point x="20" y="945"/>
      <point x="20" y="976.5" type="qcurve"/>
      <point x="20" y="1008"/>
      <point x="31" y="1008" type="qcurve"/>
      <point x="143" y="1008"/>
      <point x="231" y="1041" type="qcurve"/>
      <point x="239" y="1044"/>
      <point x="253" y="1044" type="qcurve"/>
      <point x="295" y="1044"/>
      <point x="295" y="979" type="qcurve"/>
      <point x="295" y="932"/>
      <point x="283.5" y="864" type="qcurve"/>
      <point x="272" y="796"/>
      <point x="272" y="706" type="qcurve"/>
      <point x="272" y="551" type="line"/>
      <point x="272" y="519"/>
      <point x="304" y="519" type="qcurve"/>
      <point x="341" y="519"/>
      <point x="460" y="607" type="qcurve"/>
      <point x="579" y="694"/>
      <point x="579" y="782" type="qcurve"/>
      <point x="579" y="889"/>
      <point x="552.5" y="930.5" type="qcurve"/>
      <point x="526" y="972"/>
      <point x="526" y="995" type="qcurve"/>
      <point x="526" y="1029"/>
      <point x="557" y="1042" type="qcurve"/>
      <point x="588" y="1055"/>
      <point x="620" y="1055" type="qcurve"/>
      <point x="694" y="1055"/>
      <point x="740" y="1009.5" type="qcurve"/>
      <point x="786" y="964"/>
      <point x="786" y="858" type="qcurve"/>
      <point x="786" y="797"/>
      <point x="669" y="691" type="qcurve"/>
      <point x="552" y="585"/>
      <point x="485" y="550.5" type="qcurve"/>
      <point x="418" y="516"/>
      <point x="418" y="494" type="qcurve"/>
      <point x="418" y="475"/>
      <point x="466" y="431.5" type="qcurve"/>
      <point x="514" y="388"/>
      <point x="653" y="239.5" type="qcurve"/>
      <point x="792" y="91"/>
      <point x="864" y="91" type="qcurve"/>
      <point x="990" y="91"/>
      <point x="990" y="28" type="qcurve"/>
      <point x="990" y="-2"/>
      <point x="938" y="-11.5" type="qcurve"/>
      <point x="886" y="-21"/>
      <point x="814" y="-21" type="qcurve"/>
      <point x="728" y="-21"/>
      <point x="647" y="62" type="qcurve"/>
      <point x="566" y="145"/>
      <point x="523" y="185" type="qcurve"/>
      <point x="480" y="225"/>
      <point x="403.5" y="308.5" type="qcurve"/>
      <point x="326" y="392"/>
      <point x="310" y="398" type="qcurve"/>
      <point x="299" y="402"/>
      <point x="292" y="403" type="qcurve"/>
      <point x="276" y="403"/>
      <point x="274" y="384" type="qcurve"/>
      <point x="272" y="370"/>
      <point x="272" y="344" type="qcurve"/>
      <point x="272" y="64" type="line"/>
      <point x="272" y="8"/>
      <point x="261" y="-96" type="qcurve"/>
      <point x="250" y="-200"/>
      <point x="231.5" y="-258" type="qcurve"/>
      <point x="213" y="-316"/>
      <point x="169" y="-316" type="qcurve"/>
      <point x="108" y="-316"/>
    </contour>
  </outline>
</glyph>
