<?xml version="1.0" encoding="UTF-8"?>
<glyph name="uni0211" format="1">
  <advance width="696"/>
  <unicode hex="0211"/>
  <outline>
    <contour>
      <point x="393" y="-75" type="move" name="below_center"/>
    </contour>
    <contour>
      <point x="393" y="1405" type="move" name="above_center"/>
    </contour>
    <component base="uni030F" xOffset="411.742" yOffset="-0.938144"/>
    <component base="r"/>
  </outline>
</glyph>
