<?xml version="1.0" encoding="UTF-8"?>
<glyph name="uni019F" format="1">
  <advance width="1461"/>
  <unicode hex="019F"/>
  <outline>
    <contour>
      <point x="742" y="-75" type="move" name="below_center"/>
    </contour>
    <contour>
      <point x="740" y="1400" type="move" name="above_center"/>
    </contour>
    <contour>
      <point x="1383" y="663" type="qcurve" smooth="yes"/>
      <point x="1383" y="443"/>
      <point x="1249" y="244" type="qcurve" smooth="yes"/>
      <point x="1065" y="-27"/>
      <point x="735" y="-27" type="qcurve" smooth="yes"/>
      <point x="523" y="-27"/>
      <point x="352" y="99" type="qcurve" smooth="yes"/>
      <point x="248" y="172"/>
      <point x="175" y="312" type="qcurve" smooth="yes"/>
      <point x="91" y="476"/>
      <point x="91" y="667" type="qcurve" smooth="yes"/>
      <point x="91" y="922"/>
      <point x="256" y="1143" type="qcurve" smooth="yes"/>
      <point x="436" y="1385"/>
      <point x="740" y="1385" type="qcurve" smooth="yes"/>
      <point x="972" y="1385"/>
      <point x="1141" y="1232" type="qcurve" smooth="yes"/>
      <point x="1383" y="1008"/>
    </contour>
    <contour>
      <point x="288" y="615" type="line"/>
      <point x="313" y="357"/>
      <point x="461" y="199" type="qcurve" smooth="yes"/>
      <point x="597" y="48"/>
      <point x="749" y="48" type="qcurve" smooth="yes"/>
      <point x="994" y="48"/>
      <point x="1114" y="283" type="qcurve" smooth="yes"/>
      <point x="1185" y="433"/>
      <point x="1191" y="615" type="qcurve"/>
    </contour>
    <contour>
      <point x="1189" y="722" type="line"/>
      <point x="1171" y="962"/>
      <point x="1033" y="1139" type="qcurve" smooth="yes"/>
      <point x="891" y="1314"/>
      <point x="733" y="1314" type="qcurve" smooth="yes"/>
      <point x="563" y="1314"/>
      <point x="452" y="1199" type="qcurve" smooth="yes"/>
      <point x="349" y="1094"/>
      <point x="305" y="913" type="qcurve" smooth="yes"/>
      <point x="283" y="821"/>
      <point x="283" y="726" type="qcurve" smooth="yes"/>
      <point x="283" y="722" type="line"/>
    </contour>
  </outline>
</glyph>
