<?xml version="1.0" encoding="UTF-8"?>
<glyph name="uni0302.sc" format="1">
  <advance width="0"/>
  <outline>
    <contour>
      <point x="0" y="1050" type="move" name="_above_center_1"/>
    </contour>
    <contour>
      <point x="0" y="1420" type="move" name="above_center_1"/>
    </contour>
    <contour>
      <point x="0" y="1050" type="move" name="_above_center"/>
    </contour>
    <contour>
      <point x="210" y="1122" type="line" smooth="yes"/>
      <point x="212.069" y="1119.05"/>
      <point x="212" y="1108"/>
      <point x="202" y="1091"/>
      <point x="197" y="1091" type="qcurve" smooth="yes"/>
      <point x="194.668" y="1090.51"/>
      <point x="193" y="1092" type="qcurve" smooth="yes"/>
      <point x="26" y="1241" type="line"/>
      <point x="14" y="1250"/>
      <point x="3" y="1250" type="qcurve" smooth="yes"/>
      <point x="-9" y="1250"/>
      <point x="-21" y="1241" type="qcurve"/>
      <point x="-184" y="1090" type="line" smooth="yes"/>
      <point x="-186.645" y="1087.55"/>
      <point x="-189" y="1088" type="qcurve" smooth="yes"/>
      <point x="-196" y="1088"/>
      <point x="-207" y="1104"/>
      <point x="-206.848" y="1116.89"/>
      <point x="-204" y="1121" type="qcurve" smooth="yes"/>
      <point x="-28" y="1375" type="line" smooth="yes"/>
      <point x="-12.3608" y="1397.57"/>
      <point x="2" y="1398" type="qcurve" smooth="yes"/>
      <point x="17" y="1398"/>
      <point x="32" y="1376" type="qcurve" smooth="yes"/>
    </contour>
  </outline>
</glyph>
