<?xml version="1.0" encoding="UTF-8"?>
<glyph name="uni01AC" format="1">
  <advance width="1585"/>
  <unicode hex="01AC"/>
  <outline>
    <contour>
      <point x="1551" y="1006" type="line" smooth="yes"/>
      <point x="1551" y="990"/>
      <point x="1475" y="990"/>
      <point x="1475" y="1006" type="qcurve" smooth="yes"/>
      <point x="1475" y="1232"/>
      <point x="1268" y="1266" type="qcurve" smooth="yes"/>
      <point x="1241" y="1271"/>
      <point x="1209" y="1272" type="qcurve" smooth="yes"/>
      <point x="924" y="1282" type="line" smooth="yes"/>
      <point x="873" y="1282"/>
      <point x="873" y="1236" type="qcurve" smooth="yes"/>
      <point x="873" y="186" type="line" smooth="yes"/>
      <point x="873" y="69"/>
      <point x="1062" y="69" type="qcurve" smooth="yes"/>
      <point x="1075" y="69"/>
      <point x="1075" y="-7"/>
      <point x="1062" y="-7" type="qcurve" smooth="yes"/>
      <point x="984" y="0"/>
      <point x="797" y="0" type="qcurve" smooth="yes"/>
      <point x="594" y="0"/>
      <point x="516" y="-7" type="qcurve" smooth="yes"/>
      <point x="503" y="-7"/>
      <point x="503" y="69"/>
      <point x="516" y="69" type="qcurve" smooth="yes"/>
      <point x="619" y="69"/>
      <point x="676" y="115" type="qcurve" smooth="yes"/>
      <point x="713" y="145"/>
      <point x="713" y="186" type="qcurve" smooth="yes"/>
      <point x="713" y="1236" type="line" smooth="yes"/>
      <point x="713" y="1282"/>
      <point x="665" y="1282" type="qcurve" smooth="yes"/>
      <point x="291" y="1282" type="line" smooth="yes"/>
      <point x="198" y="1282"/>
      <point x="147" y="1243" type="qcurve" smooth="yes"/>
      <point x="117" y="1221"/>
      <point x="117" y="1190" type="qcurve" smooth="yes"/>
      <point x="117" y="1168"/>
      <point x="153" y="1130" type="qcurve" smooth="yes"/>
      <point x="190" y="1091"/>
      <point x="190" y="1047" type="qcurve" smooth="yes"/>
      <point x="190" y="1004"/>
      <point x="156" y="984" type="qcurve" smooth="yes"/>
      <point x="141" y="975"/>
      <point x="124" y="975" type="qcurve" smooth="yes"/>
      <point x="73" y="975"/>
      <point x="47" y="1033" type="qcurve" smooth="yes"/>
      <point x="35" y="1060"/>
      <point x="35" y="1091" type="qcurve" smooth="yes"/>
      <point x="36" y="1199"/>
      <point x="112" y="1277" type="qcurve" smooth="yes"/>
      <point x="152" y="1318"/>
      <point x="201" y="1335" type="qcurve" smooth="yes"/>
      <point x="256" y="1355"/>
      <point x="392" y="1355" type="qcurve" smooth="yes"/>
      <point x="1028" y="1352" type="line"/>
      <point x="1467" y="1358" type="line"/>
      <point x="1473" y="1358" type="line" smooth="yes"/>
      <point x="1551" y="1358"/>
      <point x="1551" y="1325" type="qcurve" smooth="yes"/>
    </contour>
  </outline>
</glyph>
