<?xml version="1.0" encoding="UTF-8"?>
<glyph name="uni034C" format="1">
  <advance width="0"/>
  <unicode hex="034C"/>
  <outline>
    <contour>
      <point x="0" y="900" type="move" name="_above_center_1"/>
    </contour>
    <contour>
      <point x="0" y="1395" type="move" name="above_center_1"/>
    </contour>
    <contour>
      <point x="0" y="900" type="move" name="_above_center"/>
    </contour>
    <contour>
      <point x="156" y="1007"/>
      <point x="112" y="1007" type="qcurve" smooth="yes"/>
      <point x="86.86" y="1006.77"/>
      <point x="69" y="1012" type="qcurve" smooth="yes"/>
      <point x="-88" y="1058" type="line" smooth="yes"/>
      <point x="-111.991" y="1065.03"/>
      <point x="-136" y="1065" type="qcurve" smooth="yes"/>
      <point x="-168.016" y="1064.96"/>
      <point x="-237" y="1003" type="qcurve"/>
      <point x="-250.477" y="991.054"/>
      <point x="-272" y="1021" type="qcurve" smooth="yes"/>
      <point x="-296.165" y="1054.01"/>
      <point x="-283" y="1068" type="qcurve" smooth="yes"/>
      <point x="-203" y="1153"/>
      <point x="-129" y="1153" type="qcurve" smooth="yes"/>
      <point x="-98.7875" y="1151.73"/>
      <point x="-78" y="1146" type="qcurve" smooth="yes"/>
      <point x="67" y="1106" type="line" smooth="yes"/>
      <point x="87.8754" y="1100.24"/>
      <point x="102" y="1100" type="qcurve" smooth="yes"/>
      <point x="144" y="1100"/>
      <point x="217" y="1155" type="qcurve" smooth="yes"/>
      <point x="232.311" y="1166.54"/>
      <point x="253" y="1137" type="qcurve" smooth="yes"/>
      <point x="274" y="1107"/>
      <point x="261" y="1093" type="qcurve"/>
    </contour>
    <contour>
      <point x="156" y="1237"/>
      <point x="112" y="1237" type="qcurve" smooth="yes"/>
      <point x="86.86" y="1236.77"/>
      <point x="69" y="1242" type="qcurve" smooth="yes"/>
      <point x="-88" y="1288" type="line" smooth="yes"/>
      <point x="-111.991" y="1295.03"/>
      <point x="-136" y="1295" type="qcurve" smooth="yes"/>
      <point x="-168.016" y="1294.96"/>
      <point x="-237" y="1233" type="qcurve"/>
      <point x="-250.477" y="1221.05"/>
      <point x="-272" y="1251" type="qcurve" smooth="yes"/>
      <point x="-296.165" y="1284.01"/>
      <point x="-283" y="1298" type="qcurve" smooth="yes"/>
      <point x="-203" y="1383"/>
      <point x="-129" y="1383" type="qcurve" smooth="yes"/>
      <point x="-98.7875" y="1381.73"/>
      <point x="-78" y="1376" type="qcurve" smooth="yes"/>
      <point x="67" y="1336" type="line" smooth="yes"/>
      <point x="87.8754" y="1330.24"/>
      <point x="102" y="1330" type="qcurve" smooth="yes"/>
      <point x="144" y="1330"/>
      <point x="217" y="1385" type="qcurve" smooth="yes"/>
      <point x="232.311" y="1396.54"/>
      <point x="253" y="1367" type="qcurve" smooth="yes"/>
      <point x="274" y="1337"/>
      <point x="261" y="1323" type="qcurve"/>
    </contour>
  </outline>
</glyph>
