<?xml version="1.0" encoding="UTF-8"?>
<glyph name="uni035B" format="1">
  <advance width="0"/>
  <unicode hex="035B"/>
  <outline>
    <contour>
      <point x="0" y="900" type="move" name="_above_center_1"/>
    </contour>
    <contour>
      <point x="0" y="1641" type="move" name="above_center_1"/>
    </contour>
    <contour>
      <point x="0" y="900" type="move" name="_above_center"/>
    </contour>
    <contour>
      <point x="231" y="1329" type="qcurve" smooth="yes"/>
      <point x="63" y="1020" type="line" smooth="yes"/>
      <point x="56.3642" y="1007.79"/>
      <point x="40" y="1008" type="qcurve" smooth="yes"/>
      <point x="11" y="1008"/>
      <point x="11" y="1022" type="qcurve" smooth="yes"/>
      <point x="10.9035" y="1025.03"/>
      <point x="12" y="1028" type="qcurve" smooth="yes"/>
      <point x="90" y="1239" type="line" smooth="yes"/>
      <point x="94.0584" y="1249.98"/>
      <point x="94" y="1259" type="qcurve" smooth="yes"/>
      <point x="94" y="1267"/>
      <point x="69" y="1267" type="qcurve" smooth="yes"/>
      <point x="-209" y="1267" type="line" smooth="yes"/>
      <point x="-242" y="1267"/>
      <point x="-242" y="1282" type="qcurve" smooth="yes"/>
      <point x="-242.127" y="1291.07"/>
      <point x="-234" y="1306" type="qcurve" smooth="yes"/>
      <point x="-62" y="1622" type="line" smooth="yes"/>
      <point x="-57.0779" y="1631.04"/>
      <point x="-43" y="1631" type="qcurve" smooth="yes"/>
      <point x="-10" y="1631"/>
      <point x="-10" y="1616" type="qcurve"/>
      <point x="-11" y="1611" type="line"/>
      <point x="-86" y="1403" type="line" smooth="yes"/>
      <point x="-88.8981" y="1394.96"/>
      <point x="-89" y="1388" type="qcurve" smooth="yes"/>
      <point x="-89" y="1374"/>
      <point x="-68" y="1374" type="qcurve" smooth="yes"/>
      <point x="209" y="1374" type="line" smooth="yes"/>
      <point x="241" y="1374"/>
      <point x="241" y="1357" type="qcurve" smooth="yes"/>
      <point x="240.836" y="1347.09"/>
    </contour>
  </outline>
</glyph>
