<?xml version="1.0" encoding="UTF-8"?>
<glyph name="uni1D13" format="1">
  <advance width="1017"/>
  <unicode hex="1D13"/>
  <outline>
    <contour>
      <point x="1025" y="85" type="qcurve" smooth="yes"/>
      <point x="1025" y="71"/>
      <point x="1011" y="52" type="qcurve" smooth="yes"/>
      <point x="996" y="34"/>
      <point x="984" y="34" type="qcurve" smooth="yes"/>
      <point x="983" y="34"/>
      <point x="979" y="36" type="qcurve" smooth="yes"/>
      <point x="859" y="120" type="line"/>
      <point x="719" y="-20"/>
      <point x="531" y="-20" type="qcurve" smooth="yes"/>
      <point x="348" y="-20"/>
      <point x="224" y="85" type="qcurve" smooth="yes"/>
      <point x="82" y="202"/>
      <point x="82" y="398" type="qcurve" smooth="yes"/>
      <point x="82" y="514"/>
      <point x="150" y="615" type="qcurve"/>
      <point x="39" y="693" type="line" smooth="yes"/>
      <point x="35" y="697"/>
      <point x="35" y="701" type="qcurve" smooth="yes"/>
      <point x="35" y="715"/>
      <point x="49" y="735" type="qcurve" smooth="yes"/>
      <point x="64" y="754"/>
      <point x="76" y="754" type="qcurve"/>
      <point x="78" y="752"/>
      <point x="80" y="752" type="qcurve"/>
      <point x="195" y="671" type="line"/>
      <point x="336" y="820"/>
      <point x="529" y="820" type="qcurve" smooth="yes"/>
      <point x="701" y="820"/>
      <point x="836" y="697" type="qcurve" smooth="yes"/>
      <point x="975" y="570"/>
      <point x="975" y="400" type="qcurve" smooth="yes"/>
      <point x="975" y="278"/>
      <point x="904" y="175" type="qcurve"/>
      <point x="1020" y="93" type="line" smooth="yes"/>
      <point x="1025" y="88"/>
    </contour>
    <contour>
      <point x="916" y="398" type="qcurve" smooth="yes"/>
      <point x="916" y="494"/>
      <point x="816" y="570" type="qcurve" smooth="yes"/>
      <point x="704" y="658"/>
      <point x="525" y="658" type="qcurve" smooth="yes"/>
      <point x="392" y="658"/>
      <point x="291" y="605" type="qcurve"/>
      <point x="822" y="232" type="line"/>
      <point x="916" y="305"/>
    </contour>
    <contour>
      <point x="754" y="191" type="qcurve"/>
      <point x="230" y="560" type="line"/>
      <point x="148" y="487"/>
      <point x="148" y="400" type="qcurve" smooth="yes"/>
      <point x="148" y="318"/>
      <point x="217" y="251" type="qcurve" smooth="yes"/>
      <point x="230" y="238"/>
      <point x="244" y="228" type="qcurve" smooth="yes"/>
      <point x="360" y="144"/>
      <point x="525" y="144" type="qcurve" smooth="yes"/>
      <point x="652" y="144"/>
    </contour>
  </outline>
</glyph>
