<?xml version="1.0" encoding="UTF-8"?>
<glyph name="uni1D63" format="1">
  <advance width="418"/>
  <unicode hex="1D63"/>
  <outline>
    <contour>
      <point x="415" y="227" type="qcurve" smooth="yes"/>
      <point x="415" y="190"/>
      <point x="385" y="173" type="qcurve" smooth="yes"/>
      <point x="374" y="167"/>
      <point x="362" y="167" type="qcurve" smooth="yes"/>
      <point x="354" y="167"/>
      <point x="347" y="171" type="qcurve" smooth="yes"/>
      <point x="299" y="193"/>
      <point x="293" y="195" type="qcurve" smooth="yes"/>
      <point x="284" y="196" type="line" smooth="yes"/>
      <point x="248" y="196"/>
      <point x="222" y="160" type="qcurve" smooth="yes"/>
      <point x="196" y="123"/>
      <point x="196" y="61" type="qcurve" smooth="yes"/>
      <point x="196" y="-159" type="line" smooth="yes"/>
      <point x="196" y="-206"/>
      <point x="287" y="-206" type="qcurve" smooth="yes"/>
      <point x="296" y="-206"/>
      <point x="296" y="-240"/>
      <point x="287" y="-240" type="qcurve" smooth="yes"/>
      <point x="241" y="-235"/>
      <point x="161" y="-235" type="qcurve" smooth="yes"/>
      <point x="82" y="-235"/>
      <point x="35" y="-240" type="qcurve" smooth="yes"/>
      <point x="26" y="-240"/>
      <point x="26" y="-206"/>
      <point x="35" y="-206" type="qcurve" smooth="yes"/>
      <point x="104" y="-206"/>
      <point x="104" y="-159" type="qcurve" smooth="yes"/>
      <point x="104" y="64" type="line" smooth="yes"/>
      <point x="104" y="142"/>
      <point x="96" y="161" type="qcurve" smooth="yes"/>
      <point x="86" y="186"/>
      <point x="54" y="186" type="qcurve" smooth="yes"/>
      <point x="46" y="186"/>
      <point x="46" y="202" type="qcurve" smooth="yes"/>
      <point x="46" y="220"/>
      <point x="54" y="220" type="qcurve" smooth="yes"/>
      <point x="80" y="220"/>
      <point x="143" y="263" type="qcurve" smooth="yes"/>
      <point x="159" y="274"/>
      <point x="166" y="281" type="qcurve" smooth="yes"/>
      <point x="182" y="295"/>
      <point x="189" y="295" type="qcurve" smooth="yes"/>
      <point x="199" y="295"/>
      <point x="199" y="280" type="qcurve" smooth="yes"/>
      <point x="196" y="222" type="line"/>
      <point x="196" y="221" type="line" smooth="yes"/>
      <point x="196" y="202"/>
      <point x="206" y="202" type="qcurve" smooth="yes"/>
      <point x="214" y="202"/>
      <point x="221" y="214" type="qcurve" smooth="yes"/>
      <point x="276" y="287"/>
      <point x="349" y="287" type="qcurve" smooth="yes"/>
      <point x="388" y="287"/>
      <point x="407" y="256" type="qcurve" smooth="yes"/>
      <point x="415" y="242"/>
    </contour>
  </outline>
</glyph>
