<?xml version="1.0" encoding="UTF-8"?>
<glyph name="uni24EF" format="1">
  <advance width="2053"/>
  <unicode hex="24EF"/>
  <outline>
    <contour>
      <point x="748" y="925" type="qcurve"/>
      <point x="748" y="961"/>
      <point x="702" y="961"/>
      <point x="684" y="948" type="qcurve" smooth="yes"/>
      <point x="549" y="841"/>
      <point x="441" y="799" type="qcurve"/>
      <point x="428" y="792"/>
      <point x="446" y="754"/>
      <point x="457" y="757" type="qcurve"/>
      <point x="560" y="799" type="line" smooth="yes"/>
      <point x="565" y="801"/>
      <point x="571" y="801" type="qcurve" smooth="yes"/>
      <point x="584" y="801"/>
      <point x="584" y="761" type="qcurve" smooth="yes"/>
      <point x="584" y="197" type="line" smooth="yes"/>
      <point x="584" y="92"/>
      <point x="516" y="48"/>
      <point x="460" y="48" type="qcurve" smooth="yes"/>
      <point x="449" y="48"/>
      <point x="449" y="-6"/>
      <point x="460" y="-6" type="qcurve"/>
      <point x="516" y="0"/>
      <point x="800" y="0"/>
      <point x="856" y="-6" type="qcurve"/>
      <point x="869" y="-6"/>
      <point x="869" y="48"/>
      <point x="856" y="48" type="qcurve" smooth="yes"/>
      <point x="783" y="48"/>
      <point x="743" y="121"/>
      <point x="743" y="198" type="qcurve" smooth="yes"/>
      <point x="743" y="813" type="line" smooth="yes"/>
      <point x="743" y="875"/>
    </contour>
    <contour>
      <point x="108" y="563"/>
      <point x="174" y="801"/>
      <point x="292" y="1002"/>
      <point x="456" y="1152"/>
      <point x="663" y="1290"/>
      <point x="901" y="1356"/>
      <point x="1151" y="1356"/>
      <point x="1389" y="1290"/>
      <point x="1590" y="1172"/>
      <point x="1760" y="1002"/>
      <point x="1878" y="801"/>
      <point x="1944" y="563"/>
      <point x="1944" y="313"/>
      <point x="1878" y="75"/>
      <point x="1760" y="-126"/>
      <point x="1590" y="-296"/>
      <point x="1389" y="-414"/>
      <point x="1151" y="-480"/>
      <point x="901" y="-480"/>
      <point x="663" y="-414"/>
      <point x="462" y="-296"/>
      <point x="292" y="-126"/>
      <point x="174" y="75"/>
      <point x="108" y="313"/>
    </contour>
    <contour>
      <point x="1591" y="364" type="qcurve" smooth="yes"/>
      <point x="1591" y="532"/>
      <point x="1459" y="608" type="qcurve" smooth="yes"/>
      <point x="1379" y="654"/>
      <point x="1264" y="654" type="qcurve" smooth="yes"/>
      <point x="1263" y="654"/>
      <point x="1220" y="650" type="qcurve" smooth="yes"/>
      <point x="1209" y="651" type="line" smooth="yes"/>
      <point x="1203" y="653"/>
      <point x="1203" y="662" type="qcurve" smooth="yes"/>
      <point x="1203" y="666"/>
      <point x="1204" y="673" type="qcurve" smooth="yes"/>
      <point x="1223" y="781" type="line" smooth="yes"/>
      <point x="1226" y="799"/>
      <point x="1239" y="801" type="qcurve" smooth="yes"/>
      <point x="1244" y="802"/>
      <point x="1252" y="802" type="qcurve" smooth="yes"/>
      <point x="1542" y="802" type="line" smooth="yes"/>
      <point x="1554" y="802"/>
      <point x="1567" y="874" type="qcurve" smooth="yes"/>
      <point x="1571" y="920" type="line" smooth="yes"/>
      <point x="1571" y="933"/>
      <point x="1567" y="933" type="qcurve" smooth="yes"/>
      <point x="1215" y="933" type="line" smooth="yes"/>
      <point x="1174" y="933"/>
      <point x="1167" y="895" type="qcurve" smooth="yes"/>
      <point x="1101" y="524" type="line"/>
      <point x="1100" y="503" type="line" smooth="yes"/>
      <point x="1103" y="485"/>
      <point x="1122" y="485" type="qcurve" smooth="yes"/>
      <point x="1130" y="485"/>
      <point x="1141" y="489" type="qcurve" smooth="yes"/>
      <point x="1191" y="503"/>
      <point x="1237" y="503" type="qcurve" smooth="yes"/>
      <point x="1359" y="503"/>
      <point x="1419" y="418" type="qcurve" smooth="yes"/>
      <point x="1458" y="364"/>
      <point x="1458" y="289" type="qcurve" smooth="yes"/>
      <point x="1458" y="210"/>
      <point x="1408" y="143" type="qcurve" smooth="yes"/>
      <point x="1359" y="76"/>
      <point x="1289" y="76" type="qcurve" smooth="yes"/>
      <point x="1250" y="76"/>
      <point x="1207" y="118" type="qcurve" smooth="yes"/>
      <point x="1170" y="152" type="line" smooth="yes"/>
      <point x="1144" y="172"/>
      <point x="1118" y="173" type="qcurve" smooth="yes"/>
      <point x="1090" y="170" type="line" smooth="yes"/>
      <point x="1036" y="158"/>
      <point x="1035" y="102" type="qcurve" smooth="yes"/>
      <point x="1035" y="27"/>
      <point x="1159" y="6" type="qcurve" smooth="yes"/>
      <point x="1193" y="0"/>
      <point x="1230" y="0" type="qcurve" smooth="yes"/>
      <point x="1392" y="0"/>
      <point x="1495" y="112" type="qcurve" smooth="yes"/>
      <point x="1591" y="216"/>
    </contour>
  </outline>
</glyph>
