<?xml version="1.0" encoding="UTF-8"?>
<glyph name="uni24AF" format="1">
  <advance width="2001"/>
  <unicode hex="24AF"/>
  <outline>
    <component base="parenright" xOffset="1350"/>
    <component base="t" xOffset="676"/>
    <component base="parenleft"/>
  </outline>
</glyph>
