<?xml version="1.0" encoding="UTF-8"?>
<glyph name="uniA736" format="1">
  <advance width="1947"/>
  <unicode hex="A736"/>
  <outline>
    <contour>
      <point x="1032" y="-75" type="move" name="below_center"/>
    </contour>
    <contour>
      <point x="1032" y="1425" type="move" name="above_center"/>
    </contour>
    <contour>
      <point x="1715" y="890" type="line" smooth="yes"/>
      <point x="1715" y="611"/>
      <point x="1704" y="454" type="qcurve" smooth="yes"/>
      <point x="1686" y="200"/>
      <point x="1560" y="88" type="qcurve" smooth="yes"/>
      <point x="1430" y="-27"/>
      <point x="1225" y="-27" type="qcurve" smooth="yes"/>
      <point x="1115" y="-27"/>
      <point x="1035" y="0" type="qcurve"/>
      <point x="933" y="0" type="line" smooth="yes"/>
      <point x="785" y="0"/>
      <point x="666" y="-7" type="qcurve"/>
      <point x="653" y="-7"/>
      <point x="653" y="69"/>
      <point x="666" y="69" type="qcurve" smooth="yes"/>
      <point x="795" y="69"/>
      <point x="821" y="117" type="qcurve" smooth="yes"/>
      <point x="836" y="145"/>
      <point x="836" y="177" type="qcurve"/>
      <point x="773" y="305"/>
      <point x="773" y="539" type="qcurve" smooth="yes"/>
      <point x="773" y="573" type="line" smooth="yes"/>
      <point x="773" y="607"/>
      <point x="740" y="607" type="qcurve" smooth="yes"/>
      <point x="423" y="607" type="line" smooth="yes"/>
      <point x="395" y="607"/>
      <point x="382" y="583" type="qcurve" smooth="yes"/>
      <point x="172" y="168" type="line" smooth="yes"/>
      <point x="160" y="146"/>
      <point x="160" y="128" type="qcurve" smooth="yes"/>
      <point x="160" y="69"/>
      <point x="312" y="69" type="qcurve" smooth="yes"/>
      <point x="326" y="69"/>
      <point x="326" y="-7"/>
      <point x="312" y="-7" type="qcurve"/>
      <point x="231" y="0"/>
      <point x="-33" y="0"/>
      <point x="-113" y="-7" type="qcurve"/>
      <point x="-126" y="-7"/>
      <point x="-126" y="69"/>
      <point x="-113" y="69" type="qcurve" smooth="yes"/>
      <point x="-14" y="69"/>
      <point x="41" y="139" type="qcurve" smooth="yes"/>
      <point x="59" y="160"/>
      <point x="78" y="195" type="qcurve" smooth="yes"/>
      <point x="642" y="1196" type="line" smooth="yes"/>
      <point x="658" y="1224"/>
      <point x="658" y="1241" type="qcurve" smooth="yes"/>
      <point x="658" y="1288"/>
      <point x="575" y="1288" type="qcurve" smooth="yes"/>
      <point x="562" y="1288"/>
      <point x="562" y="1364"/>
      <point x="575" y="1364" type="qcurve"/>
      <point x="681" y="1358"/>
      <point x="1053" y="1358"/>
      <point x="1139" y="1363" type="qcurve"/>
      <point x="1152" y="1363"/>
      <point x="1152" y="1287"/>
      <point x="1139" y="1287" type="qcurve" smooth="yes"/>
      <point x="933" y="1287"/>
      <point x="933" y="1172" type="qcurve" smooth="yes"/>
      <point x="933" y="541" type="line" smooth="yes"/>
      <point x="933" y="261"/>
      <point x="990" y="186" type="qcurve" smooth="yes"/>
      <point x="1089" y="48"/>
      <point x="1262" y="48" type="qcurve" smooth="yes"/>
      <point x="1398" y="48"/>
      <point x="1505" y="153" type="qcurve" smooth="yes"/>
      <point x="1605" y="251"/>
      <point x="1605" y="487" type="qcurve" smooth="yes"/>
      <point x="1605" y="1172" type="line" smooth="yes"/>
      <point x="1605" y="1287"/>
      <point x="1417" y="1287" type="qcurve" smooth="yes"/>
      <point x="1404" y="1287"/>
      <point x="1404" y="1363"/>
      <point x="1417" y="1363" type="qcurve"/>
      <point x="1462" y="1358"/>
      <point x="1874" y="1358"/>
      <point x="1919" y="1363" type="qcurve"/>
      <point x="1932" y="1363"/>
      <point x="1932" y="1287"/>
      <point x="1919" y="1287" type="qcurve" smooth="yes"/>
      <point x="1715" y="1287"/>
      <point x="1715" y="1172" type="qcurve" smooth="yes"/>
    </contour>
    <contour>
      <point x="773" y="711" type="qcurve" smooth="yes"/>
      <point x="773" y="1190" type="line" smooth="yes"/>
      <point x="773" y="1217"/>
      <point x="753" y="1217" type="qcurve" smooth="yes"/>
      <point x="734" y="1217"/>
      <point x="724" y="1196" type="qcurve" smooth="yes"/>
      <point x="452" y="705" type="line" smooth="yes"/>
      <point x="448" y="698"/>
      <point x="448" y="690" type="qcurve" smooth="yes"/>
      <point x="448" y="676"/>
      <point x="470" y="676" type="qcurve" smooth="yes"/>
      <point x="740" y="676" type="line" smooth="yes"/>
      <point x="773" y="676"/>
    </contour>
  </outline>
</glyph>
