<?xml version="1.0" encoding="UTF-8"?>
<glyph name="uniEBEB" format="1">
  <advance width="1145"/>
  <unicode hex="EBEB"/>
  <outline>
    <component base="uni1DCE" xOffset="901" yOffset="-84"/>
    <component base="ae"/>
  </outline>
</glyph>
