<?xml version="1.0" encoding="UTF-8"?>
<glyph name="uniE154" format="1">
  <advance width="716"/>
  <unicode hex="E154"/>
  <outline>
    <component base="CapMacron" xOffset="4"/>
    <component base="J"/>
  </outline>
</glyph>
