<?xml version="1.0" encoding="UTF-8"?>
<glyph name="uniE8BA" format="1">
  <advance width="838"/>
  <unicode hex="E8BA"/>
  <outline>
    <contour>
      <point x="115" y="731" type="line"/>
      <point x="86" y="803"/>
      <point x="12" y="803" type="qcurve" smooth="yes"/>
      <point x="-2" y="803"/>
      <point x="-2" y="856"/>
      <point x="12" y="856" type="qcurve"/>
      <point x="70" y="850"/>
      <point x="188" y="850" type="qcurve" smooth="yes"/>
      <point x="245.181" y="850"/>
      <point x="287.007" y="736.136" type="qcurve"/>
      <point x="399.999" y="854.596"/>
      <point x="400" y="943" type="qcurve" smooth="yes"/>
      <point x="400" y="951"/>
      <point x="424" y="963"/>
      <point x="457" y="963"/>
      <point x="480" y="952"/>
      <point x="480" y="943" type="qcurve" smooth="yes"/>
      <point x="480" y="839.878"/>
      <point x="310.632" y="665.002" type="qcurve"/>
      <point x="453" y="229" type="line" smooth="yes"/>
      <point x="459" y="211"/>
      <point x="475" y="211"/>
      <point x="481" y="229" type="qcurve" smooth="yes"/>
      <point x="651" y="727" type="line" smooth="yes"/>
      <point x="655" y="737"/>
      <point x="655" y="750" type="qcurve" smooth="yes"/>
      <point x="655" y="803"/>
      <point x="559" y="803" type="qcurve" smooth="yes"/>
      <point x="545" y="803"/>
      <point x="545" y="856"/>
      <point x="559" y="856" type="qcurve"/>
      <point x="616" y="850"/>
      <point x="788" y="850"/>
      <point x="848" y="856" type="qcurve"/>
      <point x="862" y="856"/>
      <point x="862" y="803"/>
      <point x="848" y="803" type="qcurve" smooth="yes"/>
      <point x="752" y="803"/>
      <point x="727" y="731" type="qcurve" smooth="yes"/>
      <point x="477" y="16" type="line" smooth="yes"/>
      <point x="464" y="-23"/>
      <point x="406" y="-23"/>
      <point x="395" y="4" type="qcurve" smooth="yes"/>
      <point x="189.341" y="537.978" type="line"/>
      <point x="87" y="419.109"/>
      <point x="87" y="348" type="qcurve" smooth="yes"/>
      <point x="87" y="340"/>
      <point x="63.9995" y="328"/>
      <point x="31" y="328"/>
      <point x="7" y="340"/>
      <point x="7" y="348" type="qcurve" smooth="yes"/>
      <point x="7" y="441.745"/>
      <point x="163.018" y="606.325" type="qcurve"/>
    </contour>
  </outline>
</glyph>
