<?xml version="1.0" encoding="UTF-8"?>
<glyph name="uniEF95" format="1">
  <advance width="2048"/>
  <unicode hex="EF95"/>
  <outline>
    <contour>
      <point x="597" y="90" type="qcurve"/>
      <point x="597" y="112"/>
      <point x="577" y="119.5" type="qcurve"/>
      <point x="557" y="127"/>
      <point x="522" y="148.5" type="qcurve"/>
      <point x="487" y="170"/>
      <point x="474.5" y="180.5" type="qcurve"/>
      <point x="462" y="191"/>
      <point x="448" y="209" type="qcurve"/>
      <point x="448" y="123"/>
      <point x="464" y="104.5" type="qcurve"/>
      <point x="480" y="86"/>
      <point x="499" y="71.5" type="qcurve"/>
      <point x="518" y="57"/>
      <point x="540" y="57" type="qcurve"/>
      <point x="562" y="57"/>
      <point x="579.5" y="67.5" type="qcurve"/>
      <point x="597" y="78"/>
    </contour>
    <contour>
      <point x="1297" y="1041" type="qcurve"/>
      <point x="1297" y="943"/>
      <point x="1330.5" y="847.5" type="qcurve"/>
      <point x="1364" y="752"/>
      <point x="1378" y="711" type="qcurve"/>
      <point x="1392" y="670"/>
      <point x="1408.5" y="621" type="qcurve"/>
      <point x="1425" y="572"/>
      <point x="1432" y="544" type="qcurve"/>
      <point x="1439" y="516"/>
      <point x="1462.5" y="443" type="qcurve"/>
      <point x="1486" y="370"/>
      <point x="1514" y="370" type="qcurve"/>
      <point x="1554" y="370"/>
      <point x="1619.5" y="442" type="qcurve"/>
      <point x="1685" y="514"/>
      <point x="1758" y="615.5" type="qcurve"/>
      <point x="1831" y="717"/>
      <point x="1854" y="807.5" type="qcurve"/>
      <point x="1877" y="898"/>
      <point x="1893" y="975" type="qcurve"/>
      <point x="1909" y="1052"/>
      <point x="1909" y="1177" type="qcurve"/>
      <point x="1909" y="1301"/>
      <point x="1880.5" y="1367" type="qcurve"/>
      <point x="1852" y="1433"/>
      <point x="1808.5" y="1468.5" type="qcurve"/>
      <point x="1765" y="1504"/>
      <point x="1725" y="1504" type="qcurve"/>
      <point x="1659" y="1504"/>
      <point x="1620" y="1434" type="qcurve"/>
      <point x="1581" y="1364"/>
      <point x="1581" y="1233" type="qcurve"/>
      <point x="1581" y="1148"/>
      <point x="1645.5" y="1054" type="qcurve"/>
      <point x="1710" y="960"/>
      <point x="1710" y="936" type="qcurve"/>
      <point x="1710" y="856"/>
      <point x="1647" y="812.5" type="qcurve"/>
      <point x="1584" y="769"/>
      <point x="1553" y="769" type="qcurve"/>
      <point x="1418" y="769"/>
      <point x="1418" y="1079" type="qcurve"/>
      <point x="1418" y="1179"/>
      <point x="1461.5" y="1280.5" type="qcurve"/>
      <point x="1496.87" y="1362.11"/>
      <point x="1496.87" y="1392" type="qcurve"/>
      <point x="1496.87" y="1406.99"/>
      <point x="1485" y="1415.96" type="qcurve"/>
      <point x="1473.04" y="1425"/>
      <point x="1451" y="1425" type="qcurve"/>
      <point x="1410" y="1425"/>
      <point x="1381" y="1331" type="qcurve"/>
      <point x="1352" y="1237"/>
      <point x="1324.5" y="1159" type="qcurve"/>
      <point x="1297" y="1081"/>
    </contour>
    <contour>
      <point x="51" y="583" type="qcurve"/>
      <point x="51" y="857"/>
      <point x="91.5" y="926" type="qcurve"/>
      <point x="132" y="995"/>
      <point x="148.5" y="1021.5" type="qcurve"/>
      <point x="165" y="1048"/>
      <point x="196" y="1100.5" type="qcurve"/>
      <point x="227" y="1153"/>
      <point x="342" y="1205" type="qcurve"/>
      <point x="457" y="1257"/>
      <point x="457" y="1368" type="qcurve"/>
      <point x="457" y="1450"/>
      <point x="414.5" y="1491" type="qcurve"/>
      <point x="372" y="1532"/>
      <point x="338" y="1532" type="qcurve"/>
      <point x="297" y="1532"/>
      <point x="262.5" y="1481.5" type="qcurve"/>
      <point x="228" y="1431"/>
      <point x="228" y="1414" type="qcurve"/>
      <point x="228" y="1369"/>
      <point x="289.5" y="1353" type="qcurve"/>
      <point x="351" y="1337"/>
      <point x="351" y="1319" type="qcurve"/>
      <point x="351" y="1310"/>
      <point x="319" y="1293.5" type="qcurve"/>
      <point x="287" y="1277"/>
      <point x="246" y="1277" type="qcurve"/>
      <point x="205" y="1277"/>
      <point x="169" y="1306.5" type="qcurve"/>
      <point x="133" y="1336"/>
      <point x="112" y="1390" type="qcurve"/>
      <point x="91" y="1444"/>
      <point x="91" y="1474" type="qcurve"/>
      <point x="91" y="1523"/>
      <point x="147.5" y="1572" type="qcurve"/>
      <point x="204" y="1621"/>
      <point x="306" y="1621" type="qcurve"/>
      <point x="594" y="1620"/>
      <point x="594" y="1420" type="qcurve"/>
      <point x="594" y="1324"/>
      <point x="566.5" y="1279.5" type="qcurve"/>
      <point x="539" y="1235"/>
      <point x="539" y="1216" type="qcurve"/>
      <point x="539" y="1204"/>
      <point x="558.5" y="1199" type="qcurve"/>
      <point x="578" y="1194"/>
      <point x="660" y="1186" type="qcurve"/>
      <point x="742" y="1178"/>
      <point x="820.5" y="1099.5" type="qcurve"/>
      <point x="899" y="1021"/>
      <point x="913.5" y="949.5" type="qcurve"/>
      <point x="928" y="878"/>
      <point x="928" y="782" type="qcurve"/>
      <point x="928" y="662"/>
      <point x="847" y="592" type="qcurve"/>
      <point x="766" y="522"/>
      <point x="641" y="522" type="qcurve"/>
      <point x="516" y="522"/>
      <point x="465.5" y="602" type="qcurve"/>
      <point x="415" y="682"/>
      <point x="415" y="741" type="qcurve"/>
      <point x="415" y="784"/>
      <point x="461.5" y="837.5" type="qcurve"/>
      <point x="508" y="891"/>
      <point x="542" y="891" type="qcurve"/>
      <point x="631" y="891"/>
      <point x="657" y="852" type="qcurve"/>
      <point x="683" y="813"/>
      <point x="683" y="789" type="qcurve"/>
      <point x="683" y="770"/>
      <point x="664.5" y="740" type="qcurve"/>
      <point x="646" y="710"/>
      <point x="646" y="683" type="qcurve"/>
      <point x="646" y="663"/>
      <point x="674" y="650" type="qcurve"/>
      <point x="702" y="637"/>
      <point x="730" y="637" type="qcurve"/>
      <point x="765" y="637"/>
      <point x="796" y="691.5" type="qcurve"/>
      <point x="827" y="746"/>
      <point x="827" y="808" type="qcurve"/>
      <point x="827" y="973"/>
      <point x="713.5" y="1032.5" type="qcurve"/>
      <point x="600" y="1092"/>
      <point x="542" y="1092" type="qcurve"/>
      <point x="410" y="1092"/>
      <point x="318" y="1009.5" type="qcurve"/>
      <point x="226" y="927"/>
      <point x="180" y="806.5" type="qcurve"/>
      <point x="134" y="686"/>
      <point x="134" y="625" type="qcurve"/>
      <point x="134" y="498"/>
      <point x="190.5" y="414" type="qcurve"/>
      <point x="230" y="355"/>
      <point x="256" y="355" type="qcurve"/>
      <point x="267" y="355"/>
      <point x="280" y="371.5" type="qcurve"/>
      <point x="293" y="388"/>
      <point x="306" y="389" type="qcurve"/>
      <point x="314" y="389"/>
      <point x="326" y="374.5" type="qcurve"/>
      <point x="338" y="360"/>
      <point x="356.5" y="342" type="qcurve"/>
      <point x="375" y="324"/>
      <point x="391.5" y="301" type="qcurve"/>
      <point x="408" y="278"/>
      <point x="414" y="278" type="qcurve"/>
      <point x="425" y="278"/>
      <point x="428" y="326.5" type="qcurve"/>
      <point x="431" y="375"/>
      <point x="446" y="375" type="qcurve"/>
      <point x="451" y="375"/>
      <point x="467.879" y="363.5" type="qcurve"/>
      <point x="484" y="352"/>
      <point x="502" y="318" type="qcurve"/>
      <point x="520" y="284"/>
      <point x="531" y="284" type="qcurve"/>
      <point x="546" y="284"/>
      <point x="566.5" y="331" type="qcurve"/>
      <point x="587" y="378"/>
      <point x="622.5" y="390" type="qcurve"/>
      <point x="658" y="402"/>
      <point x="667" y="406.5" type="qcurve"/>
      <point x="676" y="411"/>
      <point x="722" y="440.5" type="qcurve"/>
      <point x="735" y="449"/>
      <point x="746" y="449" type="qcurve"/>
      <point x="773" y="449"/>
      <point x="786" y="400" type="qcurve"/>
      <point x="799" y="351"/>
      <point x="813" y="350" type="qcurve"/>
      <point x="821" y="350"/>
      <point x="837" y="374.5" type="qcurve"/>
      <point x="853" y="399"/>
      <point x="855.5" y="410.5" type="qcurve"/>
      <point x="858" y="422"/>
      <point x="865" y="422" type="qcurve"/>
      <point x="872" y="422"/>
      <point x="885.5" y="412.5" type="qcurve"/>
      <point x="911" y="394"/>
      <point x="929" y="369.5" type="qcurve"/>
      <point x="947" y="345"/>
      <point x="947" y="318" type="qcurve"/>
      <point x="947" y="294"/>
      <point x="891.5" y="252.5" type="qcurve"/>
      <point x="836" y="211"/>
      <point x="817" y="211" type="qcurve"/>
      <point x="800" y="211"/>
      <point x="759.5" y="240" type="qcurve"/>
      <point x="719" y="269"/>
      <point x="689" y="269" type="qcurve"/>
      <point x="658" y="269"/>
      <point x="658" y="219" type="qcurve"/>
      <point x="658" y="176"/>
      <point x="708.5" y="123" type="qcurve"/>
      <point x="759" y="70"/>
      <point x="849" y="70" type="qcurve"/>
      <point x="887" y="70"/>
      <point x="1003" y="85" type="qcurve"/>
      <point x="1119" y="100"/>
      <point x="1239" y="135.5" type="qcurve"/>
      <point x="1359" y="171"/>
      <point x="1359" y="296" type="qcurve"/>
      <point x="1359" y="349"/>
      <point x="1322.5" y="443.5" type="qcurve"/>
      <point x="1286" y="538"/>
      <point x="1279.5" y="589" type="qcurve"/>
      <point x="1273" y="640"/>
      <point x="1263" y="640" type="qcurve"/>
      <point x="1250" y="640"/>
      <point x="1229" y="602.5" type="qcurve"/>
      <point x="1208" y="565"/>
      <point x="1184" y="504.5" type="qcurve"/>
      <point x="1160" y="444"/>
      <point x="1130" y="444" type="qcurve"/>
      <point x="1084" y="444"/>
      <point x="1080.5" y="506" type="qcurve"/>
      <point x="1077" y="568"/>
      <point x="1070" y="613" type="qcurve"/>
      <point x="1063" y="658"/>
      <point x="1063" y="696" type="qcurve"/>
      <point x="1063" y="825"/>
      <point x="1166.5" y="1039.5" type="qcurve"/>
      <point x="1270" y="1254"/>
      <point x="1270" y="1300" type="qcurve"/>
      <point x="1270" y="1345"/>
      <point x="1226" y="1345" type="qcurve"/>
      <point x="1205" y="1345"/>
      <point x="1162.5" y="1311.5" type="qcurve"/>
      <point x="1120" y="1278"/>
      <point x="1079.5" y="1260" type="qcurve"/>
      <point x="1039" y="1242"/>
      <point x="1031.5" y="1180.5" type="qcurve"/>
      <point x="1024" y="1119"/>
      <point x="957" y="1119" type="qcurve"/>
      <point x="933" y="1119"/>
      <point x="893" y="1133.5" type="qcurve"/>
      <point x="853" y="1148"/>
      <point x="850" y="1225.5" type="qcurve"/>
      <point x="847" y="1303"/>
      <point x="814.5" y="1362.5" type="qcurve"/>
      <point x="782" y="1422"/>
      <point x="764.5" y="1479" type="qcurve"/>
      <point x="747" y="1536"/>
      <point x="747" y="1564" type="qcurve"/>
      <point x="747" y="1584"/>
      <point x="775" y="1595" type="qcurve"/>
      <point x="803" y="1606"/>
      <point x="835" y="1606" type="qcurve"/>
      <point x="903" y="1606"/>
      <point x="903" y="1539" type="qcurve"/>
      <point x="903" y="1472"/>
      <point x="915" y="1429.5" type="qcurve"/>
      <point x="927" y="1387"/>
      <point x="937" y="1387" type="qcurve"/>
      <point x="950" y="1387"/>
      <point x="958.5" y="1439.5" type="qcurve"/>
      <point x="967" y="1492"/>
      <point x="1004" y="1515.5" type="qcurve"/>
      <point x="1041" y="1539"/>
      <point x="1063" y="1539" type="qcurve"/>
      <point x="1087" y="1539"/>
      <point x="1095" y="1516.5" type="qcurve"/>
      <point x="1103" y="1494"/>
      <point x="1103" y="1466" type="qcurve"/>
      <point x="1103" y="1450"/>
      <point x="1102" y="1436" type="qcurve"/>
      <point x="1101" y="1422"/>
      <point x="1101" y="1414" type="qcurve"/>
      <point x="1101" y="1378"/>
      <point x="1121" y="1378" type="qcurve"/>
      <point x="1160" y="1378"/>
      <point x="1200" y="1414" type="qcurve"/>
      <point x="1240" y="1450"/>
      <point x="1311.5" y="1488.5" type="qcurve"/>
      <point x="1383" y="1527"/>
      <point x="1453" y="1562.5" type="qcurve"/>
      <point x="1523" y="1598"/>
      <point x="1611" y="1598" type="qcurve"/>
      <point x="1737" y="1598"/>
      <point x="1822.5" y="1569" type="qcurve"/>
      <point x="1908" y="1540"/>
      <point x="1954.5" y="1444.5" type="qcurve"/>
      <point x="2001" y="1349"/>
      <point x="2001" y="1137" type="qcurve"/>
      <point x="2000" y="883"/>
      <point x="1913" y="688" type="qcurve"/>
      <point x="1883" y="619"/>
      <point x="1883" y="589" type="qcurve"/>
      <point x="1883" y="572"/>
      <point x="1900.5" y="562.5" type="qcurve"/>
      <point x="1918" y="553"/>
      <point x="1956" y="549.5" type="qcurve"/>
      <point x="1994" y="546"/>
      <point x="1998.5" y="530" type="qcurve"/>
      <point x="2003" y="514"/>
      <point x="2003" y="500" type="qcurve"/>
      <point x="2003" y="463"/>
      <point x="1987.5" y="442" type="qcurve"/>
      <point x="1972" y="421"/>
      <point x="1958" y="401" type="qcurve"/>
      <point x="1944" y="381"/>
      <point x="1926" y="381" type="qcurve"/>
      <point x="1923" y="381"/>
      <point x="1880.5" y="414.5" type="qcurve"/>
      <point x="1838" y="448"/>
      <point x="1814" y="448" type="qcurve"/>
      <point x="1781" y="448"/>
      <point x="1765.5" y="402" type="qcurve"/>
      <point x="1750" y="356"/>
      <point x="1685" y="342" type="qcurve"/>
      <point x="1620" y="328"/>
      <point x="1620" y="277" type="qcurve"/>
      <point x="1620" y="240"/>
      <point x="1656" y="197.5" type="qcurve"/>
      <point x="1692" y="155"/>
      <point x="1732" y="86.5" type="qcurve"/>
      <point x="1772" y="18"/>
      <point x="1880.5" y="-24.5" type="qcurve"/>
      <point x="1989" y="-67"/>
      <point x="1989" y="-162" type="qcurve"/>
      <point x="1989" y="-219"/>
      <point x="1984" y="-299" type="qcurve"/>
      <point x="1979" y="-379"/>
      <point x="1948" y="-379" type="qcurve"/>
      <point x="1912" y="-379"/>
      <point x="1886.5" y="-344" type="qcurve"/>
      <point x="1861" y="-309"/>
      <point x="1753.5" y="-246" type="qcurve"/>
      <point x="1646" y="-183"/>
      <point x="1564.5" y="-100" type="qcurve"/>
      <point x="1483" y="-17"/>
      <point x="1452" y="29.5" type="qcurve"/>
      <point x="1421" y="76"/>
      <point x="1397" y="76" type="qcurve"/>
      <point x="1385" y="76"/>
      <point x="1347" y="44" type="qcurve"/>
      <point x="1309" y="12"/>
      <point x="1240" y="-5" type="qcurve"/>
      <point x="1171" y="-22"/>
      <point x="1100.5" y="-46" type="qcurve"/>
      <point x="1030" y="-70"/>
      <point x="1022" y="-112.5" type="qcurve"/>
      <point x="1014" y="-155"/>
      <point x="1014" y="-199" type="qcurve"/>
      <point x="1014" y="-301"/>
      <point x="1086" y="-301" type="qcurve"/>
      <point x="1150" y="-301"/>
      <point x="1150" y="-261" type="qcurve"/>
      <point x="1150" y="-248"/>
      <point x="1145.5" y="-228.5" type="qcurve"/>
      <point x="1141" y="-209"/>
      <point x="1141" y="-189" type="qcurve"/>
      <point x="1141" y="-158"/>
      <point x="1172.5" y="-133.5" type="qcurve"/>
      <point x="1204" y="-109"/>
      <point x="1237" y="-109" type="qcurve"/>
      <point x="1300" y="-109"/>
      <point x="1331" y="-133.5" type="qcurve"/>
      <point x="1362" y="-158"/>
      <point x="1362" y="-197" type="qcurve"/>
      <point x="1362" y="-276"/>
      <point x="1299" y="-330" type="qcurve"/>
      <point x="1236" y="-384"/>
      <point x="1190" y="-384" type="qcurve"/>
      <point x="1145" y="-384"/>
      <point x="1087" y="-376" type="qcurve"/>
      <point x="1029" y="-368"/>
      <point x="951.5" y="-349" type="qcurve"/>
      <point x="874" y="-330"/>
      <point x="874" y="-254" type="qcurve"/>
      <point x="875" y="-182"/>
      <point x="964" y="-63" type="qcurve"/>
      <point x="904" y="-58"/>
      <point x="792" y="-39" type="qcurve"/>
      <point x="680" y="-20"/>
      <point x="641" y="-20" type="qcurve"/>
      <point x="607" y="-20"/>
      <point x="526.5" y="-44.5" type="qcurve"/>
      <point x="446" y="-69"/>
      <point x="407" y="-69" type="qcurve"/>
      <point x="389" y="-69"/>
      <point x="378.5" y="-59.5" type="qcurve"/>
      <point x="368" y="-50"/>
      <point x="357" y="-50" type="qcurve"/>
      <point x="281" y="-50"/>
      <point x="190" y="-107" type="qcurve"/>
      <point x="99" y="-164"/>
      <point x="99" y="-220" type="qcurve"/>
      <point x="99" y="-259"/>
      <point x="160.5" y="-290" type="qcurve"/>
      <point x="222" y="-321"/>
      <point x="258" y="-321" type="qcurve"/>
      <point x="286" y="-321"/>
      <point x="312.5" y="-304.5" type="qcurve"/>
      <point x="339" y="-288"/>
      <point x="381.5" y="-221.5" type="qcurve"/>
      <point x="424" y="-155"/>
      <point x="480" y="-155" type="qcurve"/>
      <point x="516" y="-155"/>
      <point x="536.5" y="-211.5" type="qcurve"/>
      <point x="557" y="-268"/>
      <point x="581" y="-268" type="qcurve"/>
      <point x="595" y="-268"/>
      <point x="607" y="-252" type="qcurve"/>
      <point x="619" y="-236"/>
      <point x="637.5" y="-181" type="qcurve"/>
      <point x="654" y="-132"/>
      <point x="687" y="-132" type="qcurve"/>
      <point x="691" y="-132"/>
      <point x="697.569" y="-132.929" type="qcurve"/>
      <point x="704" y="-134"/>
      <point x="713" y="-134" type="qcurve"/>
      <point x="741" y="-134"/>
      <point x="764" y="-117" type="qcurve"/>
      <point x="794" y="-95"/>
      <point x="806" y="-95" type="qcurve"/>
      <point x="811" y="-95"/>
      <point x="811.5" y="-100.5" type="qcurve"/>
      <point x="812" y="-106"/>
      <point x="812" y="-111" type="qcurve"/>
      <point x="812" y="-125"/>
      <point x="809" y="-129" type="qcurve"/>
      <point x="806" y="-133"/>
      <point x="798.5" y="-135" type="qcurve"/>
      <point x="791" y="-137"/>
      <point x="787.5" y="-186.5" type="qcurve"/>
      <point x="784" y="-236"/>
      <point x="763.5" y="-255.5" type="qcurve"/>
      <point x="743" y="-275"/>
      <point x="712" y="-275" type="qcurve"/>
      <point x="681" y="-275"/>
      <point x="627.5" y="-330.5" type="qcurve"/>
      <point x="574" y="-386"/>
      <point x="550" y="-400.5" type="qcurve"/>
      <point x="526" y="-415"/>
      <point x="503" y="-415" type="qcurve"/>
      <point x="474" y="-415"/>
      <point x="468.5" y="-370.5" type="qcurve"/>
      <point x="463" y="-326"/>
      <point x="430" y="-326" type="qcurve"/>
      <point x="412" y="-326"/>
      <point x="371" y="-358.5" type="qcurve"/>
      <point x="335" y="-387"/>
      <point x="286" y="-387" type="qcurve"/>
      <point x="280" y="-387"/>
      <point x="261" y="-386" type="qcurve"/>
      <point x="242" y="-385"/>
      <point x="212" y="-385" type="qcurve"/>
      <point x="189" y="-385"/>
      <point x="176" y="-385.5" type="qcurve"/>
      <point x="163" y="-386"/>
      <point x="158" y="-386" type="qcurve"/>
      <point x="116" y="-386"/>
      <point x="94.5" y="-363.5" type="qcurve"/>
      <point x="71" y="-338"/>
      <point x="62" y="-298.5" type="qcurve"/>
      <point x="53" y="-259"/>
      <point x="53" y="-236" type="qcurve"/>
      <point x="53" y="-218"/>
      <point x="60.5" y="-194.5" type="qcurve"/>
      <point x="68" y="-171"/>
      <point x="88.5" y="-130.5" type="qcurve"/>
      <point x="109" y="-90"/>
      <point x="126.5" y="-63" type="qcurve"/>
      <point x="144" y="-36"/>
      <point x="123" y="-19.5" type="qcurve"/>
      <point x="102" y="-3"/>
      <point x="102" y="12" type="qcurve"/>
      <point x="102" y="78"/>
      <point x="190" y="78" type="qcurve"/>
      <point x="230" y="78"/>
      <point x="278.5" y="44.5" type="qcurve"/>
      <point x="327" y="11"/>
      <point x="354" y="11" type="qcurve"/>
      <point x="377" y="11"/>
      <point x="377" y="39" type="qcurve"/>
      <point x="377" y="66"/>
      <point x="299.5" y="114" type="qcurve"/>
      <point x="222" y="162"/>
      <point x="176" y="229.5" type="qcurve"/>
      <point x="130" y="297"/>
      <point x="90.5" y="394.5" type="qcurve"/>
      <point x="51" y="492"/>
    </contour>
  </outline>
</glyph>
