<?xml version="1.0" encoding="UTF-8"?>
<glyph name="uniE4E8" format="1">
  <advance width="838"/>
  <unicode hex="E4E8"/>
  <outline>
    <contour>
      <point x="462" y="-558" type="move" name="below_center"/>
    </contour>
    <contour>
      <point x="462" y="900" type="move" name="above_center"/>
    </contour>
    <component base="dotbelowcomb" xOffset="710.881" yOffset="138.099"/>
    <component base="eogonek"/>
  </outline>
</glyph>
