<?xml version="1.0" encoding="UTF-8"?>
<glyph name="x" format="1">
  <advance width="918"/>
  <unicode hex="0078"/>
  <outline>
    <contour>
      <point x="473" y="-75" type="move" name="below_center"/>
    </contour>
    <contour>
      <point x="488" y="900" type="move" name="above_center"/>
    </contour>
    <contour>
      <point x="188" y="733" type="line" smooth="yes"/>
      <point x="137" y="803"/>
      <point x="90" y="803" type="qcurve" smooth="yes"/>
      <point x="76" y="803"/>
      <point x="76" y="856"/>
      <point x="90" y="856" type="qcurve"/>
      <point x="146" y="850"/>
      <point x="374" y="850"/>
      <point x="432" y="856" type="qcurve"/>
      <point x="446" y="856"/>
      <point x="446" y="803"/>
      <point x="432" y="803" type="qcurve" smooth="yes"/>
      <point x="356" y="803"/>
      <point x="356" y="766" type="qcurve" smooth="yes"/>
      <point x="356" y="748"/>
      <point x="373" y="721" type="qcurve" smooth="yes"/>
      <point x="483" y="545" type="line" smooth="yes"/>
      <point x="492" y="530"/>
      <point x="512" y="530"/>
      <point x="522" y="545" type="qcurve"/>
      <point x="643" y="705" type="line" smooth="yes"/>
      <point x="670" y="740"/>
      <point x="670" y="762" type="qcurve" smooth="yes"/>
      <point x="670" y="803"/>
      <point x="588" y="803" type="qcurve" smooth="yes"/>
      <point x="574" y="803"/>
      <point x="574" y="856"/>
      <point x="588" y="856" type="qcurve"/>
      <point x="645" y="850"/>
      <point x="823" y="850"/>
      <point x="883" y="856" type="qcurve"/>
      <point x="897" y="856"/>
      <point x="897" y="803"/>
      <point x="883" y="803" type="qcurve" smooth="yes"/>
      <point x="816" y="803"/>
      <point x="758" y="731" type="qcurve" smooth="yes"/>
      <point x="563" y="494" type="line" smooth="yes"/>
      <point x="549" y="477"/>
      <point x="549" y="453"/>
      <point x="559" y="438" type="qcurve" smooth="yes"/>
      <point x="770" y="133" type="line" smooth="yes"/>
      <point x="828" y="49"/>
      <point x="918" y="49" type="qcurve" smooth="yes"/>
      <point x="932" y="49"/>
      <point x="932" y="-8"/>
      <point x="918" y="-8" type="qcurve"/>
      <point x="842" y="0"/>
      <point x="606" y="0"/>
      <point x="524" y="-8" type="qcurve"/>
      <point x="510" y="-8"/>
      <point x="510" y="49"/>
      <point x="524" y="49" type="qcurve" smooth="yes"/>
      <point x="621" y="49"/>
      <point x="621" y="82" type="qcurve" smooth="yes"/>
      <point x="621" y="94"/>
      <point x="598" y="129" type="qcurve" smooth="yes"/>
      <point x="461" y="344" type="line"/>
      <point x="452" y="356"/>
      <point x="436" y="356"/>
      <point x="428" y="344" type="qcurve" smooth="yes"/>
      <point x="285" y="145" type="line" smooth="yes"/>
      <point x="252" y="98"/>
      <point x="252" y="78" type="qcurve" smooth="yes"/>
      <point x="252" y="49"/>
      <point x="317" y="49" type="qcurve" smooth="yes"/>
      <point x="331" y="49"/>
      <point x="331" y="-8"/>
      <point x="317" y="-8" type="qcurve"/>
      <point x="238" y="0"/>
      <point x="98" y="0"/>
      <point x="23" y="-8" type="qcurve"/>
      <point x="9" y="-8"/>
      <point x="9" y="49"/>
      <point x="23" y="49" type="qcurve" smooth="yes"/>
      <point x="117" y="49"/>
      <point x="170" y="117" type="qcurve" smooth="yes"/>
      <point x="395" y="399" type="line" smooth="yes"/>
      <point x="403" y="410"/>
      <point x="403" y="432"/>
      <point x="395" y="444" type="qcurve" smooth="yes"/>
    </contour>
  </outline>
</glyph>
