<?xml version="1.0" encoding="UTF-8"?>
<glyph name="Atilde" format="1">
  <unicode hex="00C3"/>
  <advance width="1398"/>
  <outline>
    <component base="CapTilde" xOffset="296"/>
    <component base="A"/>
  </outline>
</glyph>
