<?xml version="1.0" encoding="UTF-8"?>
<glyph name="asciitilde" format="1">
  <unicode hex="007E"/>
  <advance width="676"/>
  <outline>
    <contour>
      <point x="27" y="376" type="line"/>
      <point x="126" y="522"/>
      <point x="236" y="522" type="qcurve"/>
      <point x="278" y="522"/>
      <point x="376" y="487" type="qcurve"/>
      <point x="474" y="452"/>
      <point x="507" y="452" type="qcurve"/>
      <point x="573" y="452"/>
      <point x="626" y="516" type="qcurve"/>
      <point x="629" y="519"/>
      <point x="633.5" y="519" type="qcurve"/>
      <point x="638" y="519"/>
      <point x="645.5" y="513" type="qcurve"/>
      <point x="653" y="507"/>
      <point x="653" y="502.5" type="qcurve"/>
      <point x="653" y="498"/>
      <point x="650" y="494" type="qcurve"/>
      <point x="551" y="348"/>
      <point x="441" y="348" type="qcurve"/>
      <point x="399" y="348"/>
      <point x="301" y="383" type="qcurve"/>
      <point x="203" y="418"/>
      <point x="170" y="418" type="qcurve"/>
      <point x="104" y="418"/>
      <point x="51" y="354" type="qcurve"/>
      <point x="48" y="351"/>
      <point x="43.5" y="351" type="qcurve"/>
      <point x="39" y="351"/>
      <point x="31.5" y="357" type="qcurve"/>
      <point x="24" y="363"/>
      <point x="24" y="367.5" type="qcurve"/>
      <point x="24" y="372"/>
      <point x="27" y="376" type="qcurve"/>
    </contour>
  </outline>
</glyph>
