<?xml version="1.0" encoding="UTF-8"?>
<glyph name="exclamdbl" format="1">
  <unicode hex="203C"/>
  <advance width="880"/>
  <outline>
    <contour>
      <point x="616" y="211" type="line" smooth="yes"/>
      <point x="677" y="211"/>
      <point x="737" y="137"/>
      <point x="737" y="36"/>
      <point x="668" y="-25"/>
      <point x="562" y="-25"/>
      <point x="495" y="47"/>
      <point x="495" y="149"/>
      <point x="555" y="211"/>
      <point x="616" y="211" type="qcurve" smooth="yes"/>
    </contour>
    <contour>
      <point x="522" y="1275" type="line" smooth="yes"/>
      <point x="522" y="1331"/>
      <point x="583" y="1399"/>
      <point x="620" y="1399" type="qcurve" smooth="yes"/>
      <point x="723" y="1399"/>
      <point x="723" y="1288" type="qcurve" smooth="yes"/>
      <point x="723" y="1225"/>
      <point x="661" y="642"/>
      <point x="649" y="436" type="qcurve" smooth="yes"/>
      <point x="648" y="420"/>
      <point x="616" y="420" type="qcurve" smooth="yes"/>
      <point x="584" y="420"/>
      <point x="583" y="436" type="qcurve" smooth="yes"/>
      <point x="575" y="635"/>
      <point x="522" y="1219"/>
      <point x="522" y="1275" type="qcurve" smooth="yes"/>
    </contour>
    <contour>
      <point x="260" y="211" type="line" smooth="yes"/>
      <point x="321" y="211"/>
      <point x="381" y="137"/>
      <point x="381" y="36"/>
      <point x="312" y="-25"/>
      <point x="206" y="-25"/>
      <point x="139" y="47"/>
      <point x="139" y="149"/>
      <point x="199" y="211"/>
      <point x="260" y="211" type="qcurve" smooth="yes"/>
    </contour>
    <contour>
      <point x="166" y="1275" type="line" smooth="yes"/>
      <point x="166" y="1331"/>
      <point x="227" y="1399"/>
      <point x="264" y="1399" type="qcurve" smooth="yes"/>
      <point x="367" y="1399"/>
      <point x="367" y="1288" type="qcurve" smooth="yes"/>
      <point x="367" y="1225"/>
      <point x="305" y="642"/>
      <point x="293" y="436" type="qcurve" smooth="yes"/>
      <point x="292" y="420"/>
      <point x="260" y="420" type="qcurve" smooth="yes"/>
      <point x="228" y="420"/>
      <point x="227" y="436" type="qcurve" smooth="yes"/>
      <point x="219" y="635"/>
      <point x="166" y="1219"/>
      <point x="166" y="1275" type="qcurve" smooth="yes"/>
    </contour>
  </outline>
</glyph>
