<?xml version="1.0" encoding="UTF-8"?>
<glyph name="f_r" format="1">
  <advance width="1280"/>
  <outline>
    <contour>
      <point x="201" y="127" type="qcurve" smooth="yes"/>
      <point x="201" y="727" type="line" smooth="yes"/>
      <point x="201" y="764"/>
      <point x="164" y="764" type="qcurve" smooth="yes"/>
      <point x="90" y="764" type="line" smooth="yes"/>
      <point x="75" y="764"/>
      <point x="75" y="819"/>
      <point x="90" y="819" type="qcurve" smooth="yes"/>
      <point x="201" y="819"/>
      <point x="201" y="905" type="qcurve" smooth="yes"/>
      <point x="201" y="924" type="line" smooth="yes"/>
      <point x="201" y="1174"/>
      <point x="483" y="1487"/>
      <point x="672" y="1487" type="qcurve" smooth="yes"/>
      <point x="725" y="1487"/>
      <point x="768" y="1474" type="qcurve" smooth="yes"/>
      <point x="810" y="1461"/>
      <point x="834" y="1435" type="qcurve" smooth="yes"/>
      <point x="858" y="1410"/>
      <point x="858" y="1368" type="qcurve" smooth="yes"/>
      <point x="858" y="1338"/>
      <point x="803" y="1284"/>
      <point x="772" y="1284" type="qcurve" smooth="yes"/>
      <point x="716" y="1284"/>
      <point x="625" y="1393"/>
      <point x="571" y="1393" type="qcurve" smooth="yes"/>
      <point x="465" y="1393"/>
      <point x="354" y="1223"/>
      <point x="354" y="1101" type="qcurve" smooth="yes"/>
      <point x="354" y="887" type="line" smooth="yes"/>
      <point x="354" y="850"/>
      <point x="391" y="850" type="qcurve" smooth="yes"/>
      <point x="752" y="850" type="line" smooth="yes"/>
      <point x="811" y="850"/>
      <point x="892" y="883"/>
      <point x="899" y="883" type="qcurve" smooth="yes"/>
      <point x="917" y="883"/>
      <point x="916" y="858" type="qcurve" smooth="yes"/>
      <point x="912" y="784"/>
      <point x="912" y="728"/>
      <point x="939" y="728"/>
      <point x="953" y="748" type="qcurve" smooth="yes"/>
      <point x="1042" y="870"/>
      <point x="1166" y="870" type="qcurve" smooth="yes"/>
      <point x="1198" y="870"/>
      <point x="1240" y="848"/>
      <point x="1276" y="802"/>
      <point x="1276" y="758" type="qcurve" smooth="yes"/>
      <point x="1276" y="746"/>
      <point x="1256" y="701"/>
      <point x="1214" y="670"/>
      <point x="1171" y="670"/>
      <point x="1080" y="719"/>
      <point x="1057" y="719" type="qcurve" smooth="yes"/>
      <point x="996" y="719"/>
      <point x="912" y="598"/>
      <point x="912" y="494" type="qcurve" smooth="yes"/>
      <point x="912" y="127" type="line" smooth="yes"/>
      <point x="912" y="49"/>
      <point x="1063" y="49" type="qcurve" smooth="yes"/>
      <point x="1077" y="49"/>
      <point x="1077" y="-8"/>
      <point x="1063" y="-8" type="qcurve"/>
      <point x="979" y="0"/>
      <point x="727" y="0"/>
      <point x="644" y="-8" type="qcurve"/>
      <point x="630" y="-8"/>
      <point x="630" y="49"/>
      <point x="644" y="49" type="qcurve" smooth="yes"/>
      <point x="759" y="49"/>
      <point x="759" y="127" type="qcurve" smooth="yes"/>
      <point x="759" y="764" type="line"/>
      <point x="391" y="764" type="line" smooth="yes"/>
      <point x="354" y="764"/>
      <point x="354" y="727" type="qcurve" smooth="yes"/>
      <point x="354" y="127" type="line" smooth="yes"/>
      <point x="354" y="49"/>
      <point x="502" y="49" type="qcurve" smooth="yes"/>
      <point x="516" y="49"/>
      <point x="516" y="-8"/>
      <point x="502" y="-8" type="qcurve"/>
      <point x="417" y="0"/>
      <point x="165" y="0"/>
      <point x="84" y="-8" type="qcurve"/>
      <point x="70" y="-8"/>
      <point x="70" y="49"/>
      <point x="84" y="49" type="qcurve" smooth="yes"/>
      <point x="201" y="49"/>
    </contour>
  </outline>
</glyph>
