<?xml version="1.0" encoding="UTF-8"?>
<glyph name="parenleft.sc" format="1">
  <advance width="457"/>
  <outline>
    <contour>
      <point x="449" y="-32" type="line" smooth="yes"/>
      <point x="449" y="-49"/>
      <point x="408" y="-49" type="qcurve" smooth="yes"/>
      <point x="386" y="-49"/>
      <point x="369" y="-40" type="qcurve" smooth="yes"/>
      <point x="233" y="29"/>
      <point x="158" y="171" type="qcurve" smooth="yes"/>
      <point x="84" y="308"/>
      <point x="84" y="470" type="qcurve" smooth="yes"/>
      <point x="84" y="625"/>
      <point x="154" y="758" type="qcurve" smooth="yes"/>
      <point x="229" y="908"/>
      <point x="369" y="980" type="qcurve" smooth="yes"/>
      <point x="383" y="988"/>
      <point x="408" y="988" type="qcurve" smooth="yes"/>
      <point x="449" y="988"/>
      <point x="449" y="971" type="qcurve" smooth="yes"/>
      <point x="449" y="960"/>
      <point x="430" y="953" type="qcurve" smooth="yes"/>
      <point x="332" y="897"/>
      <point x="278" y="767" type="qcurve" smooth="yes"/>
      <point x="223" y="636"/>
      <point x="223" y="470" type="qcurve" smooth="yes"/>
      <point x="223" y="307"/>
      <point x="276" y="177" type="qcurve" smooth="yes"/>
      <point x="332" y="47"/>
      <point x="432" y="-12" type="qcurve" smooth="yes"/>
      <point x="449" y="-23"/>
      <point x="449" y="-32" type="qcurve" smooth="yes"/>
    </contour>
  </outline>
</glyph>
