<?xml version="1.0" encoding="UTF-8"?>
<glyph name="question" format="1">
  <unicode hex="003F"/>
  <advance width="752"/>
  <outline>
    <contour>
      <point x="279" y="1194" type="line" smooth="yes"/>
      <point x="211" y="1194"/>
      <point x="211" y="1362"/>
      <point x="295" y="1362" type="qcurve" smooth="yes"/>
      <point x="425" y="1362"/>
      <point x="657" y="1090"/>
      <point x="657" y="937" type="qcurve" smooth="yes"/>
      <point x="657" y="784"/>
      <point x="575" y="741" type="qcurve" smooth="yes"/>
      <point x="410" y="653" type="line"/>
      <point x="336" y="612"/>
      <point x="336" y="559.5" type="qcurve" smooth="yes"/>
      <point x="336" y="507"/>
      <point x="356" y="438" type="qcurve"/>
      <point x="356" y="419"/>
      <point x="334" y="419" type="qcurve" smooth="yes"/>
      <point x="319" y="419"/>
      <point x="311" y="426" type="qcurve"/>
      <point x="236" y="562"/>
      <point x="236" y="644" type="qcurve" smooth="yes"/>
      <point x="236" y="726"/>
      <point x="350" y="788" type="qcurve"/>
      <point x="455" y="844" type="line" smooth="yes"/>
      <point x="571" y="906"/>
      <point x="571" y="995" type="qcurve" smooth="yes"/>
      <point x="571" y="1194"/>
      <point x="279" y="1194" type="qcurve" smooth="yes"/>
    </contour>
    <contour>
      <point x="221" y="90" type="line" smooth="yes"/>
      <point x="221" y="140"/>
      <point x="291" y="213"/>
      <point x="393" y="213"/>
      <point x="459" y="137"/>
      <point x="459" y="31"/>
      <point x="389" y="-31"/>
      <point x="286" y="-31"/>
      <point x="221" y="40"/>
      <point x="221" y="90" type="qcurve" smooth="yes"/>
    </contour>
  </outline>
</glyph>
