<?xml version="1.0" encoding="UTF-8"?>
<glyph name="twothirds" format="1">
  <unicode hex="2154"/>
  <advance width="1476"/>
  <outline>
    <contour>
      <point x="1434" y="255" type="line"/>
      <point x="1434" y="151"/>
      <point x="1360" y="74" type="qcurve"/>
      <point x="1274" y="-14"/>
      <point x="1143" y="-14" type="qcurve"/>
      <point x="1058" y="-14"/>
      <point x="1004" y="15" type="qcurve"/>
      <point x="957" y="41"/>
      <point x="956" y="85" type="qcurve"/>
      <point x="956" y="143"/>
      <point x="1029" y="143" type="qcurve"/>
      <point x="1056" y="143"/>
      <point x="1084" y="110" type="qcurve"/>
      <point x="1115" y="74" type="line"/>
      <point x="1143" y="46"/>
      <point x="1175" y="46" type="qcurve"/>
      <point x="1236" y="46"/>
      <point x="1268" y="126" type="qcurve"/>
      <point x="1288" y="178"/>
      <point x="1288" y="240" type="qcurve"/>
      <point x="1288" y="320"/>
      <point x="1239" y="366" type="qcurve"/>
      <point x="1200" y="404"/>
      <point x="1141" y="404" type="qcurve"/>
      <point x="1106" y="404"/>
      <point x="1077" y="394" type="qcurve"/>
      <point x="1060" y="394"/>
      <point x="1060" y="427" type="qcurve"/>
      <point x="1060" y="458"/>
      <point x="1073" y="458" type="qcurve"/>
      <point x="1165" y="458"/>
      <point x="1218" y="508" type="qcurve"/>
      <point x="1258" y="547"/>
      <point x="1258" y="604" type="qcurve"/>
      <point x="1258" y="664"/>
      <point x="1226" y="698" type="qcurve"/>
      <point x="1203" y="722"/>
      <point x="1168" y="722" type="qcurve"/>
      <point x="1113" y="722"/>
      <point x="1067" y="672" type="qcurve"/>
      <point x="1050" y="652"/>
      <point x="1034" y="629" type="qcurve"/>
      <point x="1026" y="616"/>
      <point x="1004" y="633" type="qcurve"/>
      <point x="988" y="645"/>
      <point x="994" y="656" type="qcurve"/>
      <point x="1051" y="741"/>
      <point x="1104" y="772" type="qcurve"/>
      <point x="1151" y="799"/>
      <point x="1208" y="799" type="qcurve"/>
      <point x="1288" y="799"/>
      <point x="1342" y="743" type="qcurve"/>
      <point x="1394" y="691"/>
      <point x="1394" y="619" type="qcurve"/>
      <point x="1394" y="516"/>
      <point x="1290" y="455" type="qcurve"/>
      <point x="1434" y="413"/>
      <point x="1434" y="255" type="qcurve"/>
    </contour>
    <contour>
      <point x="1308" y="1389" type="line" smooth="yes"/>
      <point x="417" y="35" type="line" smooth="yes"/>
      <point x="410" y="24"/>
      <point x="353" y="64"/>
      <point x="360" y="74" type="qcurve" smooth="yes"/>
      <point x="1248" y="1425" type="line" smooth="yes"/>
      <point x="1251" y="1430"/>
      <point x="1259" y="1430" type="qcurve" smooth="yes"/>
      <point x="1272" y="1430"/>
      <point x="1314" y="1398"/>
      <point x="1308" y="1389" type="qcurve" smooth="yes"/>
    </contour>
    <contour>
      <point x="510" y="544" type="line" smooth="yes"/>
      <point x="500" y="521"/>
      <point x="462" y="520" type="qcurve" smooth="yes"/>
      <point x="381" y="525"/>
      <point x="314" y="525" type="qcurve" smooth="yes"/>
      <point x="266" y="525" type="line" smooth="yes"/>
      <point x="169" y="525"/>
      <point x="61" y="520" type="qcurve" smooth="yes"/>
      <point x="29" y="520"/>
      <point x="29" y="548" type="qcurve" smooth="yes"/>
      <point x="29" y="561"/>
      <point x="41" y="573" type="qcurve" smooth="yes"/>
      <point x="137" y="669"/>
      <point x="230" y="795" type="qcurve" smooth="yes"/>
      <point x="383" y="1003"/>
      <point x="383" y="1112" type="qcurve" smooth="yes"/>
      <point x="380" y="1235"/>
      <point x="280" y="1235" type="qcurve" smooth="yes"/>
      <point x="191" y="1235"/>
      <point x="135" y="1137" type="qcurve" smooth="yes"/>
      <point x="128" y="1124"/>
      <point x="106" y="1138" type="qcurve" smooth="yes"/>
      <point x="90" y="1148"/>
      <point x="96" y="1158" type="qcurve" smooth="yes"/>
      <point x="145" y="1253"/>
      <point x="222" y="1297" type="qcurve" smooth="yes"/>
      <point x="272" y="1325"/>
      <point x="328" y="1325" type="qcurve" smooth="yes"/>
      <point x="426" y="1325"/>
      <point x="485" y="1259" type="qcurve" smooth="yes"/>
      <point x="537" y="1201"/>
      <point x="537" y="1118" type="qcurve" smooth="yes"/>
      <point x="537" y="1003"/>
      <point x="372" y="819" type="qcurve" smooth="yes"/>
      <point x="337" y="779"/>
      <point x="198" y="641" type="qcurve"/>
      <point x="375" y="641" type="line" smooth="yes"/>
      <point x="444" y="641"/>
      <point x="470" y="652" type="qcurve" smooth="yes"/>
      <point x="500" y="665"/>
      <point x="517" y="700" type="qcurve" smooth="yes"/>
      <point x="524" y="713"/>
      <point x="549" y="702" type="qcurve" smooth="yes"/>
      <point x="572" y="693"/>
      <point x="569" y="685" type="qcurve" smooth="yes"/>
    </contour>
  </outline>
</glyph>
