<?xml version="1.0" encoding="UTF-8"?>
<glyph name="uni0368" format="1">
  <unicode hex="0368"/>
  <outline>
    <contour>
      <point x="171" y="1149" type="qcurve" smooth="yes"/>
      <point x="177" y="1152"/>
      <point x="194" y="1124"/>
      <point x="194" y="1119" type="qcurve" smooth="yes"/>
      <point x="194" y="1116"/>
      <point x="191" y="1113" type="qcurve" smooth="yes"/>
      <point x="177" y="1100"/>
      <point x="78" y="1047"/>
      <point x="0" y="1047" type="qcurve" smooth="yes"/>
      <point x="-86" y="1047"/>
      <point x="-208" y="1176"/>
      <point x="-208" y="1278" type="qcurve" smooth="yes"/>
      <point x="-208" y="1380"/>
      <point x="-68" y="1538"/>
      <point x="43" y="1538" type="qcurve" smooth="yes"/>
      <point x="164" y="1538"/>
      <point x="181" y="1498" type="qcurve" smooth="yes"/>
      <point x="184" y="1491"/>
      <point x="184" y="1476" type="qcurve" smooth="yes"/>
      <point x="184" y="1465"/>
      <point x="154" y="1435"/>
      <point x="145" y="1435" type="qcurve" smooth="yes"/>
      <point x="133" y="1435"/>
      <point x="128" y="1443" type="qcurve" smooth="yes"/>
      <point x="85" y="1502"/>
      <point x="31" y="1502" type="qcurve" smooth="yes"/>
      <point x="-16" y="1502"/>
      <point x="-98" y="1389"/>
      <point x="-98" y="1302" type="qcurve" smooth="yes"/>
      <point x="-98" y="1203"/>
      <point x="-4" y="1110"/>
      <point x="47" y="1110" type="qcurve" smooth="yes"/>
      <point x="93" y="1110"/>
    </contour>
    <contour>
      <point x="0" y="900" type="move" name="_above_center_1"/>
    </contour>
    <contour>
      <point x="0" y="1548" type="move" name="above_center_1"/>
    </contour>
    <contour>
      <point x="0" y="900" type="move" name="_above_center"/>
    </contour>
  </outline>
</glyph>
