<?xml version="1.0" encoding="UTF-8"?>
<glyph name="uni01C7" format="1">
  <unicode hex="01C7"/>
  <advance width="2060"/>
  <outline>
    <component base="J" xOffset="1344"/>
    <component base="L"/>
  </outline>
</glyph>
