<?xml version="1.0" encoding="UTF-8"?>
<glyph name="uni0327" format="1">
  <unicode hex="0327"/>
  <outline>
    <contour>
      <point x="99" y="-272" type="line" smooth="yes"/>
      <point x="99" y="-375"/>
      <point x="7" y="-424" type="qcurve" smooth="yes"/>
      <point x="-46" y="-453"/>
      <point x="-114" y="-453" type="qcurve" smooth="yes"/>
      <point x="-184" y="-453"/>
      <point x="-218" y="-418" type="qcurve" smooth="yes"/>
      <point x="-233" y="-402"/>
      <point x="-233" y="-381" type="qcurve" smooth="yes"/>
      <point x="-233" y="-328"/>
      <point x="-182" y="-328" type="qcurve" smooth="yes"/>
      <point x="-158.634" y="-326.235"/>
      <point x="-122" y="-356" type="qcurve" smooth="yes"/>
      <point x="-90" y="-382" type="line" smooth="yes"/>
      <point x="-82.0094" y="-388.492"/>
      <point x="-70" y="-387" type="qcurve" smooth="yes"/>
      <point x="-19" y="-387"/>
      <point x="-18" y="-324" type="qcurve" smooth="yes"/>
      <point x="-18" y="-244"/>
      <point x="-153" y="-182" type="qcurve"/>
      <point x="-30" y="0" type="line"/>
      <point x="43" y="0" type="line"/>
      <point x="-28" y="-98" type="line"/>
      <point x="53" y="-148"/>
      <point x="77" y="-186" type="qcurve" smooth="yes"/>
      <point x="99" y="-221"/>
      <point x="99" y="-272" type="qcurve" smooth="yes"/>
    </contour>
  </outline>
</glyph>
