<?xml version="1.0" encoding="UTF-8"?>
<glyph name="uni0188" format="1">
  <unicode hex="0188"/>
  <advance width="817"/>
  <outline>
    <contour>
      <point x="86" y="396" type="line" smooth="yes"/>
      <point x="86" y="581"/>
      <point x="329" y="870"/>
      <point x="523" y="870" type="qcurve" smooth="yes"/>
      <point x="568" y="870"/>
      <point x="666" y="854" type="qcurve"/>
      <point x="688" y="924"/>
      <point x="749" y="1015"/>
      <point x="841" y="1074"/>
      <point x="930" y="1074" type="qcurve" smooth="yes"/>
      <point x="966" y="1074"/>
      <point x="1019" y="1025"/>
      <point x="1019" y="997" type="qcurve" smooth="yes"/>
      <point x="1019" y="969"/>
      <point x="979" y="941"/>
      <point x="956" y="941" type="qcurve" smooth="yes"/>
      <point x="919" y="941"/>
      <point x="852" y="1004"/>
      <point x="834" y="1004" type="qcurve" smooth="yes"/>
      <point x="762" y="1004"/>
      <point x="762" y="788" type="qcurve" smooth="yes"/>
      <point x="762" y="756" type="line" smooth="yes"/>
      <point x="762" y="733"/>
      <point x="718" y="682"/>
      <point x="701" y="682" type="qcurve" smooth="yes"/>
      <point x="684" y="682"/>
      <point x="674" y="696" type="qcurve" smooth="yes"/>
      <point x="596" y="803"/>
      <point x="501" y="803" type="qcurve" smooth="yes"/>
      <point x="406" y="803"/>
      <point x="328" y="701" type="qcurve" smooth="yes"/>
      <point x="250" y="598"/>
      <point x="249" y="440" type="qcurve" smooth="yes"/>
      <point x="249" y="282"/>
      <point x="428" y="90"/>
      <point x="530" y="90" type="qcurve" smooth="yes"/>
      <point x="607" y="90"/>
      <point x="743" y="152" type="qcurve" smooth="yes"/>
      <point x="754" y="157"/>
      <point x="781" y="116"/>
      <point x="781" y="108" type="qcurve" smooth="yes"/>
      <point x="781" y="102"/>
      <point x="776" y="97" type="qcurve" smooth="yes"/>
      <point x="750" y="74"/>
      <point x="668" y="26" type="qcurve" smooth="yes"/>
      <point x="588" y="-22"/>
      <point x="446" y="-23" type="qcurve" smooth="yes"/>
      <point x="300" y="-23"/>
      <point x="86" y="211"/>
      <point x="86" y="396" type="qcurve" smooth="yes"/>
    </contour>
  </outline>
</glyph>
