<?xml version="1.0" encoding="UTF-8"?>
<glyph name="uni0223" format="1">
  <unicode hex="0223"/>
  <advance width="956"/>
  <outline>
    <contour>
      <point x="575" y="1216" type="line" smooth="yes"/>
      <point x="561" y="1225"/>
      <point x="561" y="1247" type="qcurve" smooth="yes"/>
      <point x="565" y="1271" type="line" smooth="yes"/>
      <point x="576" y="1306"/>
      <point x="600" y="1313" type="qcurve" smooth="yes"/>
      <point x="613" y="1313" type="line"/>
      <point x="614" y="1312"/>
      <point x="615" y="1312" type="qcurve"/>
      <point x="809" y="1242"/>
      <point x="809" y="1038" type="qcurve" smooth="yes"/>
      <point x="809" y="830"/>
      <point x="582" y="711" type="qcurve"/>
      <point x="852" y="538"/>
      <point x="852" y="332" type="qcurve" smooth="yes"/>
      <point x="852" y="178"/>
      <point x="739" y="80" type="qcurve" smooth="yes"/>
      <point x="631" y="-16"/>
      <point x="477" y="-16" type="qcurve" smooth="yes"/>
      <point x="322" y="-16"/>
      <point x="215" y="70" type="qcurve" smooth="yes"/>
      <point x="104" y="162"/>
      <point x="104" y="315" type="qcurve" smooth="yes"/>
      <point x="104" y="524"/>
      <point x="377" y="668" type="qcurve"/>
      <point x="263" y="742"/>
      <point x="215" y="803" type="qcurve" smooth="yes"/>
      <point x="211" y="809" type="line" smooth="yes"/>
      <point x="151" y="889"/>
      <point x="143" y="968" type="qcurve" smooth="yes"/>
      <point x="141" y="987"/>
      <point x="141" y="1008" type="qcurve" smooth="yes"/>
      <point x="141" y="1142"/>
      <point x="235" y="1236" type="qcurve" smooth="yes"/>
      <point x="237" y="1238"/>
      <point x="240" y="1241" type="qcurve" smooth="yes"/>
      <point x="279" y="1280"/>
      <point x="339" y="1308" type="qcurve"/>
      <point x="349" y="1309" type="line"/>
      <point x="366" y="1304"/>
      <point x="371" y="1273" type="qcurve" smooth="yes"/>
      <point x="371" y="1253" type="line"/>
      <point x="365" y="1241" type="line"/>
      <point x="359" y="1237" type="line" smooth="yes"/>
      <point x="298" y="1212"/>
      <point x="271" y="1143" type="qcurve" smooth="yes"/>
      <point x="258" y="1110"/>
      <point x="258" y="1075" type="qcurve" smooth="yes"/>
      <point x="258" y="974"/>
      <point x="350" y="885" type="qcurve" smooth="yes"/>
      <point x="398" y="837"/>
      <point x="528" y="754" type="qcurve"/>
      <point x="670" y="854"/>
      <point x="670" y="997" type="qcurve" smooth="yes"/>
      <point x="670" y="1129"/>
      <point x="598" y="1198" type="qcurve" smooth="yes"/>
      <point x="587" y="1208"/>
      <point x="575" y="1216" type="qcurve" smooth="yes"/>
    </contour>
    <contour>
      <point x="709" y="260" type="line" smooth="yes"/>
      <point x="709" y="388"/>
      <point x="621" y="473" type="qcurve" smooth="yes"/>
      <point x="536" y="554"/>
      <point x="463" y="605" type="qcurve" smooth="yes"/>
      <point x="434" y="625" type="line"/>
      <point x="260" y="524"/>
      <point x="260" y="336" type="qcurve" smooth="yes"/>
      <point x="260" y="224"/>
      <point x="328" y="139" type="qcurve" smooth="yes"/>
      <point x="399" y="51"/>
      <point x="508" y="51" type="qcurve" smooth="yes"/>
      <point x="609" y="51"/>
      <point x="667" y="128" type="qcurve" smooth="yes"/>
      <point x="709" y="184"/>
      <point x="709" y="260" type="qcurve" smooth="yes"/>
    </contour>
  </outline>
</glyph>
