<?xml version="1.0" encoding="UTF-8"?>
<glyph name="uni01B1" format="1">
  <unicode hex="01B1"/>
  <advance width="1461"/>
  <outline>
    <contour>
      <point x="935" y="1240" type="line"/>
      <point x="932" y="1298" type="line" smooth="yes"/>
      <point x="934" y="1347"/>
      <point x="966" y="1355" type="qcurve" smooth="yes"/>
      <point x="976" y="1358"/>
      <point x="990" y="1358" type="qcurve" smooth="yes"/>
      <point x="1179" y="1358"/>
      <point x="1225" y="1363" type="qcurve" smooth="yes"/>
      <point x="1238" y="1363"/>
      <point x="1238" y="1287"/>
      <point x="1225" y="1287" type="qcurve" smooth="yes"/>
      <point x="1143" y="1287"/>
      <point x="1102" y="1265" type="qcurve"/>
      <point x="1141" y="1232" type="line" smooth="yes"/>
      <point x="1383" y="1008"/>
      <point x="1383" y="663" type="qcurve" smooth="yes"/>
      <point x="1383" y="443"/>
      <point x="1249" y="244" type="qcurve" smooth="yes"/>
      <point x="1065" y="-27"/>
      <point x="735" y="-27" type="qcurve" smooth="yes"/>
      <point x="523" y="-27"/>
      <point x="352" y="99" type="qcurve" smooth="yes"/>
      <point x="248" y="172"/>
      <point x="175" y="312" type="qcurve" smooth="yes"/>
      <point x="91" y="476"/>
      <point x="91" y="667" type="qcurve" smooth="yes"/>
      <point x="91" y="922"/>
      <point x="256" y="1143" type="qcurve" smooth="yes"/>
      <point x="297" y="1199"/>
      <point x="353" y="1249" type="qcurve"/>
      <point x="307" y="1287"/>
      <point x="200" y="1287" type="qcurve" smooth="yes"/>
      <point x="187" y="1287"/>
      <point x="187" y="1363"/>
      <point x="200" y="1363" type="qcurve" smooth="yes"/>
      <point x="244" y="1358"/>
      <point x="442" y="1358" type="qcurve" smooth="yes"/>
      <point x="488" y="1358"/>
      <point x="494" y="1287" type="qcurve" smooth="yes"/>
      <point x="496" y="1240" type="line"/>
      <point x="467" y="1215"/>
      <point x="452" y="1199" type="qcurve" smooth="yes"/>
      <point x="349" y="1094"/>
      <point x="305" y="914" type="qcurve" smooth="yes"/>
      <point x="282" y="821"/>
      <point x="282" y="726" type="qcurve" smooth="yes"/>
      <point x="282" y="390"/>
      <point x="461" y="199" type="qcurve" smooth="yes"/>
      <point x="597" y="48"/>
      <point x="749" y="48" type="qcurve" smooth="yes"/>
      <point x="994" y="48"/>
      <point x="1114" y="283" type="qcurve" smooth="yes"/>
      <point x="1192" y="445"/>
      <point x="1192" y="647" type="qcurve" smooth="yes"/>
      <point x="1192" y="936"/>
      <point x="1033" y="1139" type="qcurve" smooth="yes"/>
      <point x="974" y="1212"/>
      <point x="935" y="1240" type="qcurve"/>
    </contour>
  </outline>
</glyph>
