<?xml version="1.0" encoding="UTF-8"?>
<glyph name="uni0257" format="1">
  <unicode hex="0257"/>
  <advance width="1012"/>
  <outline>
    <contour>
      <point x="842" y="231" type="line" smooth="yes"/>
      <point x="842" y="82"/>
      <point x="924" y="82" type="qcurve" smooth="yes"/>
      <point x="935" y="82"/>
      <point x="971" y="88" type="qcurve"/>
      <point x="991" y="88"/>
      <point x="991" y="49" type="qcurve" smooth="yes"/>
      <point x="991" y="33"/>
      <point x="983" y="31" type="qcurve" smooth="yes"/>
      <point x="794" y="-3"/>
      <point x="705" y="-33" type="qcurve"/>
      <point x="688" y="-33"/>
      <point x="688" y="16" type="qcurve" smooth="yes"/>
      <point x="688" y="57" type="line" smooth="yes"/>
      <point x="688" y="80"/>
      <point x="676" y="80" type="qcurve" smooth="yes"/>
      <point x="665" y="80"/>
      <point x="649" y="66" type="qcurve" smooth="yes"/>
      <point x="554" y="-23"/>
      <point x="453" y="-23" type="qcurve" smooth="yes"/>
      <point x="256" y="-23"/>
      <point x="156" y="106" type="qcurve" smooth="yes"/>
      <point x="66" y="222"/>
      <point x="66" y="412" type="qcurve" smooth="yes"/>
      <point x="66" y="600"/>
      <point x="195" y="733" type="qcurve"/>
      <point x="330" y="870"/>
      <point x="541" y="870" type="qcurve" smooth="yes"/>
      <point x="610" y="870"/>
      <point x="655" y="856" type="qcurve"/>
      <point x="665" y="854"/>
      <point x="670" y="854" type="qcurve" smooth="yes"/>
      <point x="688" y="854"/>
      <point x="688" y="877" type="qcurve" smooth="yes"/>
      <point x="688" y="889" type="line"/>
      <point x="690" y="1176"/>
      <point x="799" y="1332" type="qcurve"/>
      <point x="894" y="1463"/>
      <point x="1047" y="1463" type="qcurve" smooth="yes"/>
      <point x="1091" y="1463"/>
      <point x="1129" y="1438" type="qcurve"/>
      <point x="1172" y="1413"/>
      <point x="1172" y="1367" type="qcurve" smooth="yes"/>
      <point x="1172" y="1324"/>
      <point x="1130" y="1305" type="qcurve" smooth="yes"/>
      <point x="1113" y="1297"/>
      <point x="1094" y="1297" type="qcurve" smooth="yes"/>
      <point x="1045" y="1297"/>
      <point x="1006" y="1336" type="qcurve" smooth="yes"/>
      <point x="966" y="1375"/>
      <point x="941" y="1375" type="qcurve" smooth="yes"/>
      <point x="846" y="1375"/>
      <point x="842" y="1168" type="qcurve"/>
    </contour>
    <contour>
      <point x="688" y="199" type="qcurve" smooth="yes"/>
      <point x="688" y="668" type="line" smooth="yes"/>
      <point x="688" y="743"/>
      <point x="666" y="762" type="qcurve" smooth="yes"/>
      <point x="607" y="811"/>
      <point x="518" y="811" type="qcurve" smooth="yes"/>
      <point x="384" y="811"/>
      <point x="301" y="694" type="qcurve"/>
      <point x="229" y="588"/>
      <point x="229" y="440" type="qcurve" smooth="yes"/>
      <point x="229" y="291"/>
      <point x="311" y="182" type="qcurve"/>
      <point x="395" y="74"/>
      <point x="504" y="74" type="qcurve" smooth="yes"/>
      <point x="582" y="74"/>
      <point x="637" y="117" type="qcurve" smooth="yes"/>
      <point x="688" y="156"/>
    </contour>
    <contour>
      <point x="453" y="-75" type="move" name="below_center"/>
    </contour>
    <contour>
      <point x="512" y="1545" type="move" name="above_center"/>
    </contour>
  </outline>
</glyph>
