<?xml version="1.0" encoding="UTF-8"?>
<glyph name="uni16CE" format="1">
  <unicode hex="16CE"/>
  <advance width="1178"/>
  <outline>
    <contour>
      <point x="536" y="509" type="line"/>
      <point x="106" y="810" type="line"/>
      <point x="166" y="897" type="line"/>
      <point x="536" y="638" type="line"/>
      <point x="536" y="1484" type="line"/>
      <point x="642" y="1484" type="line"/>
      <point x="642" y="638" type="line"/>
      <point x="1012" y="897" type="line"/>
      <point x="1073" y="810" type="line"/>
      <point x="642" y="509" type="line"/>
    </contour>
  </outline>
</glyph>
