<?xml version="1.0" encoding="UTF-8"?>
<glyph name="uni1E30" format="1">
  <unicode hex="1E30"/>
  <advance width="1335"/>
  <outline>
    <component base="CapAcute" xOffset="429"/>
    <component base="K"/>
  </outline>
</glyph>
