<?xml version="1.0" encoding="UTF-8"?>
<glyph name="uni1D1A" format="1">
  <unicode hex="1D1A"/>
  <advance width="946"/>
  <outline>
    <contour>
      <point x="899" y="853" type="line"/>
      <point x="913" y="853"/>
      <point x="913" y="793"/>
      <point x="899" y="793" type="qcurve" smooth="yes"/>
      <point x="799" y="793"/>
      <point x="799" y="720" type="qcurve" smooth="yes"/>
      <point x="799" y="123" type="line" smooth="yes"/>
      <point x="799" y="54"/>
      <point x="905" y="54" type="qcurve" smooth="yes"/>
      <point x="919" y="54"/>
      <point x="919" y="-3"/>
      <point x="905" y="-3" type="qcurve"/>
      <point x="821" y="0"/>
      <point x="724" y="0" type="qcurve" smooth="yes"/>
      <point x="722" y="0" type="line"/>
      <point x="515" y="-3" type="line" smooth="yes"/>
      <point x="386" y="-3"/>
      <point x="298" y="42" type="qcurve" smooth="yes"/>
      <point x="169" y="107"/>
      <point x="169" y="241" type="qcurve" smooth="yes"/>
      <point x="169" y="398"/>
      <point x="345" y="451" type="qcurve" smooth="yes"/>
      <point x="353" y="454"/>
      <point x="353" y="462" type="qcurve" smooth="yes"/>
      <point x="353" y="469"/>
      <point x="348" y="480" type="qcurve" smooth="yes"/>
      <point x="264" y="622"/>
      <point x="144" y="746" type="qcurve" smooth="yes"/>
      <point x="142" y="748"/>
      <point x="140" y="751" type="qcurve" smooth="yes"/>
      <point x="83" y="811"/>
      <point x="32" y="819" type="qcurve" smooth="yes"/>
      <point x="16" y="824"/>
      <point x="16" y="842" type="qcurve" smooth="yes"/>
      <point x="16" y="859"/>
      <point x="32" y="860" type="qcurve" smooth="yes"/>
      <point x="53" y="862"/>
      <point x="73" y="862" type="qcurve" smooth="yes"/>
      <point x="168" y="861"/>
      <point x="219" y="828" type="qcurve" smooth="yes"/>
      <point x="313" y="769"/>
      <point x="396" y="648" type="qcurve" smooth="yes"/>
      <point x="459" y="557"/>
      <point x="466" y="548" type="qcurve" smooth="yes"/>
      <point x="501" y="506"/>
      <point x="505" y="502" type="qcurve" smooth="yes"/>
      <point x="526" y="480"/>
      <point x="554" y="480" type="qcurve" smooth="yes"/>
      <point x="610" y="480"/>
      <point x="629" y="479" type="qcurve" smooth="yes"/>
      <point x="646" y="479"/>
      <point x="646" y="494" type="qcurve" smooth="yes"/>
      <point x="646" y="720" type="line" smooth="yes"/>
      <point x="646" y="743"/>
      <point x="639" y="758" type="qcurve" smooth="yes"/>
      <point x="623" y="793"/>
      <point x="548" y="793" type="qcurve" smooth="yes"/>
      <point x="534" y="793"/>
      <point x="534" y="853"/>
      <point x="548" y="853" type="qcurve"/>
      <point x="605" y="847"/>
      <point x="720" y="847" type="qcurve" smooth="yes"/>
      <point x="845" y="847"/>
      <point x="899" y="853" type="qcurve"/>
    </contour>
    <contour>
      <point x="646" y="400" type="line" smooth="yes"/>
      <point x="646" y="423"/>
      <point x="629" y="424" type="qcurve" smooth="yes"/>
      <point x="574" y="430"/>
      <point x="558" y="430" type="qcurve" smooth="yes"/>
      <point x="523" y="430"/>
      <point x="493" y="426" type="qcurve" smooth="yes"/>
      <point x="309" y="403"/>
      <point x="309" y="241" type="qcurve" smooth="yes"/>
      <point x="309" y="188"/>
      <point x="340" y="144" type="qcurve" smooth="yes"/>
      <point x="408" y="47"/>
      <point x="575" y="47" type="qcurve" smooth="yes"/>
      <point x="583" y="47"/>
      <point x="586" y="47" type="qcurve" smooth="yes"/>
      <point x="629" y="49" type="line" smooth="yes"/>
      <point x="646" y="53"/>
      <point x="646" y="73" type="qcurve" smooth="yes"/>
    </contour>
  </outline>
</glyph>
