<?xml version="1.0" encoding="UTF-8"?>
<glyph name="uni2081" format="1">
  <unicode hex="2081"/>
  <advance width="630"/>
  <outline>
    <component base="uni00B9" yOffset="-800"/>
  </outline>
</glyph>
