<?xml version="1.0" encoding="UTF-8"?>
<glyph name="uni2171" format="1">
  <unicode hex="2171"/>
  <advance width="1048"/>
  <outline>
    <component base="i" xOffset="524"/>
    <component base="i"/>
  </outline>
</glyph>
