<?xml version="1.0" encoding="UTF-8"?>
<glyph name="uniA73A" format="1">
  <unicode hex="A73A"/>
  <advance width="1754"/>
  <outline>
    <contour>
      <point x="1240" y="531" type="line"/>
      <point x="1045" y="531" type="line"/>
      <point x="1117" y="301" type="line"/>
      <point x="1124" y="281"/>
      <point x="1133" y="281" type="qcurve"/>
      <point x="1144" y="281"/>
      <point x="1153" y="303" type="qcurve"/>
    </contour>
    <contour>
      <point x="1334" y="531" type="line"/>
      <point x="1127" y="-13" type="line"/>
      <point x="1117" y="-38"/>
      <point x="1090" y="-38" type="qcurve"/>
      <point x="1062" y="-38"/>
      <point x="1048" y="6" type="qcurve"/>
      <point x="892" y="499" type="line"/>
      <point x="883" y="531"/>
      <point x="848" y="531" type="qcurve"/>
      <point x="445" y="531" type="line"/>
      <point x="417" y="531"/>
      <point x="405" y="496" type="qcurve"/>
      <point x="292" y="182" type="line"/>
      <point x="283" y="160"/>
      <point x="283" y="142" type="qcurve"/>
      <point x="283" y="69"/>
      <point x="434" y="69" type="qcurve"/>
      <point x="448" y="69"/>
      <point x="448" y="31" type="qcurve"/>
      <point x="448" y="-7"/>
      <point x="434" y="-7" type="qcurve"/>
      <point x="320" y="0"/>
      <point x="220" y="0" type="qcurve"/>
      <point x="120" y="0"/>
      <point x="9" y="-7" type="qcurve"/>
      <point x="-4" y="-7"/>
      <point x="-4" y="31" type="qcurve"/>
      <point x="-4" y="69"/>
      <point x="9" y="69" type="qcurve"/>
      <point x="115" y="77"/>
      <point x="144" y="102" type="qcurve"/>
      <point x="170" y="125"/>
      <point x="204" y="201" type="qcurve"/>
      <point x="581" y="1188" type="line"/>
      <point x="587" y="1205"/>
      <point x="587" y="1218" type="qcurve"/>
      <point x="587" y="1231"/>
      <point x="579" y="1238" type="qcurve"/>
      <point x="561" y="1258"/>
      <point x="561" y="1264" type="qcurve"/>
      <point x="561" y="1270"/>
      <point x="587" y="1283" type="qcurve"/>
      <point x="640" y="1313"/>
      <point x="720" y="1369" type="qcurve"/>
      <point x="746" y="1387"/>
      <point x="758" y="1387" type="qcurve"/>
      <point x="781" y="1387"/>
      <point x="793" y="1343" type="qcurve"/>
      <point x="811" y="1276"/>
      <point x="842" y="1177" type="qcurve"/>
      <point x="1023" y="600" type="line"/>
      <point x="1266" y="600" type="line"/>
      <point x="1481" y="1163" type="line"/>
      <point x="1491" y="1189"/>
      <point x="1491" y="1209" type="qcurve"/>
      <point x="1491" y="1287"/>
      <point x="1389" y="1287" type="qcurve"/>
      <point x="1375" y="1287"/>
      <point x="1375" y="1325" type="qcurve"/>
      <point x="1375" y="1363"/>
      <point x="1389" y="1363" type="qcurve"/>
      <point x="1435" y="1358"/>
      <point x="1584" y="1358" type="qcurve"/>
      <point x="1732" y="1358"/>
      <point x="1777" y="1363" type="qcurve"/>
      <point x="1791" y="1363"/>
      <point x="1791" y="1325" type="qcurve"/>
      <point x="1791" y="1287"/>
      <point x="1777" y="1287" type="qcurve"/>
      <point x="1623" y="1287"/>
      <point x="1590" y="1201" type="qcurve"/>
      <point x="1361" y="600" type="line"/>
      <point x="1504" y="600" type="line"/>
      <point x="1519" y="600"/>
      <point x="1519" y="566" type="qcurve"/>
      <point x="1519" y="531"/>
      <point x="1504" y="531" type="qcurve"/>
    </contour>
    <contour>
      <point x="852" y="627" type="qcurve"/>
      <point x="684" y="1159" type="line"/>
      <point x="678" y="1179"/>
      <point x="667" y="1179" type="qcurve"/>
      <point x="655" y="1179"/>
      <point x="647" y="1159" type="qcurve"/>
      <point x="450" y="627" type="line"/>
      <point x="448" y="612" type="line"/>
      <point x="451" y="600"/>
      <point x="472" y="600" type="qcurve"/>
      <point x="829" y="600" type="line"/>
      <point x="854" y="600"/>
      <point x="854" y="616" type="qcurve"/>
      <point x="854" y="621"/>
    </contour>
    <contour>
      <point x="687" y="-75" type="move" name="below_center"/>
    </contour>
    <contour>
      <point x="687" y="1425" type="move" name="above_center"/>
    </contour>
  </outline>
</glyph>
