<?xml version="1.0" encoding="UTF-8"?>
<glyph name="uniA759" format="1">
  <unicode hex="A759"/>
  <advance width="931"/>
  <outline>
    <contour>
      <point x="1032" y="-129" type="qcurve" smooth="yes"/>
      <point x="848" y="-197" type="line"/>
      <point x="811" y="-209"/>
      <point x="811" y="-244" type="qcurve" smooth="yes"/>
      <point x="811" y="-418" type="line" smooth="yes"/>
      <point x="811" y="-502"/>
      <point x="944" y="-502" type="qcurve" smooth="yes"/>
      <point x="958" y="-502"/>
      <point x="958" y="-559"/>
      <point x="944" y="-559" type="qcurve"/>
      <point x="862" y="-551"/>
      <point x="606" y="-551"/>
      <point x="524" y="-559" type="qcurve"/>
      <point x="508" y="-559"/>
      <point x="508" y="-502"/>
      <point x="524" y="-502" type="qcurve" smooth="yes"/>
      <point x="657" y="-502"/>
      <point x="657" y="-416" type="qcurve" smooth="yes"/>
      <point x="657" y="-301" type="line" smooth="yes"/>
      <point x="657" y="-281"/>
      <point x="643" y="-270"/>
      <point x="621" y="-279" type="qcurve"/>
      <point x="467" y="-334" type="line"/>
      <point x="459" y="-336"/>
      <point x="436" y="-303"/>
      <point x="431" y="-268"/>
      <point x="440" y="-264" type="qcurve"/>
      <point x="621" y="-199" type="line" smooth="yes"/>
      <point x="645" y="-190"/>
      <point x="657" y="-170"/>
      <point x="657" y="-145" type="qcurve" smooth="yes"/>
      <point x="657" y="-37" type="line" smooth="yes"/>
      <point x="657" y="-16"/>
      <point x="639" y="6"/>
      <point x="625" y="-2" type="qcurve"/>
      <point x="565" y="-23"/>
      <point x="483" y="-23" type="qcurve" smooth="yes"/>
      <point x="285" y="-23"/>
      <point x="84" y="213"/>
      <point x="84" y="498" type="qcurve" smooth="yes"/>
      <point x="84" y="653"/>
      <point x="281" y="870"/>
      <point x="436" y="870" type="qcurve" smooth="yes"/>
      <point x="565" y="870"/>
      <point x="680" y="811" type="qcurve"/>
      <point x="799" y="866" type="line"/>
      <point x="813" y="874"/>
      <point x="850" y="831"/>
      <point x="838" y="821" type="qcurve" smooth="yes"/>
      <point x="811" y="797"/>
      <point x="811" y="522" type="qcurve" smooth="yes"/>
      <point x="811" y="-90" type="line" smooth="yes"/>
      <point x="811" y="-113"/>
      <point x="825" y="-123"/>
      <point x="848" y="-115" type="qcurve" smooth="yes"/>
      <point x="1006" y="-57" type="line"/>
      <point x="1014" y="-55"/>
      <point x="1036" y="-88"/>
      <point x="1043" y="-125"/>
    </contour>
    <contour>
      <point x="657" y="205" type="qcurve" smooth="yes"/>
      <point x="657" y="623" type="line" smooth="yes"/>
      <point x="657" y="659"/>
      <point x="643" y="682" type="qcurve"/>
      <point x="557" y="788"/>
      <point x="477" y="788" type="qcurve" smooth="yes"/>
      <point x="258" y="788"/>
      <point x="258" y="420" type="qcurve" smooth="yes"/>
      <point x="258" y="281"/>
      <point x="365" y="41"/>
      <point x="453" y="41" type="qcurve" smooth="yes"/>
      <point x="657" y="41"/>
    </contour>
    <contour>
      <point x="553" y="-626" type="move" name="below_center"/>
    </contour>
    <contour>
      <point x="465" y="900" type="move" name="above_center"/>
    </contour>
  </outline>
</glyph>
