<?xml version="1.0" encoding="UTF-8"?>
<glyph name="uniE662" format="1">
  <unicode hex="E662"/>
  <advance width="1522"/>
  <outline>
    <contour>
      <point x="1117" y="-379" type="line"/>
      <point x="1075" y="-435"/>
      <point x="978" y="-488"/>
      <point x="911" y="-488" type="qcurve" smooth="yes"/>
      <point x="823" y="-488"/>
      <point x="729" y="-383"/>
      <point x="729" y="-311" type="qcurve" smooth="yes"/>
      <point x="729" y="-146.227"/>
      <point x="944.144" y="35.0947" type="qcurve"/>
      <point x="885.247" y="79.5433"/>
      <point x="838" y="158" type="qcurve"/>
      <point x="726" y="-23"/>
      <point x="498" y="-23" type="qcurve" smooth="yes"/>
      <point x="323" y="-23"/>
      <point x="76" y="260"/>
      <point x="76" y="424" type="qcurve" smooth="yes"/>
      <point x="76" y="596"/>
      <point x="326" y="870"/>
      <point x="496" y="870" type="qcurve" smooth="yes"/>
      <point x="706" y="870"/>
      <point x="831" y="684" type="qcurve"/>
      <point x="948" y="870"/>
      <point x="1126" y="870" type="qcurve" smooth="yes"/>
      <point x="1259" y="870"/>
      <point x="1444" y="683"/>
      <point x="1444" y="604" type="qcurve" smooth="yes"/>
      <point x="1444" y="549"/>
      <point x="1393" y="549" type="qcurve" smooth="yes"/>
      <point x="944" y="549" type="line" smooth="yes"/>
      <point x="913" y="549"/>
      <point x="913" y="483" type="qcurve" smooth="yes"/>
      <point x="913" y="312"/>
      <point x="1074" y="94"/>
      <point x="1202" y="94" type="qcurve" smooth="yes"/>
      <point x="1293" y="94"/>
      <point x="1403" y="154" type="qcurve" smooth="yes"/>
      <point x="1423" y="165"/>
      <point x="1436" y="147" type="qcurve" smooth="yes"/>
      <point x="1444" y="136"/>
      <point x="1444" y="122"/>
      <point x="1438" y="117" type="qcurve" smooth="yes"/>
      <point x="1280" y="-23"/>
      <point x="1118" y="-23" type="qcurve" smooth="yes"/>
      <point x="1055.48" y="-23"/>
      <point x="1001.26" y="1.19163" type="qcurve"/>
      <point x="870" y="-140.602"/>
      <point x="870" y="-249" type="qcurve" smooth="yes"/>
      <point x="870" y="-377"/>
      <point x="993" y="-377" type="qcurve" smooth="yes"/>
      <point x="1053" y="-377"/>
      <point x="1096" y="-343" type="qcurve"/>
      <point x="1117" y="-350"/>
      <point x="1117" y="-379" type="qcurve"/>
    </contour>
    <contour>
      <point x="752" y="420" type="line" smooth="yes"/>
      <point x="752" y="589"/>
      <point x="601" y="811"/>
      <point x="498" y="811" type="qcurve" smooth="yes"/>
      <point x="401" y="811"/>
      <point x="238" y="593"/>
      <point x="238" y="433" type="qcurve" smooth="yes"/>
      <point x="238" y="245"/>
      <point x="402" y="43"/>
      <point x="496" y="43" type="qcurve" smooth="yes"/>
      <point x="613" y="43"/>
      <point x="752" y="272"/>
      <point x="752" y="420" type="qcurve" smooth="yes"/>
    </contour>
    <contour>
      <point x="1296" y="633" type="line" smooth="yes"/>
      <point x="1296" y="684"/>
      <point x="1185" y="811"/>
      <point x="1128" y="811" type="qcurve" smooth="yes"/>
      <point x="1078" y="811"/>
      <point x="1004" y="762"/>
      <point x="938" y="664"/>
      <point x="938" y="633" type="qcurve" smooth="yes"/>
      <point x="938" y="616"/>
      <point x="961" y="616" type="qcurve" smooth="yes"/>
      <point x="1282" y="616" type="line" smooth="yes"/>
      <point x="1296" y="616"/>
      <point x="1296" y="633" type="qcurve" smooth="yes"/>
    </contour>
  </outline>
</glyph>
