<?xml version="1.0" encoding="UTF-8"?>
<glyph name="uniEBE5" format="1">
  <unicode hex="EBE5"/>
  <advance width="1662"/>
  <outline>
    <component base="uniA74F"/>
    <component base="dieresis" xOffset="452"/>
  </outline>
</glyph>
