<?xml version="1.0" encoding="UTF-8"?>
<glyph name="uniE5D7" format="1">
  <unicode hex="E5D7"/>
  <advance width="1069"/>
  <outline>
    <component base="circumflex" xOffset="150"/>
    <component base="n"/>
  </outline>
</glyph>
