<?xml version="1.0" encoding="UTF-8"?>
<glyph name="uniEBE1" format="1">
  <unicode hex="EBE1"/>
  <advance width="995"/>
  <outline>
    <component base="dotbelowcomb" xOffset="506.542" yOffset="1.39872"/>
    <component base="oslash"/>
  </outline>
</glyph>
