<?xml version="1.0" encoding="UTF-8"?>
<glyph name="uniF200" format="1">
  <unicode hex="F200"/>
  <advance width="1012"/>
  <outline>
    <contour>
      <point x="1012" y="38" type="qcurve" smooth="yes"/>
      <point x="971" y="11"/>
      <point x="932" y="-4" type="qcurve"/>
      <point x="887" y="-19"/>
      <point x="840" y="-19" type="qcurve"/>
      <point x="768" y="-18"/>
      <point x="738" y="28" type="qcurve" smooth="yes"/>
      <point x="706" y="77"/>
      <point x="693" y="118" type="qcurve"/>
      <point x="663" y="79"/>
      <point x="649" y="66" type="qcurve" smooth="yes"/>
      <point x="554" y="-23"/>
      <point x="453" y="-23" type="qcurve" smooth="yes"/>
      <point x="256" y="-23"/>
      <point x="156" y="106" type="qcurve" smooth="yes"/>
      <point x="66" y="222"/>
      <point x="66" y="412" type="qcurve" smooth="yes"/>
      <point x="66" y="600"/>
      <point x="195" y="733" type="qcurve"/>
      <point x="330" y="870"/>
      <point x="541" y="870" type="qcurve" smooth="yes"/>
      <point x="608" y="870"/>
      <point x="653" y="852" type="qcurve" smooth="yes"/>
      <point x="700" y="832"/>
      <point x="716" y="817" type="qcurve"/>
      <point x="743" y="847"/>
      <point x="818" y="879" type="qcurve" smooth="yes"/>
      <point x="827" y="883"/>
      <point x="836" y="883" type="qcurve" smooth="yes"/>
      <point x="848" y="883"/>
      <point x="848" y="868" type="qcurve" smooth="yes"/>
      <point x="848" y="858"/>
      <point x="842" y="760"/>
      <point x="842" y="733" type="qcurve" smooth="yes"/>
      <point x="842" y="231" type="line" smooth="yes"/>
      <point x="842" y="54"/>
      <point x="912" y="54" type="qcurve" smooth="yes"/>
      <point x="932" y="54"/>
      <point x="978" y="87" type="qcurve" smooth="yes"/>
      <point x="990" y="95"/>
      <point x="1006" y="70" type="qcurve" smooth="yes"/>
      <point x="1016" y="54"/>
      <point x="1016" y="46" type="qcurve" smooth="yes"/>
      <point x="1016" y="40"/>
    </contour>
    <contour>
      <point x="688" y="199" type="qcurve" smooth="yes"/>
      <point x="688" y="668" type="line" smooth="yes"/>
      <point x="688" y="721"/>
      <point x="691" y="760" type="qcurve"/>
      <point x="626" y="810"/>
      <point x="518" y="811" type="qcurve"/>
      <point x="384" y="811"/>
      <point x="301" y="694" type="qcurve"/>
      <point x="229" y="588"/>
      <point x="229" y="440" type="qcurve" smooth="yes"/>
      <point x="229" y="291"/>
      <point x="311" y="182" type="qcurve"/>
      <point x="395" y="74"/>
      <point x="504" y="74" type="qcurve" smooth="yes"/>
      <point x="582" y="74"/>
      <point x="637" y="117" type="qcurve" smooth="yes"/>
      <point x="688" y="156"/>
    </contour>
    <contour>
      <point x="480" y="-75" type="move" name="below_center"/>
    </contour>
    <contour>
      <point x="480" y="900" type="move" name="above_center"/>
    </contour>
  </outline>
</glyph>
