<?xml version="1.0" encoding="UTF-8"?>
<glyph name="uniF1CC" format="1">
  <unicode hex="F1CC"/>
  <outline>
    <contour>
      <point x="-365" y="1020" type="qcurve" smooth="yes"/>
      <point x="-272" y="1163"/>
      <point x="-164" y="1163" type="qcurve" smooth="yes"/>
      <point x="-120" y="1163"/>
      <point x="46" y="1104"/>
      <point x="79" y="1104" type="qcurve" smooth="yes"/>
      <point x="173" y="1104"/>
      <point x="173" y="1212" type="qcurve" smooth="yes"/>
      <point x="173" y="1326"/>
      <point x="24" y="1327" type="qcurve"/>
      <point x="-30" y="1327"/>
      <point x="-70" y="1297" type="qcurve"/>
      <point x="-89" y="1303"/>
      <point x="-89" y="1329" type="qcurve"/>
      <point x="-49" y="1382"/>
      <point x="42" y="1428"/>
      <point x="98" y="1428" type="qcurve" smooth="yes"/>
      <point x="176" y="1428"/>
      <point x="268" y="1338"/>
      <point x="268" y="1268" type="qcurve" smooth="yes"/>
      <point x="268" y="1151"/>
      <point x="98" y="1000"/>
      <point x="28" y="1000" type="qcurve" smooth="yes"/>
      <point x="-20" y="1000"/>
      <point x="-185" y="1063"/>
      <point x="-226" y="1063" type="qcurve" smooth="yes"/>
      <point x="-280" y="1063"/>
      <point x="-341" y="1002" type="qcurve" smooth="yes"/>
      <point x="-347" y="996"/>
      <point x="-369" y="1014"/>
    </contour>
    <contour>
      <point x="0" y="900" type="move" name="_above_center_1"/>
    </contour>
    <contour>
      <point x="0" y="1438" type="move" name="above_center_1"/>
    </contour>
    <contour>
      <point x="0" y="900" type="move" name="_above_center"/>
    </contour>
  </outline>
</glyph>
