<?xml version="1.0" encoding="UTF-8"?>
<glyph name="uniF217" format="1">
  <unicode hex="F217"/>
  <advance width="1261"/>
  <outline>
    <contour>
      <point x="90" y="667" type="line" smooth="yes"/>
      <point x="90" y="950"/>
      <point x="452" y="1385"/>
      <point x="731" y="1385" type="qcurve" smooth="yes"/>
      <point x="877" y="1385"/>
      <point x="1097" y="1290"/>
      <point x="1135" y="1255" type="qcurve"/>
      <point x="1148" y="1306"/>
      <point x="1162" y="1358" type="qcurve" smooth="yes"/>
      <point x="1165" y="1368"/>
      <point x="1201" y="1368" type="qcurve" smooth="yes"/>
      <point x="1238" y="1368"/>
      <point x="1240" y="1358" type="qcurve"/>
      <point x="1126" y="926"/>
      <point x="1126" y="664" type="qcurve" smooth="yes"/>
      <point x="1126" y="402"/>
      <point x="1240" y="-33" type="qcurve"/>
      <point x="1236" y="-46"/>
      <point x="1166" y="-46"/>
      <point x="1162" y="-33" type="qcurve" smooth="yes"/>
      <point x="1138" y="46"/>
      <point x="1119" y="123" type="qcurve"/>
      <point x="1022" y="47"/>
      <point x="839" y="-27"/>
      <point x="728" y="-27" type="qcurve" smooth="yes"/>
      <point x="442" y="-27"/>
      <point x="90" y="365"/>
      <point x="90" y="667" type="qcurve" smooth="yes"/>
    </contour>
    <contour>
      <point x="1048" y="691" type="line"/>
      <point x="325" y="691" type="line" smooth="yes"/>
      <point x="287" y="691"/>
      <point x="286" y="649" type="qcurve" smooth="yes"/>
      <point x="286" y="415"/>
      <point x="550" y="90"/>
      <point x="712" y="90" type="qcurve" smooth="yes"/>
      <point x="873" y="90"/>
      <point x="1045" y="158"/>
      <point x="1102" y="195" type="qcurve"/>
      <point x="1048" y="439"/>
      <point x="1048" y="655" type="qcurve" smooth="yes"/>
      <point x="1048" y="673"/>
      <point x="1048" y="691" type="qcurve"/>
    </contour>
    <contour>
      <point x="1051" y="767" type="line"/>
      <point x="1062" y="927"/>
      <point x="1101" y="1114" type="qcurve"/>
      <point x="1047" y="1193"/>
      <point x="845" y="1314"/>
      <point x="726" y="1314" type="qcurve" smooth="yes"/>
      <point x="538" y="1314"/>
      <point x="286" y="985"/>
      <point x="286" y="810" type="qcurve" smooth="yes"/>
      <point x="286" y="767"/>
      <point x="325" y="767" type="qcurve" smooth="yes"/>
    </contour>
  </outline>
</glyph>
