<?xml version="1.0" encoding="UTF-8"?>
<glyph name="uniF02F" format="1">
  <unicode hex="F02F"/>
  <outline>
    <contour>
      <point x="107" y="1020" type="qcurve"/>
      <point x="65" y="1024"/>
      <point x="-57" y="1024"/>
      <point x="-101" y="1020" type="qcurve"/>
      <point x="-109" y="1020"/>
      <point x="-109" y="1051"/>
      <point x="-101" y="1051" type="qcurve" smooth="yes"/>
      <point x="-39" y="1051"/>
      <point x="-39" y="1094" type="qcurve" smooth="yes"/>
      <point x="-39" y="1317" type="line" smooth="yes"/>
      <point x="-39" y="1380"/>
      <point x="-52" y="1397" type="qcurve" smooth="yes"/>
      <point x="-62" y="1410"/>
      <point x="-85" y="1410" type="qcurve" smooth="yes"/>
      <point x="-94" y="1410"/>
      <point x="-95" y="1441"/>
      <point x="-85" y="1441" type="qcurve" smooth="yes"/>
      <point x="-53" y="1441"/>
      <point x="26" y="1504" type="qcurve" smooth="yes"/>
      <point x="34" y="1510"/>
      <point x="39" y="1510" type="qcurve" smooth="yes"/>
      <point x="49" y="1510"/>
      <point x="49" y="1498" type="qcurve"/>
      <point x="45" y="1462"/>
      <point x="45" y="1426" type="qcurve" smooth="yes"/>
      <point x="45" y="1094" type="line" smooth="yes"/>
      <point x="45" y="1051"/>
      <point x="107" y="1051" type="qcurve" smooth="yes"/>
      <point x="115" y="1051"/>
      <point x="115" y="1020"/>
    </contour>
    <contour>
      <point x="0" y="900" type="move" name="_above_center_1"/>
    </contour>
    <contour>
      <point x="0" y="1520" type="move" name="above_center_1"/>
    </contour>
    <contour>
      <point x="0" y="900" type="move" name="_above_center"/>
    </contour>
  </outline>
</glyph>
