<?xml version="1.0" encoding="UTF-8"?>
<glyph name="uni01CB" format="1">
  <advance width="2074"/>
  <unicode hex="01CB"/>
  <outline>
    <component base="j" xOffset="1585"/>
    <component base="N"/>
  </outline>
</glyph>
